01:38:20 ----------------------------------------------------------------------
01:38:20 Run parallel method execution time:5930 ms
01:38:20 Path weight: 479.04657600653263
Path
[7, 47, 22, 6, 42, 23, 5, 26, 0, 31, 10, 37, 4, 48, 8, 49, 15, 1, 21, 27, 2, 19, 34, 35, 28, 20, 33, 29, 38, 9, 32, 14, 44, 43, 41, 18, 40, 39, 12, 24, 13, 17, 46, 3, 16, 36, 11, 45, 50, 30, 25, 7]
01:38:20 Report{graphName='eil51'
, graphDescription='51-city problem (Christofides/Eilon)'
, algorithmName='AntColonyAlgorithm'
, time=5930'
, constants={P=0.2, Q=1.0, ITERATIONS_COUNT=330, ALPHA=1.0, INITIAL_PHEROMONE_LEVEL=0.1, ANTS_NUMBER=45, BETA=1.0}'
, iterationResults=[IterationResult{iteration=0,
 cycle=Cycle{
vertexes=[7, 47, 22, 6, 42, 23, 5, 26, 0, 31, 10, 37, 4, 48, 8, 49, 15, 1, 21, 27, 2, 19, 34, 35, 28, 20, 33, 29, 38, 9, 32, 14, 44, 43, 41, 18, 40, 39, 12, 24, 13, 17, 46, 3, 16, 36, 11, 45, 50, 30, 25, 7],
 n=51,
 length=1157.1643994464782
}}, IterationResult{iteration=1,
 cycle=Cycle{
vertexes=[7, 47, 22, 6, 42, 23, 5, 26, 0, 31, 10, 37, 4, 48, 8, 49, 15, 1, 21, 27, 2, 19, 34, 35, 28, 20, 33, 29, 38, 9, 32, 14, 44, 43, 41, 18, 40, 39, 12, 24, 13, 17, 46, 3, 16, 36, 11, 45, 50, 30, 25, 7],
 n=51,
 length=1123.670466762678
}}, IterationResult{iteration=2,
 cycle=Cycle{
vertexes=[7, 47, 22, 6, 42, 23, 5, 26, 0, 31, 10, 37, 4, 48, 8, 49, 15, 1, 21, 27, 2, 19, 34, 35, 28, 20, 33, 29, 38, 9, 32, 14, 44, 43, 41, 18, 40, 39, 12, 24, 13, 17, 46, 3, 16, 36, 11, 45, 50, 30, 25, 7],
 n=51,
 length=1123.670466762678
}}, IterationResult{iteration=3,
 cycle=Cycle{
vertexes=[7, 47, 22, 6, 42, 23, 5, 26, 0, 31, 10, 37, 4, 48, 8, 49, 15, 1, 21, 27, 2, 19, 34, 35, 28, 20, 33, 29, 38, 9, 32, 14, 44, 43, 41, 18, 40, 39, 12, 24, 13, 17, 46, 3, 16, 36, 11, 45, 50, 30, 25, 7],
 n=51,
 length=1123.670466762678
}}, IterationResult{iteration=4,
 cycle=Cycle{
vertexes=[7, 47, 22, 6, 42, 23, 5, 26, 0, 31, 10, 37, 4, 48, 8, 49, 15, 1, 21, 27, 2, 19, 34, 35, 28, 20, 33, 29, 38, 9, 32, 14, 44, 43, 41, 18, 40, 39, 12, 24, 13, 17, 46, 3, 16, 36, 11, 45, 50, 30, 25, 7],
 n=51,
 length=1047.1180469230294
}}, IterationResult{iteration=5,
 cycle=Cycle{
vertexes=[7, 47, 22, 6, 42, 23, 5, 26, 0, 31, 10, 37, 4, 48, 8, 49, 15, 1, 21, 27, 2, 19, 34, 35, 28, 20, 33, 29, 38, 9, 32, 14, 44, 43, 41, 18, 40, 39, 12, 24, 13, 17, 46, 3, 16, 36, 11, 45, 50, 30, 25, 7],
 n=51,
 length=1022.6130578420674
}}, IterationResult{iteration=6,
 cycle=Cycle{
vertexes=[7, 47, 22, 6, 42, 23, 5, 26, 0, 31, 10, 37, 4, 48, 8, 49, 15, 1, 21, 27, 2, 19, 34, 35, 28, 20, 33, 29, 38, 9, 32, 14, 44, 43, 41, 18, 40, 39, 12, 24, 13, 17, 46, 3, 16, 36, 11, 45, 50, 30, 25, 7],
 n=51,
 length=1022.6130578420674
}}, IterationResult{iteration=7,
 cycle=Cycle{
vertexes=[7, 47, 22, 6, 42, 23, 5, 26, 0, 31, 10, 37, 4, 48, 8, 49, 15, 1, 21, 27, 2, 19, 34, 35, 28, 20, 33, 29, 38, 9, 32, 14, 44, 43, 41, 18, 40, 39, 12, 24, 13, 17, 46, 3, 16, 36, 11, 45, 50, 30, 25, 7],
 n=51,
 length=1022.6130578420674
}}, IterationResult{iteration=8,
 cycle=Cycle{
vertexes=[7, 47, 22, 6, 42, 23, 5, 26, 0, 31, 10, 37, 4, 48, 8, 49, 15, 1, 21, 27, 2, 19, 34, 35, 28, 20, 33, 29, 38, 9, 32, 14, 44, 43, 41, 18, 40, 39, 12, 24, 13, 17, 46, 3, 16, 36, 11, 45, 50, 30, 25, 7],
 n=51,
 length=1022.6130578420674
}}, IterationResult{iteration=9,
 cycle=Cycle{
vertexes=[7, 47, 22, 6, 42, 23, 5, 26, 0, 31, 10, 37, 4, 48, 8, 49, 15, 1, 21, 27, 2, 19, 34, 35, 28, 20, 33, 29, 38, 9, 32, 14, 44, 43, 41, 18, 40, 39, 12, 24, 13, 17, 46, 3, 16, 36, 11, 45, 50, 30, 25, 7],
 n=51,
 length=1022.2934285103273
}}, IterationResult{iteration=10,
 cycle=Cycle{
vertexes=[7, 47, 22, 6, 42, 23, 5, 26, 0, 31, 10, 37, 4, 48, 8, 49, 15, 1, 21, 27, 2, 19, 34, 35, 28, 20, 33, 29, 38, 9, 32, 14, 44, 43, 41, 18, 40, 39, 12, 24, 13, 17, 46, 3, 16, 36, 11, 45, 50, 30, 25, 7],
 n=51,
 length=1022.2934285103273
}}, IterationResult{iteration=11,
 cycle=Cycle{
vertexes=[7, 47, 22, 6, 42, 23, 5, 26, 0, 31, 10, 37, 4, 48, 8, 49, 15, 1, 21, 27, 2, 19, 34, 35, 28, 20, 33, 29, 38, 9, 32, 14, 44, 43, 41, 18, 40, 39, 12, 24, 13, 17, 46, 3, 16, 36, 11, 45, 50, 30, 25, 7],
 n=51,
 length=1018.7084762020836
}}, IterationResult{iteration=12,
 cycle=Cycle{
vertexes=[7, 47, 22, 6, 42, 23, 5, 26, 0, 31, 10, 37, 4, 48, 8, 49, 15, 1, 21, 27, 2, 19, 34, 35, 28, 20, 33, 29, 38, 9, 32, 14, 44, 43, 41, 18, 40, 39, 12, 24, 13, 17, 46, 3, 16, 36, 11, 45, 50, 30, 25, 7],
 n=51,
 length=982.152179824646
}}, IterationResult{iteration=13,
 cycle=Cycle{
vertexes=[7, 47, 22, 6, 42, 23, 5, 26, 0, 31, 10, 37, 4, 48, 8, 49, 15, 1, 21, 27, 2, 19, 34, 35, 28, 20, 33, 29, 38, 9, 32, 14, 44, 43, 41, 18, 40, 39, 12, 24, 13, 17, 46, 3, 16, 36, 11, 45, 50, 30, 25, 7],
 n=51,
 length=967.8253784204837
}}, IterationResult{iteration=14,
 cycle=Cycle{
vertexes=[7, 47, 22, 6, 42, 23, 5, 26, 0, 31, 10, 37, 4, 48, 8, 49, 15, 1, 21, 27, 2, 19, 34, 35, 28, 20, 33, 29, 38, 9, 32, 14, 44, 43, 41, 18, 40, 39, 12, 24, 13, 17, 46, 3, 16, 36, 11, 45, 50, 30, 25, 7],
 n=51,
 length=863.0824872171769
}}, IterationResult{iteration=15,
 cycle=Cycle{
vertexes=[7, 47, 22, 6, 42, 23, 5, 26, 0, 31, 10, 37, 4, 48, 8, 49, 15, 1, 21, 27, 2, 19, 34, 35, 28, 20, 33, 29, 38, 9, 32, 14, 44, 43, 41, 18, 40, 39, 12, 24, 13, 17, 46, 3, 16, 36, 11, 45, 50, 30, 25, 7],
 n=51,
 length=863.0824872171769
}}, IterationResult{iteration=16,
 cycle=Cycle{
vertexes=[7, 47, 22, 6, 42, 23, 5, 26, 0, 31, 10, 37, 4, 48, 8, 49, 15, 1, 21, 27, 2, 19, 34, 35, 28, 20, 33, 29, 38, 9, 32, 14, 44, 43, 41, 18, 40, 39, 12, 24, 13, 17, 46, 3, 16, 36, 11, 45, 50, 30, 25, 7],
 n=51,
 length=834.151299962656
}}, IterationResult{iteration=17,
 cycle=Cycle{
vertexes=[7, 47, 22, 6, 42, 23, 5, 26, 0, 31, 10, 37, 4, 48, 8, 49, 15, 1, 21, 27, 2, 19, 34, 35, 28, 20, 33, 29, 38, 9, 32, 14, 44, 43, 41, 18, 40, 39, 12, 24, 13, 17, 46, 3, 16, 36, 11, 45, 50, 30, 25, 7],
 n=51,
 length=799.3401338518547
}}, IterationResult{iteration=18,
 cycle=Cycle{
vertexes=[7, 47, 22, 6, 42, 23, 5, 26, 0, 31, 10, 37, 4, 48, 8, 49, 15, 1, 21, 27, 2, 19, 34, 35, 28, 20, 33, 29, 38, 9, 32, 14, 44, 43, 41, 18, 40, 39, 12, 24, 13, 17, 46, 3, 16, 36, 11, 45, 50, 30, 25, 7],
 n=51,
 length=778.783171841466
}}, IterationResult{iteration=19,
 cycle=Cycle{
vertexes=[7, 47, 22, 6, 42, 23, 5, 26, 0, 31, 10, 37, 4, 48, 8, 49, 15, 1, 21, 27, 2, 19, 34, 35, 28, 20, 33, 29, 38, 9, 32, 14, 44, 43, 41, 18, 40, 39, 12, 24, 13, 17, 46, 3, 16, 36, 11, 45, 50, 30, 25, 7],
 n=51,
 length=727.5465353913485
}}, IterationResult{iteration=20,
 cycle=Cycle{
vertexes=[7, 47, 22, 6, 42, 23, 5, 26, 0, 31, 10, 37, 4, 48, 8, 49, 15, 1, 21, 27, 2, 19, 34, 35, 28, 20, 33, 29, 38, 9, 32, 14, 44, 43, 41, 18, 40, 39, 12, 24, 13, 17, 46, 3, 16, 36, 11, 45, 50, 30, 25, 7],
 n=51,
 length=727.5465353913485
}}, IterationResult{iteration=21,
 cycle=Cycle{
vertexes=[7, 47, 22, 6, 42, 23, 5, 26, 0, 31, 10, 37, 4, 48, 8, 49, 15, 1, 21, 27, 2, 19, 34, 35, 28, 20, 33, 29, 38, 9, 32, 14, 44, 43, 41, 18, 40, 39, 12, 24, 13, 17, 46, 3, 16, 36, 11, 45, 50, 30, 25, 7],
 n=51,
 length=724.4441810926946
}}, IterationResult{iteration=22,
 cycle=Cycle{
vertexes=[7, 47, 22, 6, 42, 23, 5, 26, 0, 31, 10, 37, 4, 48, 8, 49, 15, 1, 21, 27, 2, 19, 34, 35, 28, 20, 33, 29, 38, 9, 32, 14, 44, 43, 41, 18, 40, 39, 12, 24, 13, 17, 46, 3, 16, 36, 11, 45, 50, 30, 25, 7],
 n=51,
 length=694.2552632784453
}}, IterationResult{iteration=23,
 cycle=Cycle{
vertexes=[7, 47, 22, 6, 42, 23, 5, 26, 0, 31, 10, 37, 4, 48, 8, 49, 15, 1, 21, 27, 2, 19, 34, 35, 28, 20, 33, 29, 38, 9, 32, 14, 44, 43, 41, 18, 40, 39, 12, 24, 13, 17, 46, 3, 16, 36, 11, 45, 50, 30, 25, 7],
 n=51,
 length=694.2552632784453
}}, IterationResult{iteration=24,
 cycle=Cycle{
vertexes=[7, 47, 22, 6, 42, 23, 5, 26, 0, 31, 10, 37, 4, 48, 8, 49, 15, 1, 21, 27, 2, 19, 34, 35, 28, 20, 33, 29, 38, 9, 32, 14, 44, 43, 41, 18, 40, 39, 12, 24, 13, 17, 46, 3, 16, 36, 11, 45, 50, 30, 25, 7],
 n=51,
 length=673.2825698230708
}}, IterationResult{iteration=25,
 cycle=Cycle{
vertexes=[7, 47, 22, 6, 42, 23, 5, 26, 0, 31, 10, 37, 4, 48, 8, 49, 15, 1, 21, 27, 2, 19, 34, 35, 28, 20, 33, 29, 38, 9, 32, 14, 44, 43, 41, 18, 40, 39, 12, 24, 13, 17, 46, 3, 16, 36, 11, 45, 50, 30, 25, 7],
 n=51,
 length=613.4329765508637
}}, IterationResult{iteration=26,
 cycle=Cycle{
vertexes=[7, 47, 22, 6, 42, 23, 5, 26, 0, 31, 10, 37, 4, 48, 8, 49, 15, 1, 21, 27, 2, 19, 34, 35, 28, 20, 33, 29, 38, 9, 32, 14, 44, 43, 41, 18, 40, 39, 12, 24, 13, 17, 46, 3, 16, 36, 11, 45, 50, 30, 25, 7],
 n=51,
 length=613.4329765508637
}}, IterationResult{iteration=27,
 cycle=Cycle{
vertexes=[7, 47, 22, 6, 42, 23, 5, 26, 0, 31, 10, 37, 4, 48, 8, 49, 15, 1, 21, 27, 2, 19, 34, 35, 28, 20, 33, 29, 38, 9, 32, 14, 44, 43, 41, 18, 40, 39, 12, 24, 13, 17, 46, 3, 16, 36, 11, 45, 50, 30, 25, 7],
 n=51,
 length=613.4329765508637
}}, IterationResult{iteration=28,
 cycle=Cycle{
vertexes=[7, 47, 22, 6, 42, 23, 5, 26, 0, 31, 10, 37, 4, 48, 8, 49, 15, 1, 21, 27, 2, 19, 34, 35, 28, 20, 33, 29, 38, 9, 32, 14, 44, 43, 41, 18, 40, 39, 12, 24, 13, 17, 46, 3, 16, 36, 11, 45, 50, 30, 25, 7],
 n=51,
 length=599.7418850050304
}}, IterationResult{iteration=29,
 cycle=Cycle{
vertexes=[7, 47, 22, 6, 42, 23, 5, 26, 0, 31, 10, 37, 4, 48, 8, 49, 15, 1, 21, 27, 2, 19, 34, 35, 28, 20, 33, 29, 38, 9, 32, 14, 44, 43, 41, 18, 40, 39, 12, 24, 13, 17, 46, 3, 16, 36, 11, 45, 50, 30, 25, 7],
 n=51,
 length=547.6969704559418
}}, IterationResult{iteration=30,
 cycle=Cycle{
vertexes=[7, 47, 22, 6, 42, 23, 5, 26, 0, 31, 10, 37, 4, 48, 8, 49, 15, 1, 21, 27, 2, 19, 34, 35, 28, 20, 33, 29, 38, 9, 32, 14, 44, 43, 41, 18, 40, 39, 12, 24, 13, 17, 46, 3, 16, 36, 11, 45, 50, 30, 25, 7],
 n=51,
 length=547.6969704559418
}}, IterationResult{iteration=31,
 cycle=Cycle{
vertexes=[7, 47, 22, 6, 42, 23, 5, 26, 0, 31, 10, 37, 4, 48, 8, 49, 15, 1, 21, 27, 2, 19, 34, 35, 28, 20, 33, 29, 38, 9, 32, 14, 44, 43, 41, 18, 40, 39, 12, 24, 13, 17, 46, 3, 16, 36, 11, 45, 50, 30, 25, 7],
 n=51,
 length=547.6969704559418
}}, IterationResult{iteration=32,
 cycle=Cycle{
vertexes=[7, 47, 22, 6, 42, 23, 5, 26, 0, 31, 10, 37, 4, 48, 8, 49, 15, 1, 21, 27, 2, 19, 34, 35, 28, 20, 33, 29, 38, 9, 32, 14, 44, 43, 41, 18, 40, 39, 12, 24, 13, 17, 46, 3, 16, 36, 11, 45, 50, 30, 25, 7],
 n=51,
 length=547.6969704559418
}}, IterationResult{iteration=33,
 cycle=Cycle{
vertexes=[7, 47, 22, 6, 42, 23, 5, 26, 0, 31, 10, 37, 4, 48, 8, 49, 15, 1, 21, 27, 2, 19, 34, 35, 28, 20, 33, 29, 38, 9, 32, 14, 44, 43, 41, 18, 40, 39, 12, 24, 13, 17, 46, 3, 16, 36, 11, 45, 50, 30, 25, 7],
 n=51,
 length=547.6969704559418
}}, IterationResult{iteration=34,
 cycle=Cycle{
vertexes=[7, 47, 22, 6, 42, 23, 5, 26, 0, 31, 10, 37, 4, 48, 8, 49, 15, 1, 21, 27, 2, 19, 34, 35, 28, 20, 33, 29, 38, 9, 32, 14, 44, 43, 41, 18, 40, 39, 12, 24, 13, 17, 46, 3, 16, 36, 11, 45, 50, 30, 25, 7],
 n=51,
 length=547.6969704559418
}}, IterationResult{iteration=35,
 cycle=Cycle{
vertexes=[7, 47, 22, 6, 42, 23, 5, 26, 0, 31, 10, 37, 4, 48, 8, 49, 15, 1, 21, 27, 2, 19, 34, 35, 28, 20, 33, 29, 38, 9, 32, 14, 44, 43, 41, 18, 40, 39, 12, 24, 13, 17, 46, 3, 16, 36, 11, 45, 50, 30, 25, 7],
 n=51,
 length=547.6969704559418
}}, IterationResult{iteration=36,
 cycle=Cycle{
vertexes=[7, 47, 22, 6, 42, 23, 5, 26, 0, 31, 10, 37, 4, 48, 8, 49, 15, 1, 21, 27, 2, 19, 34, 35, 28, 20, 33, 29, 38, 9, 32, 14, 44, 43, 41, 18, 40, 39, 12, 24, 13, 17, 46, 3, 16, 36, 11, 45, 50, 30, 25, 7],
 n=51,
 length=547.6969704559418
}}, IterationResult{iteration=37,
 cycle=Cycle{
vertexes=[7, 47, 22, 6, 42, 23, 5, 26, 0, 31, 10, 37, 4, 48, 8, 49, 15, 1, 21, 27, 2, 19, 34, 35, 28, 20, 33, 29, 38, 9, 32, 14, 44, 43, 41, 18, 40, 39, 12, 24, 13, 17, 46, 3, 16, 36, 11, 45, 50, 30, 25, 7],
 n=51,
 length=547.6969704559418
}}, IterationResult{iteration=38,
 cycle=Cycle{
vertexes=[7, 47, 22, 6, 42, 23, 5, 26, 0, 31, 10, 37, 4, 48, 8, 49, 15, 1, 21, 27, 2, 19, 34, 35, 28, 20, 33, 29, 38, 9, 32, 14, 44, 43, 41, 18, 40, 39, 12, 24, 13, 17, 46, 3, 16, 36, 11, 45, 50, 30, 25, 7],
 n=51,
 length=542.292040942309
}}, IterationResult{iteration=39,
 cycle=Cycle{
vertexes=[7, 47, 22, 6, 42, 23, 5, 26, 0, 31, 10, 37, 4, 48, 8, 49, 15, 1, 21, 27, 2, 19, 34, 35, 28, 20, 33, 29, 38, 9, 32, 14, 44, 43, 41, 18, 40, 39, 12, 24, 13, 17, 46, 3, 16, 36, 11, 45, 50, 30, 25, 7],
 n=51,
 length=542.292040942309
}}, IterationResult{iteration=40,
 cycle=Cycle{
vertexes=[7, 47, 22, 6, 42, 23, 5, 26, 0, 31, 10, 37, 4, 48, 8, 49, 15, 1, 21, 27, 2, 19, 34, 35, 28, 20, 33, 29, 38, 9, 32, 14, 44, 43, 41, 18, 40, 39, 12, 24, 13, 17, 46, 3, 16, 36, 11, 45, 50, 30, 25, 7],
 n=51,
 length=542.292040942309
}}, IterationResult{iteration=41,
 cycle=Cycle{
vertexes=[7, 47, 22, 6, 42, 23, 5, 26, 0, 31, 10, 37, 4, 48, 8, 49, 15, 1, 21, 27, 2, 19, 34, 35, 28, 20, 33, 29, 38, 9, 32, 14, 44, 43, 41, 18, 40, 39, 12, 24, 13, 17, 46, 3, 16, 36, 11, 45, 50, 30, 25, 7],
 n=51,
 length=542.292040942309
}}, IterationResult{iteration=42,
 cycle=Cycle{
vertexes=[7, 47, 22, 6, 42, 23, 5, 26, 0, 31, 10, 37, 4, 48, 8, 49, 15, 1, 21, 27, 2, 19, 34, 35, 28, 20, 33, 29, 38, 9, 32, 14, 44, 43, 41, 18, 40, 39, 12, 24, 13, 17, 46, 3, 16, 36, 11, 45, 50, 30, 25, 7],
 n=51,
 length=542.292040942309
}}, IterationResult{iteration=43,
 cycle=Cycle{
vertexes=[7, 47, 22, 6, 42, 23, 5, 26, 0, 31, 10, 37, 4, 48, 8, 49, 15, 1, 21, 27, 2, 19, 34, 35, 28, 20, 33, 29, 38, 9, 32, 14, 44, 43, 41, 18, 40, 39, 12, 24, 13, 17, 46, 3, 16, 36, 11, 45, 50, 30, 25, 7],
 n=51,
 length=539.642589298308
}}, IterationResult{iteration=44,
 cycle=Cycle{
vertexes=[7, 47, 22, 6, 42, 23, 5, 26, 0, 31, 10, 37, 4, 48, 8, 49, 15, 1, 21, 27, 2, 19, 34, 35, 28, 20, 33, 29, 38, 9, 32, 14, 44, 43, 41, 18, 40, 39, 12, 24, 13, 17, 46, 3, 16, 36, 11, 45, 50, 30, 25, 7],
 n=51,
 length=539.642589298308
}}, IterationResult{iteration=45,
 cycle=Cycle{
vertexes=[7, 47, 22, 6, 42, 23, 5, 26, 0, 31, 10, 37, 4, 48, 8, 49, 15, 1, 21, 27, 2, 19, 34, 35, 28, 20, 33, 29, 38, 9, 32, 14, 44, 43, 41, 18, 40, 39, 12, 24, 13, 17, 46, 3, 16, 36, 11, 45, 50, 30, 25, 7],
 n=51,
 length=531.7906633294485
}}, IterationResult{iteration=46,
 cycle=Cycle{
vertexes=[7, 47, 22, 6, 42, 23, 5, 26, 0, 31, 10, 37, 4, 48, 8, 49, 15, 1, 21, 27, 2, 19, 34, 35, 28, 20, 33, 29, 38, 9, 32, 14, 44, 43, 41, 18, 40, 39, 12, 24, 13, 17, 46, 3, 16, 36, 11, 45, 50, 30, 25, 7],
 n=51,
 length=531.7906633294485
}}, IterationResult{iteration=47,
 cycle=Cycle{
vertexes=[7, 47, 22, 6, 42, 23, 5, 26, 0, 31, 10, 37, 4, 48, 8, 49, 15, 1, 21, 27, 2, 19, 34, 35, 28, 20, 33, 29, 38, 9, 32, 14, 44, 43, 41, 18, 40, 39, 12, 24, 13, 17, 46, 3, 16, 36, 11, 45, 50, 30, 25, 7],
 n=51,
 length=531.7906633294485
}}, IterationResult{iteration=48,
 cycle=Cycle{
vertexes=[7, 47, 22, 6, 42, 23, 5, 26, 0, 31, 10, 37, 4, 48, 8, 49, 15, 1, 21, 27, 2, 19, 34, 35, 28, 20, 33, 29, 38, 9, 32, 14, 44, 43, 41, 18, 40, 39, 12, 24, 13, 17, 46, 3, 16, 36, 11, 45, 50, 30, 25, 7],
 n=51,
 length=531.7906633294485
}}, IterationResult{iteration=49,
 cycle=Cycle{
vertexes=[7, 47, 22, 6, 42, 23, 5, 26, 0, 31, 10, 37, 4, 48, 8, 49, 15, 1, 21, 27, 2, 19, 34, 35, 28, 20, 33, 29, 38, 9, 32, 14, 44, 43, 41, 18, 40, 39, 12, 24, 13, 17, 46, 3, 16, 36, 11, 45, 50, 30, 25, 7],
 n=51,
 length=531.7906633294485
}}, IterationResult{iteration=50,
 cycle=Cycle{
vertexes=[7, 47, 22, 6, 42, 23, 5, 26, 0, 31, 10, 37, 4, 48, 8, 49, 15, 1, 21, 27, 2, 19, 34, 35, 28, 20, 33, 29, 38, 9, 32, 14, 44, 43, 41, 18, 40, 39, 12, 24, 13, 17, 46, 3, 16, 36, 11, 45, 50, 30, 25, 7],
 n=51,
 length=531.7906633294485
}}, IterationResult{iteration=51,
 cycle=Cycle{
vertexes=[7, 47, 22, 6, 42, 23, 5, 26, 0, 31, 10, 37, 4, 48, 8, 49, 15, 1, 21, 27, 2, 19, 34, 35, 28, 20, 33, 29, 38, 9, 32, 14, 44, 43, 41, 18, 40, 39, 12, 24, 13, 17, 46, 3, 16, 36, 11, 45, 50, 30, 25, 7],
 n=51,
 length=531.7906633294485
}}, IterationResult{iteration=52,
 cycle=Cycle{
vertexes=[7, 47, 22, 6, 42, 23, 5, 26, 0, 31, 10, 37, 4, 48, 8, 49, 15, 1, 21, 27, 2, 19, 34, 35, 28, 20, 33, 29, 38, 9, 32, 14, 44, 43, 41, 18, 40, 39, 12, 24, 13, 17, 46, 3, 16, 36, 11, 45, 50, 30, 25, 7],
 n=51,
 length=531.7906633294485
}}, IterationResult{iteration=53,
 cycle=Cycle{
vertexes=[7, 47, 22, 6, 42, 23, 5, 26, 0, 31, 10, 37, 4, 48, 8, 49, 15, 1, 21, 27, 2, 19, 34, 35, 28, 20, 33, 29, 38, 9, 32, 14, 44, 43, 41, 18, 40, 39, 12, 24, 13, 17, 46, 3, 16, 36, 11, 45, 50, 30, 25, 7],
 n=51,
 length=531.7906633294485
}}, IterationResult{iteration=54,
 cycle=Cycle{
vertexes=[7, 47, 22, 6, 42, 23, 5, 26, 0, 31, 10, 37, 4, 48, 8, 49, 15, 1, 21, 27, 2, 19, 34, 35, 28, 20, 33, 29, 38, 9, 32, 14, 44, 43, 41, 18, 40, 39, 12, 24, 13, 17, 46, 3, 16, 36, 11, 45, 50, 30, 25, 7],
 n=51,
 length=518.1166666317264
}}, IterationResult{iteration=55,
 cycle=Cycle{
vertexes=[7, 47, 22, 6, 42, 23, 5, 26, 0, 31, 10, 37, 4, 48, 8, 49, 15, 1, 21, 27, 2, 19, 34, 35, 28, 20, 33, 29, 38, 9, 32, 14, 44, 43, 41, 18, 40, 39, 12, 24, 13, 17, 46, 3, 16, 36, 11, 45, 50, 30, 25, 7],
 n=51,
 length=518.1166666317264
}}, IterationResult{iteration=56,
 cycle=Cycle{
vertexes=[7, 47, 22, 6, 42, 23, 5, 26, 0, 31, 10, 37, 4, 48, 8, 49, 15, 1, 21, 27, 2, 19, 34, 35, 28, 20, 33, 29, 38, 9, 32, 14, 44, 43, 41, 18, 40, 39, 12, 24, 13, 17, 46, 3, 16, 36, 11, 45, 50, 30, 25, 7],
 n=51,
 length=518.1166666317264
}}, IterationResult{iteration=57,
 cycle=Cycle{
vertexes=[7, 47, 22, 6, 42, 23, 5, 26, 0, 31, 10, 37, 4, 48, 8, 49, 15, 1, 21, 27, 2, 19, 34, 35, 28, 20, 33, 29, 38, 9, 32, 14, 44, 43, 41, 18, 40, 39, 12, 24, 13, 17, 46, 3, 16, 36, 11, 45, 50, 30, 25, 7],
 n=51,
 length=518.1166666317264
}}, IterationResult{iteration=58,
 cycle=Cycle{
vertexes=[7, 47, 22, 6, 42, 23, 5, 26, 0, 31, 10, 37, 4, 48, 8, 49, 15, 1, 21, 27, 2, 19, 34, 35, 28, 20, 33, 29, 38, 9, 32, 14, 44, 43, 41, 18, 40, 39, 12, 24, 13, 17, 46, 3, 16, 36, 11, 45, 50, 30, 25, 7],
 n=51,
 length=518.1166666317264
}}, IterationResult{iteration=59,
 cycle=Cycle{
vertexes=[7, 47, 22, 6, 42, 23, 5, 26, 0, 31, 10, 37, 4, 48, 8, 49, 15, 1, 21, 27, 2, 19, 34, 35, 28, 20, 33, 29, 38, 9, 32, 14, 44, 43, 41, 18, 40, 39, 12, 24, 13, 17, 46, 3, 16, 36, 11, 45, 50, 30, 25, 7],
 n=51,
 length=518.1166666317264
}}, IterationResult{iteration=60,
 cycle=Cycle{
vertexes=[7, 47, 22, 6, 42, 23, 5, 26, 0, 31, 10, 37, 4, 48, 8, 49, 15, 1, 21, 27, 2, 19, 34, 35, 28, 20, 33, 29, 38, 9, 32, 14, 44, 43, 41, 18, 40, 39, 12, 24, 13, 17, 46, 3, 16, 36, 11, 45, 50, 30, 25, 7],
 n=51,
 length=518.1166666317264
}}, IterationResult{iteration=61,
 cycle=Cycle{
vertexes=[7, 47, 22, 6, 42, 23, 5, 26, 0, 31, 10, 37, 4, 48, 8, 49, 15, 1, 21, 27, 2, 19, 34, 35, 28, 20, 33, 29, 38, 9, 32, 14, 44, 43, 41, 18, 40, 39, 12, 24, 13, 17, 46, 3, 16, 36, 11, 45, 50, 30, 25, 7],
 n=51,
 length=518.1166666317264
}}, IterationResult{iteration=62,
 cycle=Cycle{
vertexes=[7, 47, 22, 6, 42, 23, 5, 26, 0, 31, 10, 37, 4, 48, 8, 49, 15, 1, 21, 27, 2, 19, 34, 35, 28, 20, 33, 29, 38, 9, 32, 14, 44, 43, 41, 18, 40, 39, 12, 24, 13, 17, 46, 3, 16, 36, 11, 45, 50, 30, 25, 7],
 n=51,
 length=518.1166666317264
}}, IterationResult{iteration=63,
 cycle=Cycle{
vertexes=[7, 47, 22, 6, 42, 23, 5, 26, 0, 31, 10, 37, 4, 48, 8, 49, 15, 1, 21, 27, 2, 19, 34, 35, 28, 20, 33, 29, 38, 9, 32, 14, 44, 43, 41, 18, 40, 39, 12, 24, 13, 17, 46, 3, 16, 36, 11, 45, 50, 30, 25, 7],
 n=51,
 length=518.1166666317264
}}, IterationResult{iteration=64,
 cycle=Cycle{
vertexes=[7, 47, 22, 6, 42, 23, 5, 26, 0, 31, 10, 37, 4, 48, 8, 49, 15, 1, 21, 27, 2, 19, 34, 35, 28, 20, 33, 29, 38, 9, 32, 14, 44, 43, 41, 18, 40, 39, 12, 24, 13, 17, 46, 3, 16, 36, 11, 45, 50, 30, 25, 7],
 n=51,
 length=518.1166666317264
}}, IterationResult{iteration=65,
 cycle=Cycle{
vertexes=[7, 47, 22, 6, 42, 23, 5, 26, 0, 31, 10, 37, 4, 48, 8, 49, 15, 1, 21, 27, 2, 19, 34, 35, 28, 20, 33, 29, 38, 9, 32, 14, 44, 43, 41, 18, 40, 39, 12, 24, 13, 17, 46, 3, 16, 36, 11, 45, 50, 30, 25, 7],
 n=51,
 length=518.1166666317264
}}, IterationResult{iteration=66,
 cycle=Cycle{
vertexes=[7, 47, 22, 6, 42, 23, 5, 26, 0, 31, 10, 37, 4, 48, 8, 49, 15, 1, 21, 27, 2, 19, 34, 35, 28, 20, 33, 29, 38, 9, 32, 14, 44, 43, 41, 18, 40, 39, 12, 24, 13, 17, 46, 3, 16, 36, 11, 45, 50, 30, 25, 7],
 n=51,
 length=518.1166666317264
}}, IterationResult{iteration=67,
 cycle=Cycle{
vertexes=[7, 47, 22, 6, 42, 23, 5, 26, 0, 31, 10, 37, 4, 48, 8, 49, 15, 1, 21, 27, 2, 19, 34, 35, 28, 20, 33, 29, 38, 9, 32, 14, 44, 43, 41, 18, 40, 39, 12, 24, 13, 17, 46, 3, 16, 36, 11, 45, 50, 30, 25, 7],
 n=51,
 length=518.1166666317264
}}, IterationResult{iteration=68,
 cycle=Cycle{
vertexes=[7, 47, 22, 6, 42, 23, 5, 26, 0, 31, 10, 37, 4, 48, 8, 49, 15, 1, 21, 27, 2, 19, 34, 35, 28, 20, 33, 29, 38, 9, 32, 14, 44, 43, 41, 18, 40, 39, 12, 24, 13, 17, 46, 3, 16, 36, 11, 45, 50, 30, 25, 7],
 n=51,
 length=518.1166666317264
}}, IterationResult{iteration=69,
 cycle=Cycle{
vertexes=[7, 47, 22, 6, 42, 23, 5, 26, 0, 31, 10, 37, 4, 48, 8, 49, 15, 1, 21, 27, 2, 19, 34, 35, 28, 20, 33, 29, 38, 9, 32, 14, 44, 43, 41, 18, 40, 39, 12, 24, 13, 17, 46, 3, 16, 36, 11, 45, 50, 30, 25, 7],
 n=51,
 length=518.1166666317264
}}, IterationResult{iteration=70,
 cycle=Cycle{
vertexes=[7, 47, 22, 6, 42, 23, 5, 26, 0, 31, 10, 37, 4, 48, 8, 49, 15, 1, 21, 27, 2, 19, 34, 35, 28, 20, 33, 29, 38, 9, 32, 14, 44, 43, 41, 18, 40, 39, 12, 24, 13, 17, 46, 3, 16, 36, 11, 45, 50, 30, 25, 7],
 n=51,
 length=518.1166666317264
}}, IterationResult{iteration=71,
 cycle=Cycle{
vertexes=[7, 47, 22, 6, 42, 23, 5, 26, 0, 31, 10, 37, 4, 48, 8, 49, 15, 1, 21, 27, 2, 19, 34, 35, 28, 20, 33, 29, 38, 9, 32, 14, 44, 43, 41, 18, 40, 39, 12, 24, 13, 17, 46, 3, 16, 36, 11, 45, 50, 30, 25, 7],
 n=51,
 length=518.1166666317264
}}, IterationResult{iteration=72,
 cycle=Cycle{
vertexes=[7, 47, 22, 6, 42, 23, 5, 26, 0, 31, 10, 37, 4, 48, 8, 49, 15, 1, 21, 27, 2, 19, 34, 35, 28, 20, 33, 29, 38, 9, 32, 14, 44, 43, 41, 18, 40, 39, 12, 24, 13, 17, 46, 3, 16, 36, 11, 45, 50, 30, 25, 7],
 n=51,
 length=518.1166666317264
}}, IterationResult{iteration=73,
 cycle=Cycle{
vertexes=[7, 47, 22, 6, 42, 23, 5, 26, 0, 31, 10, 37, 4, 48, 8, 49, 15, 1, 21, 27, 2, 19, 34, 35, 28, 20, 33, 29, 38, 9, 32, 14, 44, 43, 41, 18, 40, 39, 12, 24, 13, 17, 46, 3, 16, 36, 11, 45, 50, 30, 25, 7],
 n=51,
 length=518.1166666317264
}}, IterationResult{iteration=74,
 cycle=Cycle{
vertexes=[7, 47, 22, 6, 42, 23, 5, 26, 0, 31, 10, 37, 4, 48, 8, 49, 15, 1, 21, 27, 2, 19, 34, 35, 28, 20, 33, 29, 38, 9, 32, 14, 44, 43, 41, 18, 40, 39, 12, 24, 13, 17, 46, 3, 16, 36, 11, 45, 50, 30, 25, 7],
 n=51,
 length=518.1166666317264
}}, IterationResult{iteration=75,
 cycle=Cycle{
vertexes=[7, 47, 22, 6, 42, 23, 5, 26, 0, 31, 10, 37, 4, 48, 8, 49, 15, 1, 21, 27, 2, 19, 34, 35, 28, 20, 33, 29, 38, 9, 32, 14, 44, 43, 41, 18, 40, 39, 12, 24, 13, 17, 46, 3, 16, 36, 11, 45, 50, 30, 25, 7],
 n=51,
 length=518.1166666317264
}}, IterationResult{iteration=76,
 cycle=Cycle{
vertexes=[7, 47, 22, 6, 42, 23, 5, 26, 0, 31, 10, 37, 4, 48, 8, 49, 15, 1, 21, 27, 2, 19, 34, 35, 28, 20, 33, 29, 38, 9, 32, 14, 44, 43, 41, 18, 40, 39, 12, 24, 13, 17, 46, 3, 16, 36, 11, 45, 50, 30, 25, 7],
 n=51,
 length=518.1166666317264
}}, IterationResult{iteration=77,
 cycle=Cycle{
vertexes=[7, 47, 22, 6, 42, 23, 5, 26, 0, 31, 10, 37, 4, 48, 8, 49, 15, 1, 21, 27, 2, 19, 34, 35, 28, 20, 33, 29, 38, 9, 32, 14, 44, 43, 41, 18, 40, 39, 12, 24, 13, 17, 46, 3, 16, 36, 11, 45, 50, 30, 25, 7],
 n=51,
 length=518.1166666317264
}}, IterationResult{iteration=78,
 cycle=Cycle{
vertexes=[7, 47, 22, 6, 42, 23, 5, 26, 0, 31, 10, 37, 4, 48, 8, 49, 15, 1, 21, 27, 2, 19, 34, 35, 28, 20, 33, 29, 38, 9, 32, 14, 44, 43, 41, 18, 40, 39, 12, 24, 13, 17, 46, 3, 16, 36, 11, 45, 50, 30, 25, 7],
 n=51,
 length=518.1166666317264
}}, IterationResult{iteration=79,
 cycle=Cycle{
vertexes=[7, 47, 22, 6, 42, 23, 5, 26, 0, 31, 10, 37, 4, 48, 8, 49, 15, 1, 21, 27, 2, 19, 34, 35, 28, 20, 33, 29, 38, 9, 32, 14, 44, 43, 41, 18, 40, 39, 12, 24, 13, 17, 46, 3, 16, 36, 11, 45, 50, 30, 25, 7],
 n=51,
 length=518.1166666317264
}}, IterationResult{iteration=80,
 cycle=Cycle{
vertexes=[7, 47, 22, 6, 42, 23, 5, 26, 0, 31, 10, 37, 4, 48, 8, 49, 15, 1, 21, 27, 2, 19, 34, 35, 28, 20, 33, 29, 38, 9, 32, 14, 44, 43, 41, 18, 40, 39, 12, 24, 13, 17, 46, 3, 16, 36, 11, 45, 50, 30, 25, 7],
 n=51,
 length=518.1166666317264
}}, IterationResult{iteration=81,
 cycle=Cycle{
vertexes=[7, 47, 22, 6, 42, 23, 5, 26, 0, 31, 10, 37, 4, 48, 8, 49, 15, 1, 21, 27, 2, 19, 34, 35, 28, 20, 33, 29, 38, 9, 32, 14, 44, 43, 41, 18, 40, 39, 12, 24, 13, 17, 46, 3, 16, 36, 11, 45, 50, 30, 25, 7],
 n=51,
 length=512.6492743560292
}}, IterationResult{iteration=82,
 cycle=Cycle{
vertexes=[7, 47, 22, 6, 42, 23, 5, 26, 0, 31, 10, 37, 4, 48, 8, 49, 15, 1, 21, 27, 2, 19, 34, 35, 28, 20, 33, 29, 38, 9, 32, 14, 44, 43, 41, 18, 40, 39, 12, 24, 13, 17, 46, 3, 16, 36, 11, 45, 50, 30, 25, 7],
 n=51,
 length=512.6492743560292
}}, IterationResult{iteration=83,
 cycle=Cycle{
vertexes=[7, 47, 22, 6, 42, 23, 5, 26, 0, 31, 10, 37, 4, 48, 8, 49, 15, 1, 21, 27, 2, 19, 34, 35, 28, 20, 33, 29, 38, 9, 32, 14, 44, 43, 41, 18, 40, 39, 12, 24, 13, 17, 46, 3, 16, 36, 11, 45, 50, 30, 25, 7],
 n=51,
 length=512.6492743560292
}}, IterationResult{iteration=84,
 cycle=Cycle{
vertexes=[7, 47, 22, 6, 42, 23, 5, 26, 0, 31, 10, 37, 4, 48, 8, 49, 15, 1, 21, 27, 2, 19, 34, 35, 28, 20, 33, 29, 38, 9, 32, 14, 44, 43, 41, 18, 40, 39, 12, 24, 13, 17, 46, 3, 16, 36, 11, 45, 50, 30, 25, 7],
 n=51,
 length=512.6492743560292
}}, IterationResult{iteration=85,
 cycle=Cycle{
vertexes=[7, 47, 22, 6, 42, 23, 5, 26, 0, 31, 10, 37, 4, 48, 8, 49, 15, 1, 21, 27, 2, 19, 34, 35, 28, 20, 33, 29, 38, 9, 32, 14, 44, 43, 41, 18, 40, 39, 12, 24, 13, 17, 46, 3, 16, 36, 11, 45, 50, 30, 25, 7],
 n=51,
 length=512.6492743560292
}}, IterationResult{iteration=86,
 cycle=Cycle{
vertexes=[7, 47, 22, 6, 42, 23, 5, 26, 0, 31, 10, 37, 4, 48, 8, 49, 15, 1, 21, 27, 2, 19, 34, 35, 28, 20, 33, 29, 38, 9, 32, 14, 44, 43, 41, 18, 40, 39, 12, 24, 13, 17, 46, 3, 16, 36, 11, 45, 50, 30, 25, 7],
 n=51,
 length=512.6492743560292
}}, IterationResult{iteration=87,
 cycle=Cycle{
vertexes=[7, 47, 22, 6, 42, 23, 5, 26, 0, 31, 10, 37, 4, 48, 8, 49, 15, 1, 21, 27, 2, 19, 34, 35, 28, 20, 33, 29, 38, 9, 32, 14, 44, 43, 41, 18, 40, 39, 12, 24, 13, 17, 46, 3, 16, 36, 11, 45, 50, 30, 25, 7],
 n=51,
 length=512.6492743560292
}}, IterationResult{iteration=88,
 cycle=Cycle{
vertexes=[7, 47, 22, 6, 42, 23, 5, 26, 0, 31, 10, 37, 4, 48, 8, 49, 15, 1, 21, 27, 2, 19, 34, 35, 28, 20, 33, 29, 38, 9, 32, 14, 44, 43, 41, 18, 40, 39, 12, 24, 13, 17, 46, 3, 16, 36, 11, 45, 50, 30, 25, 7],
 n=51,
 length=512.6492743560292
}}, IterationResult{iteration=89,
 cycle=Cycle{
vertexes=[7, 47, 22, 6, 42, 23, 5, 26, 0, 31, 10, 37, 4, 48, 8, 49, 15, 1, 21, 27, 2, 19, 34, 35, 28, 20, 33, 29, 38, 9, 32, 14, 44, 43, 41, 18, 40, 39, 12, 24, 13, 17, 46, 3, 16, 36, 11, 45, 50, 30, 25, 7],
 n=51,
 length=512.6492743560292
}}, IterationResult{iteration=90,
 cycle=Cycle{
vertexes=[7, 47, 22, 6, 42, 23, 5, 26, 0, 31, 10, 37, 4, 48, 8, 49, 15, 1, 21, 27, 2, 19, 34, 35, 28, 20, 33, 29, 38, 9, 32, 14, 44, 43, 41, 18, 40, 39, 12, 24, 13, 17, 46, 3, 16, 36, 11, 45, 50, 30, 25, 7],
 n=51,
 length=512.6492743560292
}}, IterationResult{iteration=91,
 cycle=Cycle{
vertexes=[7, 47, 22, 6, 42, 23, 5, 26, 0, 31, 10, 37, 4, 48, 8, 49, 15, 1, 21, 27, 2, 19, 34, 35, 28, 20, 33, 29, 38, 9, 32, 14, 44, 43, 41, 18, 40, 39, 12, 24, 13, 17, 46, 3, 16, 36, 11, 45, 50, 30, 25, 7],
 n=51,
 length=512.6492743560292
}}, IterationResult{iteration=92,
 cycle=Cycle{
vertexes=[7, 47, 22, 6, 42, 23, 5, 26, 0, 31, 10, 37, 4, 48, 8, 49, 15, 1, 21, 27, 2, 19, 34, 35, 28, 20, 33, 29, 38, 9, 32, 14, 44, 43, 41, 18, 40, 39, 12, 24, 13, 17, 46, 3, 16, 36, 11, 45, 50, 30, 25, 7],
 n=51,
 length=512.6492743560292
}}, IterationResult{iteration=93,
 cycle=Cycle{
vertexes=[7, 47, 22, 6, 42, 23, 5, 26, 0, 31, 10, 37, 4, 48, 8, 49, 15, 1, 21, 27, 2, 19, 34, 35, 28, 20, 33, 29, 38, 9, 32, 14, 44, 43, 41, 18, 40, 39, 12, 24, 13, 17, 46, 3, 16, 36, 11, 45, 50, 30, 25, 7],
 n=51,
 length=512.6492743560292
}}, IterationResult{iteration=94,
 cycle=Cycle{
vertexes=[7, 47, 22, 6, 42, 23, 5, 26, 0, 31, 10, 37, 4, 48, 8, 49, 15, 1, 21, 27, 2, 19, 34, 35, 28, 20, 33, 29, 38, 9, 32, 14, 44, 43, 41, 18, 40, 39, 12, 24, 13, 17, 46, 3, 16, 36, 11, 45, 50, 30, 25, 7],
 n=51,
 length=512.6492743560292
}}, IterationResult{iteration=95,
 cycle=Cycle{
vertexes=[7, 47, 22, 6, 42, 23, 5, 26, 0, 31, 10, 37, 4, 48, 8, 49, 15, 1, 21, 27, 2, 19, 34, 35, 28, 20, 33, 29, 38, 9, 32, 14, 44, 43, 41, 18, 40, 39, 12, 24, 13, 17, 46, 3, 16, 36, 11, 45, 50, 30, 25, 7],
 n=51,
 length=512.6492743560292
}}, IterationResult{iteration=96,
 cycle=Cycle{
vertexes=[7, 47, 22, 6, 42, 23, 5, 26, 0, 31, 10, 37, 4, 48, 8, 49, 15, 1, 21, 27, 2, 19, 34, 35, 28, 20, 33, 29, 38, 9, 32, 14, 44, 43, 41, 18, 40, 39, 12, 24, 13, 17, 46, 3, 16, 36, 11, 45, 50, 30, 25, 7],
 n=51,
 length=512.6492743560292
}}, IterationResult{iteration=97,
 cycle=Cycle{
vertexes=[7, 47, 22, 6, 42, 23, 5, 26, 0, 31, 10, 37, 4, 48, 8, 49, 15, 1, 21, 27, 2, 19, 34, 35, 28, 20, 33, 29, 38, 9, 32, 14, 44, 43, 41, 18, 40, 39, 12, 24, 13, 17, 46, 3, 16, 36, 11, 45, 50, 30, 25, 7],
 n=51,
 length=512.6492743560292
}}, IterationResult{iteration=98,
 cycle=Cycle{
vertexes=[7, 47, 22, 6, 42, 23, 5, 26, 0, 31, 10, 37, 4, 48, 8, 49, 15, 1, 21, 27, 2, 19, 34, 35, 28, 20, 33, 29, 38, 9, 32, 14, 44, 43, 41, 18, 40, 39, 12, 24, 13, 17, 46, 3, 16, 36, 11, 45, 50, 30, 25, 7],
 n=51,
 length=479.04657600653263
}}, IterationResult{iteration=99,
 cycle=Cycle{
vertexes=[7, 47, 22, 6, 42, 23, 5, 26, 0, 31, 10, 37, 4, 48, 8, 49, 15, 1, 21, 27, 2, 19, 34, 35, 28, 20, 33, 29, 38, 9, 32, 14, 44, 43, 41, 18, 40, 39, 12, 24, 13, 17, 46, 3, 16, 36, 11, 45, 50, 30, 25, 7],
 n=51,
 length=479.04657600653263
}}, IterationResult{iteration=100,
 cycle=Cycle{
vertexes=[7, 47, 22, 6, 42, 23, 5, 26, 0, 31, 10, 37, 4, 48, 8, 49, 15, 1, 21, 27, 2, 19, 34, 35, 28, 20, 33, 29, 38, 9, 32, 14, 44, 43, 41, 18, 40, 39, 12, 24, 13, 17, 46, 3, 16, 36, 11, 45, 50, 30, 25, 7],
 n=51,
 length=479.04657600653263
}}, IterationResult{iteration=101,
 cycle=Cycle{
vertexes=[7, 47, 22, 6, 42, 23, 5, 26, 0, 31, 10, 37, 4, 48, 8, 49, 15, 1, 21, 27, 2, 19, 34, 35, 28, 20, 33, 29, 38, 9, 32, 14, 44, 43, 41, 18, 40, 39, 12, 24, 13, 17, 46, 3, 16, 36, 11, 45, 50, 30, 25, 7],
 n=51,
 length=479.04657600653263
}}, IterationResult{iteration=102,
 cycle=Cycle{
vertexes=[7, 47, 22, 6, 42, 23, 5, 26, 0, 31, 10, 37, 4, 48, 8, 49, 15, 1, 21, 27, 2, 19, 34, 35, 28, 20, 33, 29, 38, 9, 32, 14, 44, 43, 41, 18, 40, 39, 12, 24, 13, 17, 46, 3, 16, 36, 11, 45, 50, 30, 25, 7],
 n=51,
 length=479.04657600653263
}}, IterationResult{iteration=103,
 cycle=Cycle{
vertexes=[7, 47, 22, 6, 42, 23, 5, 26, 0, 31, 10, 37, 4, 48, 8, 49, 15, 1, 21, 27, 2, 19, 34, 35, 28, 20, 33, 29, 38, 9, 32, 14, 44, 43, 41, 18, 40, 39, 12, 24, 13, 17, 46, 3, 16, 36, 11, 45, 50, 30, 25, 7],
 n=51,
 length=479.04657600653263
}}, IterationResult{iteration=104,
 cycle=Cycle{
vertexes=[7, 47, 22, 6, 42, 23, 5, 26, 0, 31, 10, 37, 4, 48, 8, 49, 15, 1, 21, 27, 2, 19, 34, 35, 28, 20, 33, 29, 38, 9, 32, 14, 44, 43, 41, 18, 40, 39, 12, 24, 13, 17, 46, 3, 16, 36, 11, 45, 50, 30, 25, 7],
 n=51,
 length=479.04657600653263
}}, IterationResult{iteration=105,
 cycle=Cycle{
vertexes=[7, 47, 22, 6, 42, 23, 5, 26, 0, 31, 10, 37, 4, 48, 8, 49, 15, 1, 21, 27, 2, 19, 34, 35, 28, 20, 33, 29, 38, 9, 32, 14, 44, 43, 41, 18, 40, 39, 12, 24, 13, 17, 46, 3, 16, 36, 11, 45, 50, 30, 25, 7],
 n=51,
 length=479.04657600653263
}}, IterationResult{iteration=106,
 cycle=Cycle{
vertexes=[7, 47, 22, 6, 42, 23, 5, 26, 0, 31, 10, 37, 4, 48, 8, 49, 15, 1, 21, 27, 2, 19, 34, 35, 28, 20, 33, 29, 38, 9, 32, 14, 44, 43, 41, 18, 40, 39, 12, 24, 13, 17, 46, 3, 16, 36, 11, 45, 50, 30, 25, 7],
 n=51,
 length=479.04657600653263
}}, IterationResult{iteration=107,
 cycle=Cycle{
vertexes=[7, 47, 22, 6, 42, 23, 5, 26, 0, 31, 10, 37, 4, 48, 8, 49, 15, 1, 21, 27, 2, 19, 34, 35, 28, 20, 33, 29, 38, 9, 32, 14, 44, 43, 41, 18, 40, 39, 12, 24, 13, 17, 46, 3, 16, 36, 11, 45, 50, 30, 25, 7],
 n=51,
 length=479.04657600653263
}}, IterationResult{iteration=108,
 cycle=Cycle{
vertexes=[7, 47, 22, 6, 42, 23, 5, 26, 0, 31, 10, 37, 4, 48, 8, 49, 15, 1, 21, 27, 2, 19, 34, 35, 28, 20, 33, 29, 38, 9, 32, 14, 44, 43, 41, 18, 40, 39, 12, 24, 13, 17, 46, 3, 16, 36, 11, 45, 50, 30, 25, 7],
 n=51,
 length=479.04657600653263
}}, IterationResult{iteration=109,
 cycle=Cycle{
vertexes=[7, 47, 22, 6, 42, 23, 5, 26, 0, 31, 10, 37, 4, 48, 8, 49, 15, 1, 21, 27, 2, 19, 34, 35, 28, 20, 33, 29, 38, 9, 32, 14, 44, 43, 41, 18, 40, 39, 12, 24, 13, 17, 46, 3, 16, 36, 11, 45, 50, 30, 25, 7],
 n=51,
 length=479.04657600653263
}}, IterationResult{iteration=110,
 cycle=Cycle{
vertexes=[7, 47, 22, 6, 42, 23, 5, 26, 0, 31, 10, 37, 4, 48, 8, 49, 15, 1, 21, 27, 2, 19, 34, 35, 28, 20, 33, 29, 38, 9, 32, 14, 44, 43, 41, 18, 40, 39, 12, 24, 13, 17, 46, 3, 16, 36, 11, 45, 50, 30, 25, 7],
 n=51,
 length=479.04657600653263
}}, IterationResult{iteration=111,
 cycle=Cycle{
vertexes=[7, 47, 22, 6, 42, 23, 5, 26, 0, 31, 10, 37, 4, 48, 8, 49, 15, 1, 21, 27, 2, 19, 34, 35, 28, 20, 33, 29, 38, 9, 32, 14, 44, 43, 41, 18, 40, 39, 12, 24, 13, 17, 46, 3, 16, 36, 11, 45, 50, 30, 25, 7],
 n=51,
 length=479.04657600653263
}}, IterationResult{iteration=112,
 cycle=Cycle{
vertexes=[7, 47, 22, 6, 42, 23, 5, 26, 0, 31, 10, 37, 4, 48, 8, 49, 15, 1, 21, 27, 2, 19, 34, 35, 28, 20, 33, 29, 38, 9, 32, 14, 44, 43, 41, 18, 40, 39, 12, 24, 13, 17, 46, 3, 16, 36, 11, 45, 50, 30, 25, 7],
 n=51,
 length=479.04657600653263
}}, IterationResult{iteration=113,
 cycle=Cycle{
vertexes=[7, 47, 22, 6, 42, 23, 5, 26, 0, 31, 10, 37, 4, 48, 8, 49, 15, 1, 21, 27, 2, 19, 34, 35, 28, 20, 33, 29, 38, 9, 32, 14, 44, 43, 41, 18, 40, 39, 12, 24, 13, 17, 46, 3, 16, 36, 11, 45, 50, 30, 25, 7],
 n=51,
 length=479.04657600653263
}}, IterationResult{iteration=114,
 cycle=Cycle{
vertexes=[7, 47, 22, 6, 42, 23, 5, 26, 0, 31, 10, 37, 4, 48, 8, 49, 15, 1, 21, 27, 2, 19, 34, 35, 28, 20, 33, 29, 38, 9, 32, 14, 44, 43, 41, 18, 40, 39, 12, 24, 13, 17, 46, 3, 16, 36, 11, 45, 50, 30, 25, 7],
 n=51,
 length=479.04657600653263
}}, IterationResult{iteration=115,
 cycle=Cycle{
vertexes=[7, 47, 22, 6, 42, 23, 5, 26, 0, 31, 10, 37, 4, 48, 8, 49, 15, 1, 21, 27, 2, 19, 34, 35, 28, 20, 33, 29, 38, 9, 32, 14, 44, 43, 41, 18, 40, 39, 12, 24, 13, 17, 46, 3, 16, 36, 11, 45, 50, 30, 25, 7],
 n=51,
 length=479.04657600653263
}}, IterationResult{iteration=116,
 cycle=Cycle{
vertexes=[7, 47, 22, 6, 42, 23, 5, 26, 0, 31, 10, 37, 4, 48, 8, 49, 15, 1, 21, 27, 2, 19, 34, 35, 28, 20, 33, 29, 38, 9, 32, 14, 44, 43, 41, 18, 40, 39, 12, 24, 13, 17, 46, 3, 16, 36, 11, 45, 50, 30, 25, 7],
 n=51,
 length=479.04657600653263
}}, IterationResult{iteration=117,
 cycle=Cycle{
vertexes=[7, 47, 22, 6, 42, 23, 5, 26, 0, 31, 10, 37, 4, 48, 8, 49, 15, 1, 21, 27, 2, 19, 34, 35, 28, 20, 33, 29, 38, 9, 32, 14, 44, 43, 41, 18, 40, 39, 12, 24, 13, 17, 46, 3, 16, 36, 11, 45, 50, 30, 25, 7],
 n=51,
 length=479.04657600653263
}}, IterationResult{iteration=118,
 cycle=Cycle{
vertexes=[7, 47, 22, 6, 42, 23, 5, 26, 0, 31, 10, 37, 4, 48, 8, 49, 15, 1, 21, 27, 2, 19, 34, 35, 28, 20, 33, 29, 38, 9, 32, 14, 44, 43, 41, 18, 40, 39, 12, 24, 13, 17, 46, 3, 16, 36, 11, 45, 50, 30, 25, 7],
 n=51,
 length=479.04657600653263
}}, IterationResult{iteration=119,
 cycle=Cycle{
vertexes=[7, 47, 22, 6, 42, 23, 5, 26, 0, 31, 10, 37, 4, 48, 8, 49, 15, 1, 21, 27, 2, 19, 34, 35, 28, 20, 33, 29, 38, 9, 32, 14, 44, 43, 41, 18, 40, 39, 12, 24, 13, 17, 46, 3, 16, 36, 11, 45, 50, 30, 25, 7],
 n=51,
 length=479.04657600653263
}}, IterationResult{iteration=120,
 cycle=Cycle{
vertexes=[7, 47, 22, 6, 42, 23, 5, 26, 0, 31, 10, 37, 4, 48, 8, 49, 15, 1, 21, 27, 2, 19, 34, 35, 28, 20, 33, 29, 38, 9, 32, 14, 44, 43, 41, 18, 40, 39, 12, 24, 13, 17, 46, 3, 16, 36, 11, 45, 50, 30, 25, 7],
 n=51,
 length=479.04657600653263
}}, IterationResult{iteration=121,
 cycle=Cycle{
vertexes=[7, 47, 22, 6, 42, 23, 5, 26, 0, 31, 10, 37, 4, 48, 8, 49, 15, 1, 21, 27, 2, 19, 34, 35, 28, 20, 33, 29, 38, 9, 32, 14, 44, 43, 41, 18, 40, 39, 12, 24, 13, 17, 46, 3, 16, 36, 11, 45, 50, 30, 25, 7],
 n=51,
 length=479.04657600653263
}}, IterationResult{iteration=122,
 cycle=Cycle{
vertexes=[7, 47, 22, 6, 42, 23, 5, 26, 0, 31, 10, 37, 4, 48, 8, 49, 15, 1, 21, 27, 2, 19, 34, 35, 28, 20, 33, 29, 38, 9, 32, 14, 44, 43, 41, 18, 40, 39, 12, 24, 13, 17, 46, 3, 16, 36, 11, 45, 50, 30, 25, 7],
 n=51,
 length=479.04657600653263
}}, IterationResult{iteration=123,
 cycle=Cycle{
vertexes=[7, 47, 22, 6, 42, 23, 5, 26, 0, 31, 10, 37, 4, 48, 8, 49, 15, 1, 21, 27, 2, 19, 34, 35, 28, 20, 33, 29, 38, 9, 32, 14, 44, 43, 41, 18, 40, 39, 12, 24, 13, 17, 46, 3, 16, 36, 11, 45, 50, 30, 25, 7],
 n=51,
 length=479.04657600653263
}}, IterationResult{iteration=124,
 cycle=Cycle{
vertexes=[7, 47, 22, 6, 42, 23, 5, 26, 0, 31, 10, 37, 4, 48, 8, 49, 15, 1, 21, 27, 2, 19, 34, 35, 28, 20, 33, 29, 38, 9, 32, 14, 44, 43, 41, 18, 40, 39, 12, 24, 13, 17, 46, 3, 16, 36, 11, 45, 50, 30, 25, 7],
 n=51,
 length=479.04657600653263
}}, IterationResult{iteration=125,
 cycle=Cycle{
vertexes=[7, 47, 22, 6, 42, 23, 5, 26, 0, 31, 10, 37, 4, 48, 8, 49, 15, 1, 21, 27, 2, 19, 34, 35, 28, 20, 33, 29, 38, 9, 32, 14, 44, 43, 41, 18, 40, 39, 12, 24, 13, 17, 46, 3, 16, 36, 11, 45, 50, 30, 25, 7],
 n=51,
 length=479.04657600653263
}}, IterationResult{iteration=126,
 cycle=Cycle{
vertexes=[7, 47, 22, 6, 42, 23, 5, 26, 0, 31, 10, 37, 4, 48, 8, 49, 15, 1, 21, 27, 2, 19, 34, 35, 28, 20, 33, 29, 38, 9, 32, 14, 44, 43, 41, 18, 40, 39, 12, 24, 13, 17, 46, 3, 16, 36, 11, 45, 50, 30, 25, 7],
 n=51,
 length=479.04657600653263
}}, IterationResult{iteration=127,
 cycle=Cycle{
vertexes=[7, 47, 22, 6, 42, 23, 5, 26, 0, 31, 10, 37, 4, 48, 8, 49, 15, 1, 21, 27, 2, 19, 34, 35, 28, 20, 33, 29, 38, 9, 32, 14, 44, 43, 41, 18, 40, 39, 12, 24, 13, 17, 46, 3, 16, 36, 11, 45, 50, 30, 25, 7],
 n=51,
 length=479.04657600653263
}}, IterationResult{iteration=128,
 cycle=Cycle{
vertexes=[7, 47, 22, 6, 42, 23, 5, 26, 0, 31, 10, 37, 4, 48, 8, 49, 15, 1, 21, 27, 2, 19, 34, 35, 28, 20, 33, 29, 38, 9, 32, 14, 44, 43, 41, 18, 40, 39, 12, 24, 13, 17, 46, 3, 16, 36, 11, 45, 50, 30, 25, 7],
 n=51,
 length=479.04657600653263
}}, IterationResult{iteration=129,
 cycle=Cycle{
vertexes=[7, 47, 22, 6, 42, 23, 5, 26, 0, 31, 10, 37, 4, 48, 8, 49, 15, 1, 21, 27, 2, 19, 34, 35, 28, 20, 33, 29, 38, 9, 32, 14, 44, 43, 41, 18, 40, 39, 12, 24, 13, 17, 46, 3, 16, 36, 11, 45, 50, 30, 25, 7],
 n=51,
 length=479.04657600653263
}}, IterationResult{iteration=130,
 cycle=Cycle{
vertexes=[7, 47, 22, 6, 42, 23, 5, 26, 0, 31, 10, 37, 4, 48, 8, 49, 15, 1, 21, 27, 2, 19, 34, 35, 28, 20, 33, 29, 38, 9, 32, 14, 44, 43, 41, 18, 40, 39, 12, 24, 13, 17, 46, 3, 16, 36, 11, 45, 50, 30, 25, 7],
 n=51,
 length=479.04657600653263
}}, IterationResult{iteration=131,
 cycle=Cycle{
vertexes=[7, 47, 22, 6, 42, 23, 5, 26, 0, 31, 10, 37, 4, 48, 8, 49, 15, 1, 21, 27, 2, 19, 34, 35, 28, 20, 33, 29, 38, 9, 32, 14, 44, 43, 41, 18, 40, 39, 12, 24, 13, 17, 46, 3, 16, 36, 11, 45, 50, 30, 25, 7],
 n=51,
 length=479.04657600653263
}}, IterationResult{iteration=132,
 cycle=Cycle{
vertexes=[7, 47, 22, 6, 42, 23, 5, 26, 0, 31, 10, 37, 4, 48, 8, 49, 15, 1, 21, 27, 2, 19, 34, 35, 28, 20, 33, 29, 38, 9, 32, 14, 44, 43, 41, 18, 40, 39, 12, 24, 13, 17, 46, 3, 16, 36, 11, 45, 50, 30, 25, 7],
 n=51,
 length=479.04657600653263
}}, IterationResult{iteration=133,
 cycle=Cycle{
vertexes=[7, 47, 22, 6, 42, 23, 5, 26, 0, 31, 10, 37, 4, 48, 8, 49, 15, 1, 21, 27, 2, 19, 34, 35, 28, 20, 33, 29, 38, 9, 32, 14, 44, 43, 41, 18, 40, 39, 12, 24, 13, 17, 46, 3, 16, 36, 11, 45, 50, 30, 25, 7],
 n=51,
 length=479.04657600653263
}}, IterationResult{iteration=134,
 cycle=Cycle{
vertexes=[7, 47, 22, 6, 42, 23, 5, 26, 0, 31, 10, 37, 4, 48, 8, 49, 15, 1, 21, 27, 2, 19, 34, 35, 28, 20, 33, 29, 38, 9, 32, 14, 44, 43, 41, 18, 40, 39, 12, 24, 13, 17, 46, 3, 16, 36, 11, 45, 50, 30, 25, 7],
 n=51,
 length=479.04657600653263
}}, IterationResult{iteration=135,
 cycle=Cycle{
vertexes=[7, 47, 22, 6, 42, 23, 5, 26, 0, 31, 10, 37, 4, 48, 8, 49, 15, 1, 21, 27, 2, 19, 34, 35, 28, 20, 33, 29, 38, 9, 32, 14, 44, 43, 41, 18, 40, 39, 12, 24, 13, 17, 46, 3, 16, 36, 11, 45, 50, 30, 25, 7],
 n=51,
 length=479.04657600653263
}}, IterationResult{iteration=136,
 cycle=Cycle{
vertexes=[7, 47, 22, 6, 42, 23, 5, 26, 0, 31, 10, 37, 4, 48, 8, 49, 15, 1, 21, 27, 2, 19, 34, 35, 28, 20, 33, 29, 38, 9, 32, 14, 44, 43, 41, 18, 40, 39, 12, 24, 13, 17, 46, 3, 16, 36, 11, 45, 50, 30, 25, 7],
 n=51,
 length=479.04657600653263
}}, IterationResult{iteration=137,
 cycle=Cycle{
vertexes=[7, 47, 22, 6, 42, 23, 5, 26, 0, 31, 10, 37, 4, 48, 8, 49, 15, 1, 21, 27, 2, 19, 34, 35, 28, 20, 33, 29, 38, 9, 32, 14, 44, 43, 41, 18, 40, 39, 12, 24, 13, 17, 46, 3, 16, 36, 11, 45, 50, 30, 25, 7],
 n=51,
 length=479.04657600653263
}}, IterationResult{iteration=138,
 cycle=Cycle{
vertexes=[7, 47, 22, 6, 42, 23, 5, 26, 0, 31, 10, 37, 4, 48, 8, 49, 15, 1, 21, 27, 2, 19, 34, 35, 28, 20, 33, 29, 38, 9, 32, 14, 44, 43, 41, 18, 40, 39, 12, 24, 13, 17, 46, 3, 16, 36, 11, 45, 50, 30, 25, 7],
 n=51,
 length=479.04657600653263
}}, IterationResult{iteration=139,
 cycle=Cycle{
vertexes=[7, 47, 22, 6, 42, 23, 5, 26, 0, 31, 10, 37, 4, 48, 8, 49, 15, 1, 21, 27, 2, 19, 34, 35, 28, 20, 33, 29, 38, 9, 32, 14, 44, 43, 41, 18, 40, 39, 12, 24, 13, 17, 46, 3, 16, 36, 11, 45, 50, 30, 25, 7],
 n=51,
 length=479.04657600653263
}}, IterationResult{iteration=140,
 cycle=Cycle{
vertexes=[7, 47, 22, 6, 42, 23, 5, 26, 0, 31, 10, 37, 4, 48, 8, 49, 15, 1, 21, 27, 2, 19, 34, 35, 28, 20, 33, 29, 38, 9, 32, 14, 44, 43, 41, 18, 40, 39, 12, 24, 13, 17, 46, 3, 16, 36, 11, 45, 50, 30, 25, 7],
 n=51,
 length=479.04657600653263
}}, IterationResult{iteration=141,
 cycle=Cycle{
vertexes=[7, 47, 22, 6, 42, 23, 5, 26, 0, 31, 10, 37, 4, 48, 8, 49, 15, 1, 21, 27, 2, 19, 34, 35, 28, 20, 33, 29, 38, 9, 32, 14, 44, 43, 41, 18, 40, 39, 12, 24, 13, 17, 46, 3, 16, 36, 11, 45, 50, 30, 25, 7],
 n=51,
 length=479.04657600653263
}}, IterationResult{iteration=142,
 cycle=Cycle{
vertexes=[7, 47, 22, 6, 42, 23, 5, 26, 0, 31, 10, 37, 4, 48, 8, 49, 15, 1, 21, 27, 2, 19, 34, 35, 28, 20, 33, 29, 38, 9, 32, 14, 44, 43, 41, 18, 40, 39, 12, 24, 13, 17, 46, 3, 16, 36, 11, 45, 50, 30, 25, 7],
 n=51,
 length=479.04657600653263
}}, IterationResult{iteration=143,
 cycle=Cycle{
vertexes=[7, 47, 22, 6, 42, 23, 5, 26, 0, 31, 10, 37, 4, 48, 8, 49, 15, 1, 21, 27, 2, 19, 34, 35, 28, 20, 33, 29, 38, 9, 32, 14, 44, 43, 41, 18, 40, 39, 12, 24, 13, 17, 46, 3, 16, 36, 11, 45, 50, 30, 25, 7],
 n=51,
 length=479.04657600653263
}}, IterationResult{iteration=144,
 cycle=Cycle{
vertexes=[7, 47, 22, 6, 42, 23, 5, 26, 0, 31, 10, 37, 4, 48, 8, 49, 15, 1, 21, 27, 2, 19, 34, 35, 28, 20, 33, 29, 38, 9, 32, 14, 44, 43, 41, 18, 40, 39, 12, 24, 13, 17, 46, 3, 16, 36, 11, 45, 50, 30, 25, 7],
 n=51,
 length=479.04657600653263
}}, IterationResult{iteration=145,
 cycle=Cycle{
vertexes=[7, 47, 22, 6, 42, 23, 5, 26, 0, 31, 10, 37, 4, 48, 8, 49, 15, 1, 21, 27, 2, 19, 34, 35, 28, 20, 33, 29, 38, 9, 32, 14, 44, 43, 41, 18, 40, 39, 12, 24, 13, 17, 46, 3, 16, 36, 11, 45, 50, 30, 25, 7],
 n=51,
 length=479.04657600653263
}}, IterationResult{iteration=146,
 cycle=Cycle{
vertexes=[7, 47, 22, 6, 42, 23, 5, 26, 0, 31, 10, 37, 4, 48, 8, 49, 15, 1, 21, 27, 2, 19, 34, 35, 28, 20, 33, 29, 38, 9, 32, 14, 44, 43, 41, 18, 40, 39, 12, 24, 13, 17, 46, 3, 16, 36, 11, 45, 50, 30, 25, 7],
 n=51,
 length=479.04657600653263
}}, IterationResult{iteration=147,
 cycle=Cycle{
vertexes=[7, 47, 22, 6, 42, 23, 5, 26, 0, 31, 10, 37, 4, 48, 8, 49, 15, 1, 21, 27, 2, 19, 34, 35, 28, 20, 33, 29, 38, 9, 32, 14, 44, 43, 41, 18, 40, 39, 12, 24, 13, 17, 46, 3, 16, 36, 11, 45, 50, 30, 25, 7],
 n=51,
 length=479.04657600653263
}}, IterationResult{iteration=148,
 cycle=Cycle{
vertexes=[7, 47, 22, 6, 42, 23, 5, 26, 0, 31, 10, 37, 4, 48, 8, 49, 15, 1, 21, 27, 2, 19, 34, 35, 28, 20, 33, 29, 38, 9, 32, 14, 44, 43, 41, 18, 40, 39, 12, 24, 13, 17, 46, 3, 16, 36, 11, 45, 50, 30, 25, 7],
 n=51,
 length=479.04657600653263
}}, IterationResult{iteration=149,
 cycle=Cycle{
vertexes=[7, 47, 22, 6, 42, 23, 5, 26, 0, 31, 10, 37, 4, 48, 8, 49, 15, 1, 21, 27, 2, 19, 34, 35, 28, 20, 33, 29, 38, 9, 32, 14, 44, 43, 41, 18, 40, 39, 12, 24, 13, 17, 46, 3, 16, 36, 11, 45, 50, 30, 25, 7],
 n=51,
 length=479.04657600653263
}}, IterationResult{iteration=150,
 cycle=Cycle{
vertexes=[7, 47, 22, 6, 42, 23, 5, 26, 0, 31, 10, 37, 4, 48, 8, 49, 15, 1, 21, 27, 2, 19, 34, 35, 28, 20, 33, 29, 38, 9, 32, 14, 44, 43, 41, 18, 40, 39, 12, 24, 13, 17, 46, 3, 16, 36, 11, 45, 50, 30, 25, 7],
 n=51,
 length=479.04657600653263
}}, IterationResult{iteration=151,
 cycle=Cycle{
vertexes=[7, 47, 22, 6, 42, 23, 5, 26, 0, 31, 10, 37, 4, 48, 8, 49, 15, 1, 21, 27, 2, 19, 34, 35, 28, 20, 33, 29, 38, 9, 32, 14, 44, 43, 41, 18, 40, 39, 12, 24, 13, 17, 46, 3, 16, 36, 11, 45, 50, 30, 25, 7],
 n=51,
 length=479.04657600653263
}}, IterationResult{iteration=152,
 cycle=Cycle{
vertexes=[7, 47, 22, 6, 42, 23, 5, 26, 0, 31, 10, 37, 4, 48, 8, 49, 15, 1, 21, 27, 2, 19, 34, 35, 28, 20, 33, 29, 38, 9, 32, 14, 44, 43, 41, 18, 40, 39, 12, 24, 13, 17, 46, 3, 16, 36, 11, 45, 50, 30, 25, 7],
 n=51,
 length=479.04657600653263
}}, IterationResult{iteration=153,
 cycle=Cycle{
vertexes=[7, 47, 22, 6, 42, 23, 5, 26, 0, 31, 10, 37, 4, 48, 8, 49, 15, 1, 21, 27, 2, 19, 34, 35, 28, 20, 33, 29, 38, 9, 32, 14, 44, 43, 41, 18, 40, 39, 12, 24, 13, 17, 46, 3, 16, 36, 11, 45, 50, 30, 25, 7],
 n=51,
 length=479.04657600653263
}}, IterationResult{iteration=154,
 cycle=Cycle{
vertexes=[7, 47, 22, 6, 42, 23, 5, 26, 0, 31, 10, 37, 4, 48, 8, 49, 15, 1, 21, 27, 2, 19, 34, 35, 28, 20, 33, 29, 38, 9, 32, 14, 44, 43, 41, 18, 40, 39, 12, 24, 13, 17, 46, 3, 16, 36, 11, 45, 50, 30, 25, 7],
 n=51,
 length=479.04657600653263
}}, IterationResult{iteration=155,
 cycle=Cycle{
vertexes=[7, 47, 22, 6, 42, 23, 5, 26, 0, 31, 10, 37, 4, 48, 8, 49, 15, 1, 21, 27, 2, 19, 34, 35, 28, 20, 33, 29, 38, 9, 32, 14, 44, 43, 41, 18, 40, 39, 12, 24, 13, 17, 46, 3, 16, 36, 11, 45, 50, 30, 25, 7],
 n=51,
 length=479.04657600653263
}}, IterationResult{iteration=156,
 cycle=Cycle{
vertexes=[7, 47, 22, 6, 42, 23, 5, 26, 0, 31, 10, 37, 4, 48, 8, 49, 15, 1, 21, 27, 2, 19, 34, 35, 28, 20, 33, 29, 38, 9, 32, 14, 44, 43, 41, 18, 40, 39, 12, 24, 13, 17, 46, 3, 16, 36, 11, 45, 50, 30, 25, 7],
 n=51,
 length=479.04657600653263
}}, IterationResult{iteration=157,
 cycle=Cycle{
vertexes=[7, 47, 22, 6, 42, 23, 5, 26, 0, 31, 10, 37, 4, 48, 8, 49, 15, 1, 21, 27, 2, 19, 34, 35, 28, 20, 33, 29, 38, 9, 32, 14, 44, 43, 41, 18, 40, 39, 12, 24, 13, 17, 46, 3, 16, 36, 11, 45, 50, 30, 25, 7],
 n=51,
 length=479.04657600653263
}}, IterationResult{iteration=158,
 cycle=Cycle{
vertexes=[7, 47, 22, 6, 42, 23, 5, 26, 0, 31, 10, 37, 4, 48, 8, 49, 15, 1, 21, 27, 2, 19, 34, 35, 28, 20, 33, 29, 38, 9, 32, 14, 44, 43, 41, 18, 40, 39, 12, 24, 13, 17, 46, 3, 16, 36, 11, 45, 50, 30, 25, 7],
 n=51,
 length=479.04657600653263
}}, IterationResult{iteration=159,
 cycle=Cycle{
vertexes=[7, 47, 22, 6, 42, 23, 5, 26, 0, 31, 10, 37, 4, 48, 8, 49, 15, 1, 21, 27, 2, 19, 34, 35, 28, 20, 33, 29, 38, 9, 32, 14, 44, 43, 41, 18, 40, 39, 12, 24, 13, 17, 46, 3, 16, 36, 11, 45, 50, 30, 25, 7],
 n=51,
 length=479.04657600653263
}}, IterationResult{iteration=160,
 cycle=Cycle{
vertexes=[7, 47, 22, 6, 42, 23, 5, 26, 0, 31, 10, 37, 4, 48, 8, 49, 15, 1, 21, 27, 2, 19, 34, 35, 28, 20, 33, 29, 38, 9, 32, 14, 44, 43, 41, 18, 40, 39, 12, 24, 13, 17, 46, 3, 16, 36, 11, 45, 50, 30, 25, 7],
 n=51,
 length=479.04657600653263
}}, IterationResult{iteration=161,
 cycle=Cycle{
vertexes=[7, 47, 22, 6, 42, 23, 5, 26, 0, 31, 10, 37, 4, 48, 8, 49, 15, 1, 21, 27, 2, 19, 34, 35, 28, 20, 33, 29, 38, 9, 32, 14, 44, 43, 41, 18, 40, 39, 12, 24, 13, 17, 46, 3, 16, 36, 11, 45, 50, 30, 25, 7],
 n=51,
 length=479.04657600653263
}}, IterationResult{iteration=162,
 cycle=Cycle{
vertexes=[7, 47, 22, 6, 42, 23, 5, 26, 0, 31, 10, 37, 4, 48, 8, 49, 15, 1, 21, 27, 2, 19, 34, 35, 28, 20, 33, 29, 38, 9, 32, 14, 44, 43, 41, 18, 40, 39, 12, 24, 13, 17, 46, 3, 16, 36, 11, 45, 50, 30, 25, 7],
 n=51,
 length=479.04657600653263
}}, IterationResult{iteration=163,
 cycle=Cycle{
vertexes=[7, 47, 22, 6, 42, 23, 5, 26, 0, 31, 10, 37, 4, 48, 8, 49, 15, 1, 21, 27, 2, 19, 34, 35, 28, 20, 33, 29, 38, 9, 32, 14, 44, 43, 41, 18, 40, 39, 12, 24, 13, 17, 46, 3, 16, 36, 11, 45, 50, 30, 25, 7],
 n=51,
 length=479.04657600653263
}}, IterationResult{iteration=164,
 cycle=Cycle{
vertexes=[7, 47, 22, 6, 42, 23, 5, 26, 0, 31, 10, 37, 4, 48, 8, 49, 15, 1, 21, 27, 2, 19, 34, 35, 28, 20, 33, 29, 38, 9, 32, 14, 44, 43, 41, 18, 40, 39, 12, 24, 13, 17, 46, 3, 16, 36, 11, 45, 50, 30, 25, 7],
 n=51,
 length=479.04657600653263
}}, IterationResult{iteration=165,
 cycle=Cycle{
vertexes=[7, 47, 22, 6, 42, 23, 5, 26, 0, 31, 10, 37, 4, 48, 8, 49, 15, 1, 21, 27, 2, 19, 34, 35, 28, 20, 33, 29, 38, 9, 32, 14, 44, 43, 41, 18, 40, 39, 12, 24, 13, 17, 46, 3, 16, 36, 11, 45, 50, 30, 25, 7],
 n=51,
 length=479.04657600653263
}}, IterationResult{iteration=166,
 cycle=Cycle{
vertexes=[7, 47, 22, 6, 42, 23, 5, 26, 0, 31, 10, 37, 4, 48, 8, 49, 15, 1, 21, 27, 2, 19, 34, 35, 28, 20, 33, 29, 38, 9, 32, 14, 44, 43, 41, 18, 40, 39, 12, 24, 13, 17, 46, 3, 16, 36, 11, 45, 50, 30, 25, 7],
 n=51,
 length=479.04657600653263
}}, IterationResult{iteration=167,
 cycle=Cycle{
vertexes=[7, 47, 22, 6, 42, 23, 5, 26, 0, 31, 10, 37, 4, 48, 8, 49, 15, 1, 21, 27, 2, 19, 34, 35, 28, 20, 33, 29, 38, 9, 32, 14, 44, 43, 41, 18, 40, 39, 12, 24, 13, 17, 46, 3, 16, 36, 11, 45, 50, 30, 25, 7],
 n=51,
 length=479.04657600653263
}}, IterationResult{iteration=168,
 cycle=Cycle{
vertexes=[7, 47, 22, 6, 42, 23, 5, 26, 0, 31, 10, 37, 4, 48, 8, 49, 15, 1, 21, 27, 2, 19, 34, 35, 28, 20, 33, 29, 38, 9, 32, 14, 44, 43, 41, 18, 40, 39, 12, 24, 13, 17, 46, 3, 16, 36, 11, 45, 50, 30, 25, 7],
 n=51,
 length=479.04657600653263
}}, IterationResult{iteration=169,
 cycle=Cycle{
vertexes=[7, 47, 22, 6, 42, 23, 5, 26, 0, 31, 10, 37, 4, 48, 8, 49, 15, 1, 21, 27, 2, 19, 34, 35, 28, 20, 33, 29, 38, 9, 32, 14, 44, 43, 41, 18, 40, 39, 12, 24, 13, 17, 46, 3, 16, 36, 11, 45, 50, 30, 25, 7],
 n=51,
 length=479.04657600653263
}}, IterationResult{iteration=170,
 cycle=Cycle{
vertexes=[7, 47, 22, 6, 42, 23, 5, 26, 0, 31, 10, 37, 4, 48, 8, 49, 15, 1, 21, 27, 2, 19, 34, 35, 28, 20, 33, 29, 38, 9, 32, 14, 44, 43, 41, 18, 40, 39, 12, 24, 13, 17, 46, 3, 16, 36, 11, 45, 50, 30, 25, 7],
 n=51,
 length=479.04657600653263
}}, IterationResult{iteration=171,
 cycle=Cycle{
vertexes=[7, 47, 22, 6, 42, 23, 5, 26, 0, 31, 10, 37, 4, 48, 8, 49, 15, 1, 21, 27, 2, 19, 34, 35, 28, 20, 33, 29, 38, 9, 32, 14, 44, 43, 41, 18, 40, 39, 12, 24, 13, 17, 46, 3, 16, 36, 11, 45, 50, 30, 25, 7],
 n=51,
 length=479.04657600653263
}}, IterationResult{iteration=172,
 cycle=Cycle{
vertexes=[7, 47, 22, 6, 42, 23, 5, 26, 0, 31, 10, 37, 4, 48, 8, 49, 15, 1, 21, 27, 2, 19, 34, 35, 28, 20, 33, 29, 38, 9, 32, 14, 44, 43, 41, 18, 40, 39, 12, 24, 13, 17, 46, 3, 16, 36, 11, 45, 50, 30, 25, 7],
 n=51,
 length=479.04657600653263
}}, IterationResult{iteration=173,
 cycle=Cycle{
vertexes=[7, 47, 22, 6, 42, 23, 5, 26, 0, 31, 10, 37, 4, 48, 8, 49, 15, 1, 21, 27, 2, 19, 34, 35, 28, 20, 33, 29, 38, 9, 32, 14, 44, 43, 41, 18, 40, 39, 12, 24, 13, 17, 46, 3, 16, 36, 11, 45, 50, 30, 25, 7],
 n=51,
 length=479.04657600653263
}}, IterationResult{iteration=174,
 cycle=Cycle{
vertexes=[7, 47, 22, 6, 42, 23, 5, 26, 0, 31, 10, 37, 4, 48, 8, 49, 15, 1, 21, 27, 2, 19, 34, 35, 28, 20, 33, 29, 38, 9, 32, 14, 44, 43, 41, 18, 40, 39, 12, 24, 13, 17, 46, 3, 16, 36, 11, 45, 50, 30, 25, 7],
 n=51,
 length=479.04657600653263
}}, IterationResult{iteration=175,
 cycle=Cycle{
vertexes=[7, 47, 22, 6, 42, 23, 5, 26, 0, 31, 10, 37, 4, 48, 8, 49, 15, 1, 21, 27, 2, 19, 34, 35, 28, 20, 33, 29, 38, 9, 32, 14, 44, 43, 41, 18, 40, 39, 12, 24, 13, 17, 46, 3, 16, 36, 11, 45, 50, 30, 25, 7],
 n=51,
 length=479.04657600653263
}}, IterationResult{iteration=176,
 cycle=Cycle{
vertexes=[7, 47, 22, 6, 42, 23, 5, 26, 0, 31, 10, 37, 4, 48, 8, 49, 15, 1, 21, 27, 2, 19, 34, 35, 28, 20, 33, 29, 38, 9, 32, 14, 44, 43, 41, 18, 40, 39, 12, 24, 13, 17, 46, 3, 16, 36, 11, 45, 50, 30, 25, 7],
 n=51,
 length=479.04657600653263
}}, IterationResult{iteration=177,
 cycle=Cycle{
vertexes=[7, 47, 22, 6, 42, 23, 5, 26, 0, 31, 10, 37, 4, 48, 8, 49, 15, 1, 21, 27, 2, 19, 34, 35, 28, 20, 33, 29, 38, 9, 32, 14, 44, 43, 41, 18, 40, 39, 12, 24, 13, 17, 46, 3, 16, 36, 11, 45, 50, 30, 25, 7],
 n=51,
 length=479.04657600653263
}}, IterationResult{iteration=178,
 cycle=Cycle{
vertexes=[7, 47, 22, 6, 42, 23, 5, 26, 0, 31, 10, 37, 4, 48, 8, 49, 15, 1, 21, 27, 2, 19, 34, 35, 28, 20, 33, 29, 38, 9, 32, 14, 44, 43, 41, 18, 40, 39, 12, 24, 13, 17, 46, 3, 16, 36, 11, 45, 50, 30, 25, 7],
 n=51,
 length=479.04657600653263
}}, IterationResult{iteration=179,
 cycle=Cycle{
vertexes=[7, 47, 22, 6, 42, 23, 5, 26, 0, 31, 10, 37, 4, 48, 8, 49, 15, 1, 21, 27, 2, 19, 34, 35, 28, 20, 33, 29, 38, 9, 32, 14, 44, 43, 41, 18, 40, 39, 12, 24, 13, 17, 46, 3, 16, 36, 11, 45, 50, 30, 25, 7],
 n=51,
 length=479.04657600653263
}}, IterationResult{iteration=180,
 cycle=Cycle{
vertexes=[7, 47, 22, 6, 42, 23, 5, 26, 0, 31, 10, 37, 4, 48, 8, 49, 15, 1, 21, 27, 2, 19, 34, 35, 28, 20, 33, 29, 38, 9, 32, 14, 44, 43, 41, 18, 40, 39, 12, 24, 13, 17, 46, 3, 16, 36, 11, 45, 50, 30, 25, 7],
 n=51,
 length=479.04657600653263
}}, IterationResult{iteration=181,
 cycle=Cycle{
vertexes=[7, 47, 22, 6, 42, 23, 5, 26, 0, 31, 10, 37, 4, 48, 8, 49, 15, 1, 21, 27, 2, 19, 34, 35, 28, 20, 33, 29, 38, 9, 32, 14, 44, 43, 41, 18, 40, 39, 12, 24, 13, 17, 46, 3, 16, 36, 11, 45, 50, 30, 25, 7],
 n=51,
 length=479.04657600653263
}}, IterationResult{iteration=182,
 cycle=Cycle{
vertexes=[7, 47, 22, 6, 42, 23, 5, 26, 0, 31, 10, 37, 4, 48, 8, 49, 15, 1, 21, 27, 2, 19, 34, 35, 28, 20, 33, 29, 38, 9, 32, 14, 44, 43, 41, 18, 40, 39, 12, 24, 13, 17, 46, 3, 16, 36, 11, 45, 50, 30, 25, 7],
 n=51,
 length=479.04657600653263
}}, IterationResult{iteration=183,
 cycle=Cycle{
vertexes=[7, 47, 22, 6, 42, 23, 5, 26, 0, 31, 10, 37, 4, 48, 8, 49, 15, 1, 21, 27, 2, 19, 34, 35, 28, 20, 33, 29, 38, 9, 32, 14, 44, 43, 41, 18, 40, 39, 12, 24, 13, 17, 46, 3, 16, 36, 11, 45, 50, 30, 25, 7],
 n=51,
 length=479.04657600653263
}}, IterationResult{iteration=184,
 cycle=Cycle{
vertexes=[7, 47, 22, 6, 42, 23, 5, 26, 0, 31, 10, 37, 4, 48, 8, 49, 15, 1, 21, 27, 2, 19, 34, 35, 28, 20, 33, 29, 38, 9, 32, 14, 44, 43, 41, 18, 40, 39, 12, 24, 13, 17, 46, 3, 16, 36, 11, 45, 50, 30, 25, 7],
 n=51,
 length=479.04657600653263
}}, IterationResult{iteration=185,
 cycle=Cycle{
vertexes=[7, 47, 22, 6, 42, 23, 5, 26, 0, 31, 10, 37, 4, 48, 8, 49, 15, 1, 21, 27, 2, 19, 34, 35, 28, 20, 33, 29, 38, 9, 32, 14, 44, 43, 41, 18, 40, 39, 12, 24, 13, 17, 46, 3, 16, 36, 11, 45, 50, 30, 25, 7],
 n=51,
 length=479.04657600653263
}}, IterationResult{iteration=186,
 cycle=Cycle{
vertexes=[7, 47, 22, 6, 42, 23, 5, 26, 0, 31, 10, 37, 4, 48, 8, 49, 15, 1, 21, 27, 2, 19, 34, 35, 28, 20, 33, 29, 38, 9, 32, 14, 44, 43, 41, 18, 40, 39, 12, 24, 13, 17, 46, 3, 16, 36, 11, 45, 50, 30, 25, 7],
 n=51,
 length=479.04657600653263
}}, IterationResult{iteration=187,
 cycle=Cycle{
vertexes=[7, 47, 22, 6, 42, 23, 5, 26, 0, 31, 10, 37, 4, 48, 8, 49, 15, 1, 21, 27, 2, 19, 34, 35, 28, 20, 33, 29, 38, 9, 32, 14, 44, 43, 41, 18, 40, 39, 12, 24, 13, 17, 46, 3, 16, 36, 11, 45, 50, 30, 25, 7],
 n=51,
 length=479.04657600653263
}}, IterationResult{iteration=188,
 cycle=Cycle{
vertexes=[7, 47, 22, 6, 42, 23, 5, 26, 0, 31, 10, 37, 4, 48, 8, 49, 15, 1, 21, 27, 2, 19, 34, 35, 28, 20, 33, 29, 38, 9, 32, 14, 44, 43, 41, 18, 40, 39, 12, 24, 13, 17, 46, 3, 16, 36, 11, 45, 50, 30, 25, 7],
 n=51,
 length=479.04657600653263
}}, IterationResult{iteration=189,
 cycle=Cycle{
vertexes=[7, 47, 22, 6, 42, 23, 5, 26, 0, 31, 10, 37, 4, 48, 8, 49, 15, 1, 21, 27, 2, 19, 34, 35, 28, 20, 33, 29, 38, 9, 32, 14, 44, 43, 41, 18, 40, 39, 12, 24, 13, 17, 46, 3, 16, 36, 11, 45, 50, 30, 25, 7],
 n=51,
 length=479.04657600653263
}}, IterationResult{iteration=190,
 cycle=Cycle{
vertexes=[7, 47, 22, 6, 42, 23, 5, 26, 0, 31, 10, 37, 4, 48, 8, 49, 15, 1, 21, 27, 2, 19, 34, 35, 28, 20, 33, 29, 38, 9, 32, 14, 44, 43, 41, 18, 40, 39, 12, 24, 13, 17, 46, 3, 16, 36, 11, 45, 50, 30, 25, 7],
 n=51,
 length=479.04657600653263
}}, IterationResult{iteration=191,
 cycle=Cycle{
vertexes=[7, 47, 22, 6, 42, 23, 5, 26, 0, 31, 10, 37, 4, 48, 8, 49, 15, 1, 21, 27, 2, 19, 34, 35, 28, 20, 33, 29, 38, 9, 32, 14, 44, 43, 41, 18, 40, 39, 12, 24, 13, 17, 46, 3, 16, 36, 11, 45, 50, 30, 25, 7],
 n=51,
 length=479.04657600653263
}}, IterationResult{iteration=192,
 cycle=Cycle{
vertexes=[7, 47, 22, 6, 42, 23, 5, 26, 0, 31, 10, 37, 4, 48, 8, 49, 15, 1, 21, 27, 2, 19, 34, 35, 28, 20, 33, 29, 38, 9, 32, 14, 44, 43, 41, 18, 40, 39, 12, 24, 13, 17, 46, 3, 16, 36, 11, 45, 50, 30, 25, 7],
 n=51,
 length=479.04657600653263
}}, IterationResult{iteration=193,
 cycle=Cycle{
vertexes=[7, 47, 22, 6, 42, 23, 5, 26, 0, 31, 10, 37, 4, 48, 8, 49, 15, 1, 21, 27, 2, 19, 34, 35, 28, 20, 33, 29, 38, 9, 32, 14, 44, 43, 41, 18, 40, 39, 12, 24, 13, 17, 46, 3, 16, 36, 11, 45, 50, 30, 25, 7],
 n=51,
 length=479.04657600653263
}}, IterationResult{iteration=194,
 cycle=Cycle{
vertexes=[7, 47, 22, 6, 42, 23, 5, 26, 0, 31, 10, 37, 4, 48, 8, 49, 15, 1, 21, 27, 2, 19, 34, 35, 28, 20, 33, 29, 38, 9, 32, 14, 44, 43, 41, 18, 40, 39, 12, 24, 13, 17, 46, 3, 16, 36, 11, 45, 50, 30, 25, 7],
 n=51,
 length=479.04657600653263
}}, IterationResult{iteration=195,
 cycle=Cycle{
vertexes=[7, 47, 22, 6, 42, 23, 5, 26, 0, 31, 10, 37, 4, 48, 8, 49, 15, 1, 21, 27, 2, 19, 34, 35, 28, 20, 33, 29, 38, 9, 32, 14, 44, 43, 41, 18, 40, 39, 12, 24, 13, 17, 46, 3, 16, 36, 11, 45, 50, 30, 25, 7],
 n=51,
 length=479.04657600653263
}}, IterationResult{iteration=196,
 cycle=Cycle{
vertexes=[7, 47, 22, 6, 42, 23, 5, 26, 0, 31, 10, 37, 4, 48, 8, 49, 15, 1, 21, 27, 2, 19, 34, 35, 28, 20, 33, 29, 38, 9, 32, 14, 44, 43, 41, 18, 40, 39, 12, 24, 13, 17, 46, 3, 16, 36, 11, 45, 50, 30, 25, 7],
 n=51,
 length=479.04657600653263
}}, IterationResult{iteration=197,
 cycle=Cycle{
vertexes=[7, 47, 22, 6, 42, 23, 5, 26, 0, 31, 10, 37, 4, 48, 8, 49, 15, 1, 21, 27, 2, 19, 34, 35, 28, 20, 33, 29, 38, 9, 32, 14, 44, 43, 41, 18, 40, 39, 12, 24, 13, 17, 46, 3, 16, 36, 11, 45, 50, 30, 25, 7],
 n=51,
 length=479.04657600653263
}}, IterationResult{iteration=198,
 cycle=Cycle{
vertexes=[7, 47, 22, 6, 42, 23, 5, 26, 0, 31, 10, 37, 4, 48, 8, 49, 15, 1, 21, 27, 2, 19, 34, 35, 28, 20, 33, 29, 38, 9, 32, 14, 44, 43, 41, 18, 40, 39, 12, 24, 13, 17, 46, 3, 16, 36, 11, 45, 50, 30, 25, 7],
 n=51,
 length=479.04657600653263
}}, IterationResult{iteration=199,
 cycle=Cycle{
vertexes=[7, 47, 22, 6, 42, 23, 5, 26, 0, 31, 10, 37, 4, 48, 8, 49, 15, 1, 21, 27, 2, 19, 34, 35, 28, 20, 33, 29, 38, 9, 32, 14, 44, 43, 41, 18, 40, 39, 12, 24, 13, 17, 46, 3, 16, 36, 11, 45, 50, 30, 25, 7],
 n=51,
 length=479.04657600653263
}}, IterationResult{iteration=200,
 cycle=Cycle{
vertexes=[7, 47, 22, 6, 42, 23, 5, 26, 0, 31, 10, 37, 4, 48, 8, 49, 15, 1, 21, 27, 2, 19, 34, 35, 28, 20, 33, 29, 38, 9, 32, 14, 44, 43, 41, 18, 40, 39, 12, 24, 13, 17, 46, 3, 16, 36, 11, 45, 50, 30, 25, 7],
 n=51,
 length=479.04657600653263
}}, IterationResult{iteration=201,
 cycle=Cycle{
vertexes=[7, 47, 22, 6, 42, 23, 5, 26, 0, 31, 10, 37, 4, 48, 8, 49, 15, 1, 21, 27, 2, 19, 34, 35, 28, 20, 33, 29, 38, 9, 32, 14, 44, 43, 41, 18, 40, 39, 12, 24, 13, 17, 46, 3, 16, 36, 11, 45, 50, 30, 25, 7],
 n=51,
 length=479.04657600653263
}}, IterationResult{iteration=202,
 cycle=Cycle{
vertexes=[7, 47, 22, 6, 42, 23, 5, 26, 0, 31, 10, 37, 4, 48, 8, 49, 15, 1, 21, 27, 2, 19, 34, 35, 28, 20, 33, 29, 38, 9, 32, 14, 44, 43, 41, 18, 40, 39, 12, 24, 13, 17, 46, 3, 16, 36, 11, 45, 50, 30, 25, 7],
 n=51,
 length=479.04657600653263
}}, IterationResult{iteration=203,
 cycle=Cycle{
vertexes=[7, 47, 22, 6, 42, 23, 5, 26, 0, 31, 10, 37, 4, 48, 8, 49, 15, 1, 21, 27, 2, 19, 34, 35, 28, 20, 33, 29, 38, 9, 32, 14, 44, 43, 41, 18, 40, 39, 12, 24, 13, 17, 46, 3, 16, 36, 11, 45, 50, 30, 25, 7],
 n=51,
 length=479.04657600653263
}}, IterationResult{iteration=204,
 cycle=Cycle{
vertexes=[7, 47, 22, 6, 42, 23, 5, 26, 0, 31, 10, 37, 4, 48, 8, 49, 15, 1, 21, 27, 2, 19, 34, 35, 28, 20, 33, 29, 38, 9, 32, 14, 44, 43, 41, 18, 40, 39, 12, 24, 13, 17, 46, 3, 16, 36, 11, 45, 50, 30, 25, 7],
 n=51,
 length=479.04657600653263
}}, IterationResult{iteration=205,
 cycle=Cycle{
vertexes=[7, 47, 22, 6, 42, 23, 5, 26, 0, 31, 10, 37, 4, 48, 8, 49, 15, 1, 21, 27, 2, 19, 34, 35, 28, 20, 33, 29, 38, 9, 32, 14, 44, 43, 41, 18, 40, 39, 12, 24, 13, 17, 46, 3, 16, 36, 11, 45, 50, 30, 25, 7],
 n=51,
 length=479.04657600653263
}}, IterationResult{iteration=206,
 cycle=Cycle{
vertexes=[7, 47, 22, 6, 42, 23, 5, 26, 0, 31, 10, 37, 4, 48, 8, 49, 15, 1, 21, 27, 2, 19, 34, 35, 28, 20, 33, 29, 38, 9, 32, 14, 44, 43, 41, 18, 40, 39, 12, 24, 13, 17, 46, 3, 16, 36, 11, 45, 50, 30, 25, 7],
 n=51,
 length=479.04657600653263
}}, IterationResult{iteration=207,
 cycle=Cycle{
vertexes=[7, 47, 22, 6, 42, 23, 5, 26, 0, 31, 10, 37, 4, 48, 8, 49, 15, 1, 21, 27, 2, 19, 34, 35, 28, 20, 33, 29, 38, 9, 32, 14, 44, 43, 41, 18, 40, 39, 12, 24, 13, 17, 46, 3, 16, 36, 11, 45, 50, 30, 25, 7],
 n=51,
 length=479.04657600653263
}}, IterationResult{iteration=208,
 cycle=Cycle{
vertexes=[7, 47, 22, 6, 42, 23, 5, 26, 0, 31, 10, 37, 4, 48, 8, 49, 15, 1, 21, 27, 2, 19, 34, 35, 28, 20, 33, 29, 38, 9, 32, 14, 44, 43, 41, 18, 40, 39, 12, 24, 13, 17, 46, 3, 16, 36, 11, 45, 50, 30, 25, 7],
 n=51,
 length=479.04657600653263
}}, IterationResult{iteration=209,
 cycle=Cycle{
vertexes=[7, 47, 22, 6, 42, 23, 5, 26, 0, 31, 10, 37, 4, 48, 8, 49, 15, 1, 21, 27, 2, 19, 34, 35, 28, 20, 33, 29, 38, 9, 32, 14, 44, 43, 41, 18, 40, 39, 12, 24, 13, 17, 46, 3, 16, 36, 11, 45, 50, 30, 25, 7],
 n=51,
 length=479.04657600653263
}}, IterationResult{iteration=210,
 cycle=Cycle{
vertexes=[7, 47, 22, 6, 42, 23, 5, 26, 0, 31, 10, 37, 4, 48, 8, 49, 15, 1, 21, 27, 2, 19, 34, 35, 28, 20, 33, 29, 38, 9, 32, 14, 44, 43, 41, 18, 40, 39, 12, 24, 13, 17, 46, 3, 16, 36, 11, 45, 50, 30, 25, 7],
 n=51,
 length=479.04657600653263
}}, IterationResult{iteration=211,
 cycle=Cycle{
vertexes=[7, 47, 22, 6, 42, 23, 5, 26, 0, 31, 10, 37, 4, 48, 8, 49, 15, 1, 21, 27, 2, 19, 34, 35, 28, 20, 33, 29, 38, 9, 32, 14, 44, 43, 41, 18, 40, 39, 12, 24, 13, 17, 46, 3, 16, 36, 11, 45, 50, 30, 25, 7],
 n=51,
 length=479.04657600653263
}}, IterationResult{iteration=212,
 cycle=Cycle{
vertexes=[7, 47, 22, 6, 42, 23, 5, 26, 0, 31, 10, 37, 4, 48, 8, 49, 15, 1, 21, 27, 2, 19, 34, 35, 28, 20, 33, 29, 38, 9, 32, 14, 44, 43, 41, 18, 40, 39, 12, 24, 13, 17, 46, 3, 16, 36, 11, 45, 50, 30, 25, 7],
 n=51,
 length=479.04657600653263
}}, IterationResult{iteration=213,
 cycle=Cycle{
vertexes=[7, 47, 22, 6, 42, 23, 5, 26, 0, 31, 10, 37, 4, 48, 8, 49, 15, 1, 21, 27, 2, 19, 34, 35, 28, 20, 33, 29, 38, 9, 32, 14, 44, 43, 41, 18, 40, 39, 12, 24, 13, 17, 46, 3, 16, 36, 11, 45, 50, 30, 25, 7],
 n=51,
 length=479.04657600653263
}}, IterationResult{iteration=214,
 cycle=Cycle{
vertexes=[7, 47, 22, 6, 42, 23, 5, 26, 0, 31, 10, 37, 4, 48, 8, 49, 15, 1, 21, 27, 2, 19, 34, 35, 28, 20, 33, 29, 38, 9, 32, 14, 44, 43, 41, 18, 40, 39, 12, 24, 13, 17, 46, 3, 16, 36, 11, 45, 50, 30, 25, 7],
 n=51,
 length=479.04657600653263
}}, IterationResult{iteration=215,
 cycle=Cycle{
vertexes=[7, 47, 22, 6, 42, 23, 5, 26, 0, 31, 10, 37, 4, 48, 8, 49, 15, 1, 21, 27, 2, 19, 34, 35, 28, 20, 33, 29, 38, 9, 32, 14, 44, 43, 41, 18, 40, 39, 12, 24, 13, 17, 46, 3, 16, 36, 11, 45, 50, 30, 25, 7],
 n=51,
 length=479.04657600653263
}}, IterationResult{iteration=216,
 cycle=Cycle{
vertexes=[7, 47, 22, 6, 42, 23, 5, 26, 0, 31, 10, 37, 4, 48, 8, 49, 15, 1, 21, 27, 2, 19, 34, 35, 28, 20, 33, 29, 38, 9, 32, 14, 44, 43, 41, 18, 40, 39, 12, 24, 13, 17, 46, 3, 16, 36, 11, 45, 50, 30, 25, 7],
 n=51,
 length=479.04657600653263
}}, IterationResult{iteration=217,
 cycle=Cycle{
vertexes=[7, 47, 22, 6, 42, 23, 5, 26, 0, 31, 10, 37, 4, 48, 8, 49, 15, 1, 21, 27, 2, 19, 34, 35, 28, 20, 33, 29, 38, 9, 32, 14, 44, 43, 41, 18, 40, 39, 12, 24, 13, 17, 46, 3, 16, 36, 11, 45, 50, 30, 25, 7],
 n=51,
 length=479.04657600653263
}}, IterationResult{iteration=218,
 cycle=Cycle{
vertexes=[7, 47, 22, 6, 42, 23, 5, 26, 0, 31, 10, 37, 4, 48, 8, 49, 15, 1, 21, 27, 2, 19, 34, 35, 28, 20, 33, 29, 38, 9, 32, 14, 44, 43, 41, 18, 40, 39, 12, 24, 13, 17, 46, 3, 16, 36, 11, 45, 50, 30, 25, 7],
 n=51,
 length=479.04657600653263
}}, IterationResult{iteration=219,
 cycle=Cycle{
vertexes=[7, 47, 22, 6, 42, 23, 5, 26, 0, 31, 10, 37, 4, 48, 8, 49, 15, 1, 21, 27, 2, 19, 34, 35, 28, 20, 33, 29, 38, 9, 32, 14, 44, 43, 41, 18, 40, 39, 12, 24, 13, 17, 46, 3, 16, 36, 11, 45, 50, 30, 25, 7],
 n=51,
 length=479.04657600653263
}}, IterationResult{iteration=220,
 cycle=Cycle{
vertexes=[7, 47, 22, 6, 42, 23, 5, 26, 0, 31, 10, 37, 4, 48, 8, 49, 15, 1, 21, 27, 2, 19, 34, 35, 28, 20, 33, 29, 38, 9, 32, 14, 44, 43, 41, 18, 40, 39, 12, 24, 13, 17, 46, 3, 16, 36, 11, 45, 50, 30, 25, 7],
 n=51,
 length=479.04657600653263
}}, IterationResult{iteration=221,
 cycle=Cycle{
vertexes=[7, 47, 22, 6, 42, 23, 5, 26, 0, 31, 10, 37, 4, 48, 8, 49, 15, 1, 21, 27, 2, 19, 34, 35, 28, 20, 33, 29, 38, 9, 32, 14, 44, 43, 41, 18, 40, 39, 12, 24, 13, 17, 46, 3, 16, 36, 11, 45, 50, 30, 25, 7],
 n=51,
 length=479.04657600653263
}}, IterationResult{iteration=222,
 cycle=Cycle{
vertexes=[7, 47, 22, 6, 42, 23, 5, 26, 0, 31, 10, 37, 4, 48, 8, 49, 15, 1, 21, 27, 2, 19, 34, 35, 28, 20, 33, 29, 38, 9, 32, 14, 44, 43, 41, 18, 40, 39, 12, 24, 13, 17, 46, 3, 16, 36, 11, 45, 50, 30, 25, 7],
 n=51,
 length=479.04657600653263
}}, IterationResult{iteration=223,
 cycle=Cycle{
vertexes=[7, 47, 22, 6, 42, 23, 5, 26, 0, 31, 10, 37, 4, 48, 8, 49, 15, 1, 21, 27, 2, 19, 34, 35, 28, 20, 33, 29, 38, 9, 32, 14, 44, 43, 41, 18, 40, 39, 12, 24, 13, 17, 46, 3, 16, 36, 11, 45, 50, 30, 25, 7],
 n=51,
 length=479.04657600653263
}}, IterationResult{iteration=224,
 cycle=Cycle{
vertexes=[7, 47, 22, 6, 42, 23, 5, 26, 0, 31, 10, 37, 4, 48, 8, 49, 15, 1, 21, 27, 2, 19, 34, 35, 28, 20, 33, 29, 38, 9, 32, 14, 44, 43, 41, 18, 40, 39, 12, 24, 13, 17, 46, 3, 16, 36, 11, 45, 50, 30, 25, 7],
 n=51,
 length=479.04657600653263
}}, IterationResult{iteration=225,
 cycle=Cycle{
vertexes=[7, 47, 22, 6, 42, 23, 5, 26, 0, 31, 10, 37, 4, 48, 8, 49, 15, 1, 21, 27, 2, 19, 34, 35, 28, 20, 33, 29, 38, 9, 32, 14, 44, 43, 41, 18, 40, 39, 12, 24, 13, 17, 46, 3, 16, 36, 11, 45, 50, 30, 25, 7],
 n=51,
 length=479.04657600653263
}}, IterationResult{iteration=226,
 cycle=Cycle{
vertexes=[7, 47, 22, 6, 42, 23, 5, 26, 0, 31, 10, 37, 4, 48, 8, 49, 15, 1, 21, 27, 2, 19, 34, 35, 28, 20, 33, 29, 38, 9, 32, 14, 44, 43, 41, 18, 40, 39, 12, 24, 13, 17, 46, 3, 16, 36, 11, 45, 50, 30, 25, 7],
 n=51,
 length=479.04657600653263
}}, IterationResult{iteration=227,
 cycle=Cycle{
vertexes=[7, 47, 22, 6, 42, 23, 5, 26, 0, 31, 10, 37, 4, 48, 8, 49, 15, 1, 21, 27, 2, 19, 34, 35, 28, 20, 33, 29, 38, 9, 32, 14, 44, 43, 41, 18, 40, 39, 12, 24, 13, 17, 46, 3, 16, 36, 11, 45, 50, 30, 25, 7],
 n=51,
 length=479.04657600653263
}}, IterationResult{iteration=228,
 cycle=Cycle{
vertexes=[7, 47, 22, 6, 42, 23, 5, 26, 0, 31, 10, 37, 4, 48, 8, 49, 15, 1, 21, 27, 2, 19, 34, 35, 28, 20, 33, 29, 38, 9, 32, 14, 44, 43, 41, 18, 40, 39, 12, 24, 13, 17, 46, 3, 16, 36, 11, 45, 50, 30, 25, 7],
 n=51,
 length=479.04657600653263
}}, IterationResult{iteration=229,
 cycle=Cycle{
vertexes=[7, 47, 22, 6, 42, 23, 5, 26, 0, 31, 10, 37, 4, 48, 8, 49, 15, 1, 21, 27, 2, 19, 34, 35, 28, 20, 33, 29, 38, 9, 32, 14, 44, 43, 41, 18, 40, 39, 12, 24, 13, 17, 46, 3, 16, 36, 11, 45, 50, 30, 25, 7],
 n=51,
 length=479.04657600653263
}}, IterationResult{iteration=230,
 cycle=Cycle{
vertexes=[7, 47, 22, 6, 42, 23, 5, 26, 0, 31, 10, 37, 4, 48, 8, 49, 15, 1, 21, 27, 2, 19, 34, 35, 28, 20, 33, 29, 38, 9, 32, 14, 44, 43, 41, 18, 40, 39, 12, 24, 13, 17, 46, 3, 16, 36, 11, 45, 50, 30, 25, 7],
 n=51,
 length=479.04657600653263
}}, IterationResult{iteration=231,
 cycle=Cycle{
vertexes=[7, 47, 22, 6, 42, 23, 5, 26, 0, 31, 10, 37, 4, 48, 8, 49, 15, 1, 21, 27, 2, 19, 34, 35, 28, 20, 33, 29, 38, 9, 32, 14, 44, 43, 41, 18, 40, 39, 12, 24, 13, 17, 46, 3, 16, 36, 11, 45, 50, 30, 25, 7],
 n=51,
 length=479.04657600653263
}}, IterationResult{iteration=232,
 cycle=Cycle{
vertexes=[7, 47, 22, 6, 42, 23, 5, 26, 0, 31, 10, 37, 4, 48, 8, 49, 15, 1, 21, 27, 2, 19, 34, 35, 28, 20, 33, 29, 38, 9, 32, 14, 44, 43, 41, 18, 40, 39, 12, 24, 13, 17, 46, 3, 16, 36, 11, 45, 50, 30, 25, 7],
 n=51,
 length=479.04657600653263
}}, IterationResult{iteration=233,
 cycle=Cycle{
vertexes=[7, 47, 22, 6, 42, 23, 5, 26, 0, 31, 10, 37, 4, 48, 8, 49, 15, 1, 21, 27, 2, 19, 34, 35, 28, 20, 33, 29, 38, 9, 32, 14, 44, 43, 41, 18, 40, 39, 12, 24, 13, 17, 46, 3, 16, 36, 11, 45, 50, 30, 25, 7],
 n=51,
 length=479.04657600653263
}}, IterationResult{iteration=234,
 cycle=Cycle{
vertexes=[7, 47, 22, 6, 42, 23, 5, 26, 0, 31, 10, 37, 4, 48, 8, 49, 15, 1, 21, 27, 2, 19, 34, 35, 28, 20, 33, 29, 38, 9, 32, 14, 44, 43, 41, 18, 40, 39, 12, 24, 13, 17, 46, 3, 16, 36, 11, 45, 50, 30, 25, 7],
 n=51,
 length=479.04657600653263
}}, IterationResult{iteration=235,
 cycle=Cycle{
vertexes=[7, 47, 22, 6, 42, 23, 5, 26, 0, 31, 10, 37, 4, 48, 8, 49, 15, 1, 21, 27, 2, 19, 34, 35, 28, 20, 33, 29, 38, 9, 32, 14, 44, 43, 41, 18, 40, 39, 12, 24, 13, 17, 46, 3, 16, 36, 11, 45, 50, 30, 25, 7],
 n=51,
 length=479.04657600653263
}}, IterationResult{iteration=236,
 cycle=Cycle{
vertexes=[7, 47, 22, 6, 42, 23, 5, 26, 0, 31, 10, 37, 4, 48, 8, 49, 15, 1, 21, 27, 2, 19, 34, 35, 28, 20, 33, 29, 38, 9, 32, 14, 44, 43, 41, 18, 40, 39, 12, 24, 13, 17, 46, 3, 16, 36, 11, 45, 50, 30, 25, 7],
 n=51,
 length=479.04657600653263
}}, IterationResult{iteration=237,
 cycle=Cycle{
vertexes=[7, 47, 22, 6, 42, 23, 5, 26, 0, 31, 10, 37, 4, 48, 8, 49, 15, 1, 21, 27, 2, 19, 34, 35, 28, 20, 33, 29, 38, 9, 32, 14, 44, 43, 41, 18, 40, 39, 12, 24, 13, 17, 46, 3, 16, 36, 11, 45, 50, 30, 25, 7],
 n=51,
 length=479.04657600653263
}}, IterationResult{iteration=238,
 cycle=Cycle{
vertexes=[7, 47, 22, 6, 42, 23, 5, 26, 0, 31, 10, 37, 4, 48, 8, 49, 15, 1, 21, 27, 2, 19, 34, 35, 28, 20, 33, 29, 38, 9, 32, 14, 44, 43, 41, 18, 40, 39, 12, 24, 13, 17, 46, 3, 16, 36, 11, 45, 50, 30, 25, 7],
 n=51,
 length=479.04657600653263
}}, IterationResult{iteration=239,
 cycle=Cycle{
vertexes=[7, 47, 22, 6, 42, 23, 5, 26, 0, 31, 10, 37, 4, 48, 8, 49, 15, 1, 21, 27, 2, 19, 34, 35, 28, 20, 33, 29, 38, 9, 32, 14, 44, 43, 41, 18, 40, 39, 12, 24, 13, 17, 46, 3, 16, 36, 11, 45, 50, 30, 25, 7],
 n=51,
 length=479.04657600653263
}}, IterationResult{iteration=240,
 cycle=Cycle{
vertexes=[7, 47, 22, 6, 42, 23, 5, 26, 0, 31, 10, 37, 4, 48, 8, 49, 15, 1, 21, 27, 2, 19, 34, 35, 28, 20, 33, 29, 38, 9, 32, 14, 44, 43, 41, 18, 40, 39, 12, 24, 13, 17, 46, 3, 16, 36, 11, 45, 50, 30, 25, 7],
 n=51,
 length=479.04657600653263
}}, IterationResult{iteration=241,
 cycle=Cycle{
vertexes=[7, 47, 22, 6, 42, 23, 5, 26, 0, 31, 10, 37, 4, 48, 8, 49, 15, 1, 21, 27, 2, 19, 34, 35, 28, 20, 33, 29, 38, 9, 32, 14, 44, 43, 41, 18, 40, 39, 12, 24, 13, 17, 46, 3, 16, 36, 11, 45, 50, 30, 25, 7],
 n=51,
 length=479.04657600653263
}}, IterationResult{iteration=242,
 cycle=Cycle{
vertexes=[7, 47, 22, 6, 42, 23, 5, 26, 0, 31, 10, 37, 4, 48, 8, 49, 15, 1, 21, 27, 2, 19, 34, 35, 28, 20, 33, 29, 38, 9, 32, 14, 44, 43, 41, 18, 40, 39, 12, 24, 13, 17, 46, 3, 16, 36, 11, 45, 50, 30, 25, 7],
 n=51,
 length=479.04657600653263
}}, IterationResult{iteration=243,
 cycle=Cycle{
vertexes=[7, 47, 22, 6, 42, 23, 5, 26, 0, 31, 10, 37, 4, 48, 8, 49, 15, 1, 21, 27, 2, 19, 34, 35, 28, 20, 33, 29, 38, 9, 32, 14, 44, 43, 41, 18, 40, 39, 12, 24, 13, 17, 46, 3, 16, 36, 11, 45, 50, 30, 25, 7],
 n=51,
 length=479.04657600653263
}}, IterationResult{iteration=244,
 cycle=Cycle{
vertexes=[7, 47, 22, 6, 42, 23, 5, 26, 0, 31, 10, 37, 4, 48, 8, 49, 15, 1, 21, 27, 2, 19, 34, 35, 28, 20, 33, 29, 38, 9, 32, 14, 44, 43, 41, 18, 40, 39, 12, 24, 13, 17, 46, 3, 16, 36, 11, 45, 50, 30, 25, 7],
 n=51,
 length=479.04657600653263
}}, IterationResult{iteration=245,
 cycle=Cycle{
vertexes=[7, 47, 22, 6, 42, 23, 5, 26, 0, 31, 10, 37, 4, 48, 8, 49, 15, 1, 21, 27, 2, 19, 34, 35, 28, 20, 33, 29, 38, 9, 32, 14, 44, 43, 41, 18, 40, 39, 12, 24, 13, 17, 46, 3, 16, 36, 11, 45, 50, 30, 25, 7],
 n=51,
 length=479.04657600653263
}}, IterationResult{iteration=246,
 cycle=Cycle{
vertexes=[7, 47, 22, 6, 42, 23, 5, 26, 0, 31, 10, 37, 4, 48, 8, 49, 15, 1, 21, 27, 2, 19, 34, 35, 28, 20, 33, 29, 38, 9, 32, 14, 44, 43, 41, 18, 40, 39, 12, 24, 13, 17, 46, 3, 16, 36, 11, 45, 50, 30, 25, 7],
 n=51,
 length=479.04657600653263
}}, IterationResult{iteration=247,
 cycle=Cycle{
vertexes=[7, 47, 22, 6, 42, 23, 5, 26, 0, 31, 10, 37, 4, 48, 8, 49, 15, 1, 21, 27, 2, 19, 34, 35, 28, 20, 33, 29, 38, 9, 32, 14, 44, 43, 41, 18, 40, 39, 12, 24, 13, 17, 46, 3, 16, 36, 11, 45, 50, 30, 25, 7],
 n=51,
 length=479.04657600653263
}}, IterationResult{iteration=248,
 cycle=Cycle{
vertexes=[7, 47, 22, 6, 42, 23, 5, 26, 0, 31, 10, 37, 4, 48, 8, 49, 15, 1, 21, 27, 2, 19, 34, 35, 28, 20, 33, 29, 38, 9, 32, 14, 44, 43, 41, 18, 40, 39, 12, 24, 13, 17, 46, 3, 16, 36, 11, 45, 50, 30, 25, 7],
 n=51,
 length=479.04657600653263
}}, IterationResult{iteration=249,
 cycle=Cycle{
vertexes=[7, 47, 22, 6, 42, 23, 5, 26, 0, 31, 10, 37, 4, 48, 8, 49, 15, 1, 21, 27, 2, 19, 34, 35, 28, 20, 33, 29, 38, 9, 32, 14, 44, 43, 41, 18, 40, 39, 12, 24, 13, 17, 46, 3, 16, 36, 11, 45, 50, 30, 25, 7],
 n=51,
 length=479.04657600653263
}}, IterationResult{iteration=250,
 cycle=Cycle{
vertexes=[7, 47, 22, 6, 42, 23, 5, 26, 0, 31, 10, 37, 4, 48, 8, 49, 15, 1, 21, 27, 2, 19, 34, 35, 28, 20, 33, 29, 38, 9, 32, 14, 44, 43, 41, 18, 40, 39, 12, 24, 13, 17, 46, 3, 16, 36, 11, 45, 50, 30, 25, 7],
 n=51,
 length=479.04657600653263
}}, IterationResult{iteration=251,
 cycle=Cycle{
vertexes=[7, 47, 22, 6, 42, 23, 5, 26, 0, 31, 10, 37, 4, 48, 8, 49, 15, 1, 21, 27, 2, 19, 34, 35, 28, 20, 33, 29, 38, 9, 32, 14, 44, 43, 41, 18, 40, 39, 12, 24, 13, 17, 46, 3, 16, 36, 11, 45, 50, 30, 25, 7],
 n=51,
 length=479.04657600653263
}}, IterationResult{iteration=252,
 cycle=Cycle{
vertexes=[7, 47, 22, 6, 42, 23, 5, 26, 0, 31, 10, 37, 4, 48, 8, 49, 15, 1, 21, 27, 2, 19, 34, 35, 28, 20, 33, 29, 38, 9, 32, 14, 44, 43, 41, 18, 40, 39, 12, 24, 13, 17, 46, 3, 16, 36, 11, 45, 50, 30, 25, 7],
 n=51,
 length=479.04657600653263
}}, IterationResult{iteration=253,
 cycle=Cycle{
vertexes=[7, 47, 22, 6, 42, 23, 5, 26, 0, 31, 10, 37, 4, 48, 8, 49, 15, 1, 21, 27, 2, 19, 34, 35, 28, 20, 33, 29, 38, 9, 32, 14, 44, 43, 41, 18, 40, 39, 12, 24, 13, 17, 46, 3, 16, 36, 11, 45, 50, 30, 25, 7],
 n=51,
 length=479.04657600653263
}}, IterationResult{iteration=254,
 cycle=Cycle{
vertexes=[7, 47, 22, 6, 42, 23, 5, 26, 0, 31, 10, 37, 4, 48, 8, 49, 15, 1, 21, 27, 2, 19, 34, 35, 28, 20, 33, 29, 38, 9, 32, 14, 44, 43, 41, 18, 40, 39, 12, 24, 13, 17, 46, 3, 16, 36, 11, 45, 50, 30, 25, 7],
 n=51,
 length=479.04657600653263
}}, IterationResult{iteration=255,
 cycle=Cycle{
vertexes=[7, 47, 22, 6, 42, 23, 5, 26, 0, 31, 10, 37, 4, 48, 8, 49, 15, 1, 21, 27, 2, 19, 34, 35, 28, 20, 33, 29, 38, 9, 32, 14, 44, 43, 41, 18, 40, 39, 12, 24, 13, 17, 46, 3, 16, 36, 11, 45, 50, 30, 25, 7],
 n=51,
 length=479.04657600653263
}}, IterationResult{iteration=256,
 cycle=Cycle{
vertexes=[7, 47, 22, 6, 42, 23, 5, 26, 0, 31, 10, 37, 4, 48, 8, 49, 15, 1, 21, 27, 2, 19, 34, 35, 28, 20, 33, 29, 38, 9, 32, 14, 44, 43, 41, 18, 40, 39, 12, 24, 13, 17, 46, 3, 16, 36, 11, 45, 50, 30, 25, 7],
 n=51,
 length=479.04657600653263
}}, IterationResult{iteration=257,
 cycle=Cycle{
vertexes=[7, 47, 22, 6, 42, 23, 5, 26, 0, 31, 10, 37, 4, 48, 8, 49, 15, 1, 21, 27, 2, 19, 34, 35, 28, 20, 33, 29, 38, 9, 32, 14, 44, 43, 41, 18, 40, 39, 12, 24, 13, 17, 46, 3, 16, 36, 11, 45, 50, 30, 25, 7],
 n=51,
 length=479.04657600653263
}}, IterationResult{iteration=258,
 cycle=Cycle{
vertexes=[7, 47, 22, 6, 42, 23, 5, 26, 0, 31, 10, 37, 4, 48, 8, 49, 15, 1, 21, 27, 2, 19, 34, 35, 28, 20, 33, 29, 38, 9, 32, 14, 44, 43, 41, 18, 40, 39, 12, 24, 13, 17, 46, 3, 16, 36, 11, 45, 50, 30, 25, 7],
 n=51,
 length=479.04657600653263
}}, IterationResult{iteration=259,
 cycle=Cycle{
vertexes=[7, 47, 22, 6, 42, 23, 5, 26, 0, 31, 10, 37, 4, 48, 8, 49, 15, 1, 21, 27, 2, 19, 34, 35, 28, 20, 33, 29, 38, 9, 32, 14, 44, 43, 41, 18, 40, 39, 12, 24, 13, 17, 46, 3, 16, 36, 11, 45, 50, 30, 25, 7],
 n=51,
 length=479.04657600653263
}}, IterationResult{iteration=260,
 cycle=Cycle{
vertexes=[7, 47, 22, 6, 42, 23, 5, 26, 0, 31, 10, 37, 4, 48, 8, 49, 15, 1, 21, 27, 2, 19, 34, 35, 28, 20, 33, 29, 38, 9, 32, 14, 44, 43, 41, 18, 40, 39, 12, 24, 13, 17, 46, 3, 16, 36, 11, 45, 50, 30, 25, 7],
 n=51,
 length=479.04657600653263
}}, IterationResult{iteration=261,
 cycle=Cycle{
vertexes=[7, 47, 22, 6, 42, 23, 5, 26, 0, 31, 10, 37, 4, 48, 8, 49, 15, 1, 21, 27, 2, 19, 34, 35, 28, 20, 33, 29, 38, 9, 32, 14, 44, 43, 41, 18, 40, 39, 12, 24, 13, 17, 46, 3, 16, 36, 11, 45, 50, 30, 25, 7],
 n=51,
 length=479.04657600653263
}}, IterationResult{iteration=262,
 cycle=Cycle{
vertexes=[7, 47, 22, 6, 42, 23, 5, 26, 0, 31, 10, 37, 4, 48, 8, 49, 15, 1, 21, 27, 2, 19, 34, 35, 28, 20, 33, 29, 38, 9, 32, 14, 44, 43, 41, 18, 40, 39, 12, 24, 13, 17, 46, 3, 16, 36, 11, 45, 50, 30, 25, 7],
 n=51,
 length=479.04657600653263
}}, IterationResult{iteration=263,
 cycle=Cycle{
vertexes=[7, 47, 22, 6, 42, 23, 5, 26, 0, 31, 10, 37, 4, 48, 8, 49, 15, 1, 21, 27, 2, 19, 34, 35, 28, 20, 33, 29, 38, 9, 32, 14, 44, 43, 41, 18, 40, 39, 12, 24, 13, 17, 46, 3, 16, 36, 11, 45, 50, 30, 25, 7],
 n=51,
 length=479.04657600653263
}}, IterationResult{iteration=264,
 cycle=Cycle{
vertexes=[7, 47, 22, 6, 42, 23, 5, 26, 0, 31, 10, 37, 4, 48, 8, 49, 15, 1, 21, 27, 2, 19, 34, 35, 28, 20, 33, 29, 38, 9, 32, 14, 44, 43, 41, 18, 40, 39, 12, 24, 13, 17, 46, 3, 16, 36, 11, 45, 50, 30, 25, 7],
 n=51,
 length=479.04657600653263
}}, IterationResult{iteration=265,
 cycle=Cycle{
vertexes=[7, 47, 22, 6, 42, 23, 5, 26, 0, 31, 10, 37, 4, 48, 8, 49, 15, 1, 21, 27, 2, 19, 34, 35, 28, 20, 33, 29, 38, 9, 32, 14, 44, 43, 41, 18, 40, 39, 12, 24, 13, 17, 46, 3, 16, 36, 11, 45, 50, 30, 25, 7],
 n=51,
 length=479.04657600653263
}}, IterationResult{iteration=266,
 cycle=Cycle{
vertexes=[7, 47, 22, 6, 42, 23, 5, 26, 0, 31, 10, 37, 4, 48, 8, 49, 15, 1, 21, 27, 2, 19, 34, 35, 28, 20, 33, 29, 38, 9, 32, 14, 44, 43, 41, 18, 40, 39, 12, 24, 13, 17, 46, 3, 16, 36, 11, 45, 50, 30, 25, 7],
 n=51,
 length=479.04657600653263
}}, IterationResult{iteration=267,
 cycle=Cycle{
vertexes=[7, 47, 22, 6, 42, 23, 5, 26, 0, 31, 10, 37, 4, 48, 8, 49, 15, 1, 21, 27, 2, 19, 34, 35, 28, 20, 33, 29, 38, 9, 32, 14, 44, 43, 41, 18, 40, 39, 12, 24, 13, 17, 46, 3, 16, 36, 11, 45, 50, 30, 25, 7],
 n=51,
 length=479.04657600653263
}}, IterationResult{iteration=268,
 cycle=Cycle{
vertexes=[7, 47, 22, 6, 42, 23, 5, 26, 0, 31, 10, 37, 4, 48, 8, 49, 15, 1, 21, 27, 2, 19, 34, 35, 28, 20, 33, 29, 38, 9, 32, 14, 44, 43, 41, 18, 40, 39, 12, 24, 13, 17, 46, 3, 16, 36, 11, 45, 50, 30, 25, 7],
 n=51,
 length=479.04657600653263
}}, IterationResult{iteration=269,
 cycle=Cycle{
vertexes=[7, 47, 22, 6, 42, 23, 5, 26, 0, 31, 10, 37, 4, 48, 8, 49, 15, 1, 21, 27, 2, 19, 34, 35, 28, 20, 33, 29, 38, 9, 32, 14, 44, 43, 41, 18, 40, 39, 12, 24, 13, 17, 46, 3, 16, 36, 11, 45, 50, 30, 25, 7],
 n=51,
 length=479.04657600653263
}}, IterationResult{iteration=270,
 cycle=Cycle{
vertexes=[7, 47, 22, 6, 42, 23, 5, 26, 0, 31, 10, 37, 4, 48, 8, 49, 15, 1, 21, 27, 2, 19, 34, 35, 28, 20, 33, 29, 38, 9, 32, 14, 44, 43, 41, 18, 40, 39, 12, 24, 13, 17, 46, 3, 16, 36, 11, 45, 50, 30, 25, 7],
 n=51,
 length=479.04657600653263
}}, IterationResult{iteration=271,
 cycle=Cycle{
vertexes=[7, 47, 22, 6, 42, 23, 5, 26, 0, 31, 10, 37, 4, 48, 8, 49, 15, 1, 21, 27, 2, 19, 34, 35, 28, 20, 33, 29, 38, 9, 32, 14, 44, 43, 41, 18, 40, 39, 12, 24, 13, 17, 46, 3, 16, 36, 11, 45, 50, 30, 25, 7],
 n=51,
 length=479.04657600653263
}}, IterationResult{iteration=272,
 cycle=Cycle{
vertexes=[7, 47, 22, 6, 42, 23, 5, 26, 0, 31, 10, 37, 4, 48, 8, 49, 15, 1, 21, 27, 2, 19, 34, 35, 28, 20, 33, 29, 38, 9, 32, 14, 44, 43, 41, 18, 40, 39, 12, 24, 13, 17, 46, 3, 16, 36, 11, 45, 50, 30, 25, 7],
 n=51,
 length=479.04657600653263
}}, IterationResult{iteration=273,
 cycle=Cycle{
vertexes=[7, 47, 22, 6, 42, 23, 5, 26, 0, 31, 10, 37, 4, 48, 8, 49, 15, 1, 21, 27, 2, 19, 34, 35, 28, 20, 33, 29, 38, 9, 32, 14, 44, 43, 41, 18, 40, 39, 12, 24, 13, 17, 46, 3, 16, 36, 11, 45, 50, 30, 25, 7],
 n=51,
 length=479.04657600653263
}}, IterationResult{iteration=274,
 cycle=Cycle{
vertexes=[7, 47, 22, 6, 42, 23, 5, 26, 0, 31, 10, 37, 4, 48, 8, 49, 15, 1, 21, 27, 2, 19, 34, 35, 28, 20, 33, 29, 38, 9, 32, 14, 44, 43, 41, 18, 40, 39, 12, 24, 13, 17, 46, 3, 16, 36, 11, 45, 50, 30, 25, 7],
 n=51,
 length=479.04657600653263
}}, IterationResult{iteration=275,
 cycle=Cycle{
vertexes=[7, 47, 22, 6, 42, 23, 5, 26, 0, 31, 10, 37, 4, 48, 8, 49, 15, 1, 21, 27, 2, 19, 34, 35, 28, 20, 33, 29, 38, 9, 32, 14, 44, 43, 41, 18, 40, 39, 12, 24, 13, 17, 46, 3, 16, 36, 11, 45, 50, 30, 25, 7],
 n=51,
 length=479.04657600653263
}}, IterationResult{iteration=276,
 cycle=Cycle{
vertexes=[7, 47, 22, 6, 42, 23, 5, 26, 0, 31, 10, 37, 4, 48, 8, 49, 15, 1, 21, 27, 2, 19, 34, 35, 28, 20, 33, 29, 38, 9, 32, 14, 44, 43, 41, 18, 40, 39, 12, 24, 13, 17, 46, 3, 16, 36, 11, 45, 50, 30, 25, 7],
 n=51,
 length=479.04657600653263
}}, IterationResult{iteration=277,
 cycle=Cycle{
vertexes=[7, 47, 22, 6, 42, 23, 5, 26, 0, 31, 10, 37, 4, 48, 8, 49, 15, 1, 21, 27, 2, 19, 34, 35, 28, 20, 33, 29, 38, 9, 32, 14, 44, 43, 41, 18, 40, 39, 12, 24, 13, 17, 46, 3, 16, 36, 11, 45, 50, 30, 25, 7],
 n=51,
 length=479.04657600653263
}}, IterationResult{iteration=278,
 cycle=Cycle{
vertexes=[7, 47, 22, 6, 42, 23, 5, 26, 0, 31, 10, 37, 4, 48, 8, 49, 15, 1, 21, 27, 2, 19, 34, 35, 28, 20, 33, 29, 38, 9, 32, 14, 44, 43, 41, 18, 40, 39, 12, 24, 13, 17, 46, 3, 16, 36, 11, 45, 50, 30, 25, 7],
 n=51,
 length=479.04657600653263
}}, IterationResult{iteration=279,
 cycle=Cycle{
vertexes=[7, 47, 22, 6, 42, 23, 5, 26, 0, 31, 10, 37, 4, 48, 8, 49, 15, 1, 21, 27, 2, 19, 34, 35, 28, 20, 33, 29, 38, 9, 32, 14, 44, 43, 41, 18, 40, 39, 12, 24, 13, 17, 46, 3, 16, 36, 11, 45, 50, 30, 25, 7],
 n=51,
 length=479.04657600653263
}}, IterationResult{iteration=280,
 cycle=Cycle{
vertexes=[7, 47, 22, 6, 42, 23, 5, 26, 0, 31, 10, 37, 4, 48, 8, 49, 15, 1, 21, 27, 2, 19, 34, 35, 28, 20, 33, 29, 38, 9, 32, 14, 44, 43, 41, 18, 40, 39, 12, 24, 13, 17, 46, 3, 16, 36, 11, 45, 50, 30, 25, 7],
 n=51,
 length=479.04657600653263
}}, IterationResult{iteration=281,
 cycle=Cycle{
vertexes=[7, 47, 22, 6, 42, 23, 5, 26, 0, 31, 10, 37, 4, 48, 8, 49, 15, 1, 21, 27, 2, 19, 34, 35, 28, 20, 33, 29, 38, 9, 32, 14, 44, 43, 41, 18, 40, 39, 12, 24, 13, 17, 46, 3, 16, 36, 11, 45, 50, 30, 25, 7],
 n=51,
 length=479.04657600653263
}}, IterationResult{iteration=282,
 cycle=Cycle{
vertexes=[7, 47, 22, 6, 42, 23, 5, 26, 0, 31, 10, 37, 4, 48, 8, 49, 15, 1, 21, 27, 2, 19, 34, 35, 28, 20, 33, 29, 38, 9, 32, 14, 44, 43, 41, 18, 40, 39, 12, 24, 13, 17, 46, 3, 16, 36, 11, 45, 50, 30, 25, 7],
 n=51,
 length=479.04657600653263
}}, IterationResult{iteration=283,
 cycle=Cycle{
vertexes=[7, 47, 22, 6, 42, 23, 5, 26, 0, 31, 10, 37, 4, 48, 8, 49, 15, 1, 21, 27, 2, 19, 34, 35, 28, 20, 33, 29, 38, 9, 32, 14, 44, 43, 41, 18, 40, 39, 12, 24, 13, 17, 46, 3, 16, 36, 11, 45, 50, 30, 25, 7],
 n=51,
 length=479.04657600653263
}}, IterationResult{iteration=284,
 cycle=Cycle{
vertexes=[7, 47, 22, 6, 42, 23, 5, 26, 0, 31, 10, 37, 4, 48, 8, 49, 15, 1, 21, 27, 2, 19, 34, 35, 28, 20, 33, 29, 38, 9, 32, 14, 44, 43, 41, 18, 40, 39, 12, 24, 13, 17, 46, 3, 16, 36, 11, 45, 50, 30, 25, 7],
 n=51,
 length=479.04657600653263
}}, IterationResult{iteration=285,
 cycle=Cycle{
vertexes=[7, 47, 22, 6, 42, 23, 5, 26, 0, 31, 10, 37, 4, 48, 8, 49, 15, 1, 21, 27, 2, 19, 34, 35, 28, 20, 33, 29, 38, 9, 32, 14, 44, 43, 41, 18, 40, 39, 12, 24, 13, 17, 46, 3, 16, 36, 11, 45, 50, 30, 25, 7],
 n=51,
 length=479.04657600653263
}}, IterationResult{iteration=286,
 cycle=Cycle{
vertexes=[7, 47, 22, 6, 42, 23, 5, 26, 0, 31, 10, 37, 4, 48, 8, 49, 15, 1, 21, 27, 2, 19, 34, 35, 28, 20, 33, 29, 38, 9, 32, 14, 44, 43, 41, 18, 40, 39, 12, 24, 13, 17, 46, 3, 16, 36, 11, 45, 50, 30, 25, 7],
 n=51,
 length=479.04657600653263
}}, IterationResult{iteration=287,
 cycle=Cycle{
vertexes=[7, 47, 22, 6, 42, 23, 5, 26, 0, 31, 10, 37, 4, 48, 8, 49, 15, 1, 21, 27, 2, 19, 34, 35, 28, 20, 33, 29, 38, 9, 32, 14, 44, 43, 41, 18, 40, 39, 12, 24, 13, 17, 46, 3, 16, 36, 11, 45, 50, 30, 25, 7],
 n=51,
 length=479.04657600653263
}}, IterationResult{iteration=288,
 cycle=Cycle{
vertexes=[7, 47, 22, 6, 42, 23, 5, 26, 0, 31, 10, 37, 4, 48, 8, 49, 15, 1, 21, 27, 2, 19, 34, 35, 28, 20, 33, 29, 38, 9, 32, 14, 44, 43, 41, 18, 40, 39, 12, 24, 13, 17, 46, 3, 16, 36, 11, 45, 50, 30, 25, 7],
 n=51,
 length=479.04657600653263
}}, IterationResult{iteration=289,
 cycle=Cycle{
vertexes=[7, 47, 22, 6, 42, 23, 5, 26, 0, 31, 10, 37, 4, 48, 8, 49, 15, 1, 21, 27, 2, 19, 34, 35, 28, 20, 33, 29, 38, 9, 32, 14, 44, 43, 41, 18, 40, 39, 12, 24, 13, 17, 46, 3, 16, 36, 11, 45, 50, 30, 25, 7],
 n=51,
 length=479.04657600653263
}}, IterationResult{iteration=290,
 cycle=Cycle{
vertexes=[7, 47, 22, 6, 42, 23, 5, 26, 0, 31, 10, 37, 4, 48, 8, 49, 15, 1, 21, 27, 2, 19, 34, 35, 28, 20, 33, 29, 38, 9, 32, 14, 44, 43, 41, 18, 40, 39, 12, 24, 13, 17, 46, 3, 16, 36, 11, 45, 50, 30, 25, 7],
 n=51,
 length=479.04657600653263
}}, IterationResult{iteration=291,
 cycle=Cycle{
vertexes=[7, 47, 22, 6, 42, 23, 5, 26, 0, 31, 10, 37, 4, 48, 8, 49, 15, 1, 21, 27, 2, 19, 34, 35, 28, 20, 33, 29, 38, 9, 32, 14, 44, 43, 41, 18, 40, 39, 12, 24, 13, 17, 46, 3, 16, 36, 11, 45, 50, 30, 25, 7],
 n=51,
 length=479.04657600653263
}}, IterationResult{iteration=292,
 cycle=Cycle{
vertexes=[7, 47, 22, 6, 42, 23, 5, 26, 0, 31, 10, 37, 4, 48, 8, 49, 15, 1, 21, 27, 2, 19, 34, 35, 28, 20, 33, 29, 38, 9, 32, 14, 44, 43, 41, 18, 40, 39, 12, 24, 13, 17, 46, 3, 16, 36, 11, 45, 50, 30, 25, 7],
 n=51,
 length=479.04657600653263
}}, IterationResult{iteration=293,
 cycle=Cycle{
vertexes=[7, 47, 22, 6, 42, 23, 5, 26, 0, 31, 10, 37, 4, 48, 8, 49, 15, 1, 21, 27, 2, 19, 34, 35, 28, 20, 33, 29, 38, 9, 32, 14, 44, 43, 41, 18, 40, 39, 12, 24, 13, 17, 46, 3, 16, 36, 11, 45, 50, 30, 25, 7],
 n=51,
 length=479.04657600653263
}}, IterationResult{iteration=294,
 cycle=Cycle{
vertexes=[7, 47, 22, 6, 42, 23, 5, 26, 0, 31, 10, 37, 4, 48, 8, 49, 15, 1, 21, 27, 2, 19, 34, 35, 28, 20, 33, 29, 38, 9, 32, 14, 44, 43, 41, 18, 40, 39, 12, 24, 13, 17, 46, 3, 16, 36, 11, 45, 50, 30, 25, 7],
 n=51,
 length=479.04657600653263
}}, IterationResult{iteration=295,
 cycle=Cycle{
vertexes=[7, 47, 22, 6, 42, 23, 5, 26, 0, 31, 10, 37, 4, 48, 8, 49, 15, 1, 21, 27, 2, 19, 34, 35, 28, 20, 33, 29, 38, 9, 32, 14, 44, 43, 41, 18, 40, 39, 12, 24, 13, 17, 46, 3, 16, 36, 11, 45, 50, 30, 25, 7],
 n=51,
 length=479.04657600653263
}}, IterationResult{iteration=296,
 cycle=Cycle{
vertexes=[7, 47, 22, 6, 42, 23, 5, 26, 0, 31, 10, 37, 4, 48, 8, 49, 15, 1, 21, 27, 2, 19, 34, 35, 28, 20, 33, 29, 38, 9, 32, 14, 44, 43, 41, 18, 40, 39, 12, 24, 13, 17, 46, 3, 16, 36, 11, 45, 50, 30, 25, 7],
 n=51,
 length=479.04657600653263
}}, IterationResult{iteration=297,
 cycle=Cycle{
vertexes=[7, 47, 22, 6, 42, 23, 5, 26, 0, 31, 10, 37, 4, 48, 8, 49, 15, 1, 21, 27, 2, 19, 34, 35, 28, 20, 33, 29, 38, 9, 32, 14, 44, 43, 41, 18, 40, 39, 12, 24, 13, 17, 46, 3, 16, 36, 11, 45, 50, 30, 25, 7],
 n=51,
 length=479.04657600653263
}}, IterationResult{iteration=298,
 cycle=Cycle{
vertexes=[7, 47, 22, 6, 42, 23, 5, 26, 0, 31, 10, 37, 4, 48, 8, 49, 15, 1, 21, 27, 2, 19, 34, 35, 28, 20, 33, 29, 38, 9, 32, 14, 44, 43, 41, 18, 40, 39, 12, 24, 13, 17, 46, 3, 16, 36, 11, 45, 50, 30, 25, 7],
 n=51,
 length=479.04657600653263
}}, IterationResult{iteration=299,
 cycle=Cycle{
vertexes=[7, 47, 22, 6, 42, 23, 5, 26, 0, 31, 10, 37, 4, 48, 8, 49, 15, 1, 21, 27, 2, 19, 34, 35, 28, 20, 33, 29, 38, 9, 32, 14, 44, 43, 41, 18, 40, 39, 12, 24, 13, 17, 46, 3, 16, 36, 11, 45, 50, 30, 25, 7],
 n=51,
 length=479.04657600653263
}}, IterationResult{iteration=300,
 cycle=Cycle{
vertexes=[7, 47, 22, 6, 42, 23, 5, 26, 0, 31, 10, 37, 4, 48, 8, 49, 15, 1, 21, 27, 2, 19, 34, 35, 28, 20, 33, 29, 38, 9, 32, 14, 44, 43, 41, 18, 40, 39, 12, 24, 13, 17, 46, 3, 16, 36, 11, 45, 50, 30, 25, 7],
 n=51,
 length=479.04657600653263
}}, IterationResult{iteration=301,
 cycle=Cycle{
vertexes=[7, 47, 22, 6, 42, 23, 5, 26, 0, 31, 10, 37, 4, 48, 8, 49, 15, 1, 21, 27, 2, 19, 34, 35, 28, 20, 33, 29, 38, 9, 32, 14, 44, 43, 41, 18, 40, 39, 12, 24, 13, 17, 46, 3, 16, 36, 11, 45, 50, 30, 25, 7],
 n=51,
 length=479.04657600653263
}}, IterationResult{iteration=302,
 cycle=Cycle{
vertexes=[7, 47, 22, 6, 42, 23, 5, 26, 0, 31, 10, 37, 4, 48, 8, 49, 15, 1, 21, 27, 2, 19, 34, 35, 28, 20, 33, 29, 38, 9, 32, 14, 44, 43, 41, 18, 40, 39, 12, 24, 13, 17, 46, 3, 16, 36, 11, 45, 50, 30, 25, 7],
 n=51,
 length=479.04657600653263
}}, IterationResult{iteration=303,
 cycle=Cycle{
vertexes=[7, 47, 22, 6, 42, 23, 5, 26, 0, 31, 10, 37, 4, 48, 8, 49, 15, 1, 21, 27, 2, 19, 34, 35, 28, 20, 33, 29, 38, 9, 32, 14, 44, 43, 41, 18, 40, 39, 12, 24, 13, 17, 46, 3, 16, 36, 11, 45, 50, 30, 25, 7],
 n=51,
 length=479.04657600653263
}}, IterationResult{iteration=304,
 cycle=Cycle{
vertexes=[7, 47, 22, 6, 42, 23, 5, 26, 0, 31, 10, 37, 4, 48, 8, 49, 15, 1, 21, 27, 2, 19, 34, 35, 28, 20, 33, 29, 38, 9, 32, 14, 44, 43, 41, 18, 40, 39, 12, 24, 13, 17, 46, 3, 16, 36, 11, 45, 50, 30, 25, 7],
 n=51,
 length=479.04657600653263
}}, IterationResult{iteration=305,
 cycle=Cycle{
vertexes=[7, 47, 22, 6, 42, 23, 5, 26, 0, 31, 10, 37, 4, 48, 8, 49, 15, 1, 21, 27, 2, 19, 34, 35, 28, 20, 33, 29, 38, 9, 32, 14, 44, 43, 41, 18, 40, 39, 12, 24, 13, 17, 46, 3, 16, 36, 11, 45, 50, 30, 25, 7],
 n=51,
 length=479.04657600653263
}}, IterationResult{iteration=306,
 cycle=Cycle{
vertexes=[7, 47, 22, 6, 42, 23, 5, 26, 0, 31, 10, 37, 4, 48, 8, 49, 15, 1, 21, 27, 2, 19, 34, 35, 28, 20, 33, 29, 38, 9, 32, 14, 44, 43, 41, 18, 40, 39, 12, 24, 13, 17, 46, 3, 16, 36, 11, 45, 50, 30, 25, 7],
 n=51,
 length=479.04657600653263
}}, IterationResult{iteration=307,
 cycle=Cycle{
vertexes=[7, 47, 22, 6, 42, 23, 5, 26, 0, 31, 10, 37, 4, 48, 8, 49, 15, 1, 21, 27, 2, 19, 34, 35, 28, 20, 33, 29, 38, 9, 32, 14, 44, 43, 41, 18, 40, 39, 12, 24, 13, 17, 46, 3, 16, 36, 11, 45, 50, 30, 25, 7],
 n=51,
 length=479.04657600653263
}}, IterationResult{iteration=308,
 cycle=Cycle{
vertexes=[7, 47, 22, 6, 42, 23, 5, 26, 0, 31, 10, 37, 4, 48, 8, 49, 15, 1, 21, 27, 2, 19, 34, 35, 28, 20, 33, 29, 38, 9, 32, 14, 44, 43, 41, 18, 40, 39, 12, 24, 13, 17, 46, 3, 16, 36, 11, 45, 50, 30, 25, 7],
 n=51,
 length=479.04657600653263
}}, IterationResult{iteration=309,
 cycle=Cycle{
vertexes=[7, 47, 22, 6, 42, 23, 5, 26, 0, 31, 10, 37, 4, 48, 8, 49, 15, 1, 21, 27, 2, 19, 34, 35, 28, 20, 33, 29, 38, 9, 32, 14, 44, 43, 41, 18, 40, 39, 12, 24, 13, 17, 46, 3, 16, 36, 11, 45, 50, 30, 25, 7],
 n=51,
 length=479.04657600653263
}}, IterationResult{iteration=310,
 cycle=Cycle{
vertexes=[7, 47, 22, 6, 42, 23, 5, 26, 0, 31, 10, 37, 4, 48, 8, 49, 15, 1, 21, 27, 2, 19, 34, 35, 28, 20, 33, 29, 38, 9, 32, 14, 44, 43, 41, 18, 40, 39, 12, 24, 13, 17, 46, 3, 16, 36, 11, 45, 50, 30, 25, 7],
 n=51,
 length=479.04657600653263
}}, IterationResult{iteration=311,
 cycle=Cycle{
vertexes=[7, 47, 22, 6, 42, 23, 5, 26, 0, 31, 10, 37, 4, 48, 8, 49, 15, 1, 21, 27, 2, 19, 34, 35, 28, 20, 33, 29, 38, 9, 32, 14, 44, 43, 41, 18, 40, 39, 12, 24, 13, 17, 46, 3, 16, 36, 11, 45, 50, 30, 25, 7],
 n=51,
 length=479.04657600653263
}}, IterationResult{iteration=312,
 cycle=Cycle{
vertexes=[7, 47, 22, 6, 42, 23, 5, 26, 0, 31, 10, 37, 4, 48, 8, 49, 15, 1, 21, 27, 2, 19, 34, 35, 28, 20, 33, 29, 38, 9, 32, 14, 44, 43, 41, 18, 40, 39, 12, 24, 13, 17, 46, 3, 16, 36, 11, 45, 50, 30, 25, 7],
 n=51,
 length=479.04657600653263
}}, IterationResult{iteration=313,
 cycle=Cycle{
vertexes=[7, 47, 22, 6, 42, 23, 5, 26, 0, 31, 10, 37, 4, 48, 8, 49, 15, 1, 21, 27, 2, 19, 34, 35, 28, 20, 33, 29, 38, 9, 32, 14, 44, 43, 41, 18, 40, 39, 12, 24, 13, 17, 46, 3, 16, 36, 11, 45, 50, 30, 25, 7],
 n=51,
 length=479.04657600653263
}}, IterationResult{iteration=314,
 cycle=Cycle{
vertexes=[7, 47, 22, 6, 42, 23, 5, 26, 0, 31, 10, 37, 4, 48, 8, 49, 15, 1, 21, 27, 2, 19, 34, 35, 28, 20, 33, 29, 38, 9, 32, 14, 44, 43, 41, 18, 40, 39, 12, 24, 13, 17, 46, 3, 16, 36, 11, 45, 50, 30, 25, 7],
 n=51,
 length=479.04657600653263
}}, IterationResult{iteration=315,
 cycle=Cycle{
vertexes=[7, 47, 22, 6, 42, 23, 5, 26, 0, 31, 10, 37, 4, 48, 8, 49, 15, 1, 21, 27, 2, 19, 34, 35, 28, 20, 33, 29, 38, 9, 32, 14, 44, 43, 41, 18, 40, 39, 12, 24, 13, 17, 46, 3, 16, 36, 11, 45, 50, 30, 25, 7],
 n=51,
 length=479.04657600653263
}}, IterationResult{iteration=316,
 cycle=Cycle{
vertexes=[7, 47, 22, 6, 42, 23, 5, 26, 0, 31, 10, 37, 4, 48, 8, 49, 15, 1, 21, 27, 2, 19, 34, 35, 28, 20, 33, 29, 38, 9, 32, 14, 44, 43, 41, 18, 40, 39, 12, 24, 13, 17, 46, 3, 16, 36, 11, 45, 50, 30, 25, 7],
 n=51,
 length=479.04657600653263
}}, IterationResult{iteration=317,
 cycle=Cycle{
vertexes=[7, 47, 22, 6, 42, 23, 5, 26, 0, 31, 10, 37, 4, 48, 8, 49, 15, 1, 21, 27, 2, 19, 34, 35, 28, 20, 33, 29, 38, 9, 32, 14, 44, 43, 41, 18, 40, 39, 12, 24, 13, 17, 46, 3, 16, 36, 11, 45, 50, 30, 25, 7],
 n=51,
 length=479.04657600653263
}}, IterationResult{iteration=318,
 cycle=Cycle{
vertexes=[7, 47, 22, 6, 42, 23, 5, 26, 0, 31, 10, 37, 4, 48, 8, 49, 15, 1, 21, 27, 2, 19, 34, 35, 28, 20, 33, 29, 38, 9, 32, 14, 44, 43, 41, 18, 40, 39, 12, 24, 13, 17, 46, 3, 16, 36, 11, 45, 50, 30, 25, 7],
 n=51,
 length=479.04657600653263
}}, IterationResult{iteration=319,
 cycle=Cycle{
vertexes=[7, 47, 22, 6, 42, 23, 5, 26, 0, 31, 10, 37, 4, 48, 8, 49, 15, 1, 21, 27, 2, 19, 34, 35, 28, 20, 33, 29, 38, 9, 32, 14, 44, 43, 41, 18, 40, 39, 12, 24, 13, 17, 46, 3, 16, 36, 11, 45, 50, 30, 25, 7],
 n=51,
 length=479.04657600653263
}}, IterationResult{iteration=320,
 cycle=Cycle{
vertexes=[7, 47, 22, 6, 42, 23, 5, 26, 0, 31, 10, 37, 4, 48, 8, 49, 15, 1, 21, 27, 2, 19, 34, 35, 28, 20, 33, 29, 38, 9, 32, 14, 44, 43, 41, 18, 40, 39, 12, 24, 13, 17, 46, 3, 16, 36, 11, 45, 50, 30, 25, 7],
 n=51,
 length=479.04657600653263
}}, IterationResult{iteration=321,
 cycle=Cycle{
vertexes=[7, 47, 22, 6, 42, 23, 5, 26, 0, 31, 10, 37, 4, 48, 8, 49, 15, 1, 21, 27, 2, 19, 34, 35, 28, 20, 33, 29, 38, 9, 32, 14, 44, 43, 41, 18, 40, 39, 12, 24, 13, 17, 46, 3, 16, 36, 11, 45, 50, 30, 25, 7],
 n=51,
 length=479.04657600653263
}}, IterationResult{iteration=322,
 cycle=Cycle{
vertexes=[7, 47, 22, 6, 42, 23, 5, 26, 0, 31, 10, 37, 4, 48, 8, 49, 15, 1, 21, 27, 2, 19, 34, 35, 28, 20, 33, 29, 38, 9, 32, 14, 44, 43, 41, 18, 40, 39, 12, 24, 13, 17, 46, 3, 16, 36, 11, 45, 50, 30, 25, 7],
 n=51,
 length=479.04657600653263
}}, IterationResult{iteration=323,
 cycle=Cycle{
vertexes=[7, 47, 22, 6, 42, 23, 5, 26, 0, 31, 10, 37, 4, 48, 8, 49, 15, 1, 21, 27, 2, 19, 34, 35, 28, 20, 33, 29, 38, 9, 32, 14, 44, 43, 41, 18, 40, 39, 12, 24, 13, 17, 46, 3, 16, 36, 11, 45, 50, 30, 25, 7],
 n=51,
 length=479.04657600653263
}}, IterationResult{iteration=324,
 cycle=Cycle{
vertexes=[7, 47, 22, 6, 42, 23, 5, 26, 0, 31, 10, 37, 4, 48, 8, 49, 15, 1, 21, 27, 2, 19, 34, 35, 28, 20, 33, 29, 38, 9, 32, 14, 44, 43, 41, 18, 40, 39, 12, 24, 13, 17, 46, 3, 16, 36, 11, 45, 50, 30, 25, 7],
 n=51,
 length=479.04657600653263
}}, IterationResult{iteration=325,
 cycle=Cycle{
vertexes=[7, 47, 22, 6, 42, 23, 5, 26, 0, 31, 10, 37, 4, 48, 8, 49, 15, 1, 21, 27, 2, 19, 34, 35, 28, 20, 33, 29, 38, 9, 32, 14, 44, 43, 41, 18, 40, 39, 12, 24, 13, 17, 46, 3, 16, 36, 11, 45, 50, 30, 25, 7],
 n=51,
 length=479.04657600653263
}}, IterationResult{iteration=326,
 cycle=Cycle{
vertexes=[7, 47, 22, 6, 42, 23, 5, 26, 0, 31, 10, 37, 4, 48, 8, 49, 15, 1, 21, 27, 2, 19, 34, 35, 28, 20, 33, 29, 38, 9, 32, 14, 44, 43, 41, 18, 40, 39, 12, 24, 13, 17, 46, 3, 16, 36, 11, 45, 50, 30, 25, 7],
 n=51,
 length=479.04657600653263
}}, IterationResult{iteration=327,
 cycle=Cycle{
vertexes=[7, 47, 22, 6, 42, 23, 5, 26, 0, 31, 10, 37, 4, 48, 8, 49, 15, 1, 21, 27, 2, 19, 34, 35, 28, 20, 33, 29, 38, 9, 32, 14, 44, 43, 41, 18, 40, 39, 12, 24, 13, 17, 46, 3, 16, 36, 11, 45, 50, 30, 25, 7],
 n=51,
 length=479.04657600653263
}}, IterationResult{iteration=328,
 cycle=Cycle{
vertexes=[7, 47, 22, 6, 42, 23, 5, 26, 0, 31, 10, 37, 4, 48, 8, 49, 15, 1, 21, 27, 2, 19, 34, 35, 28, 20, 33, 29, 38, 9, 32, 14, 44, 43, 41, 18, 40, 39, 12, 24, 13, 17, 46, 3, 16, 36, 11, 45, 50, 30, 25, 7],
 n=51,
 length=479.04657600653263
}}, IterationResult{iteration=329,
 cycle=Cycle{
vertexes=[7, 47, 22, 6, 42, 23, 5, 26, 0, 31, 10, 37, 4, 48, 8, 49, 15, 1, 21, 27, 2, 19, 34, 35, 28, 20, 33, 29, 38, 9, 32, 14, 44, 43, 41, 18, 40, 39, 12, 24, 13, 17, 46, 3, 16, 36, 11, 45, 50, 30, 25, 7],
 n=51,
 length=479.04657600653263
}}]'
}
