STANDART
----------------------------------------------------------------------
Run method execution time:132761 ms
Path weight: 121085.40151126552
Path:
[308, 354, 350, 307, 285, 249, 181, 205, 171, 140, 123, 119, 89, 76, 115, 151, 239, 304, 276, 325, 380, 359, 289, 270, 266, 228, 220, 206, 212, 278, 288, 256, 259, 320, 434, 436, 472, 466, 27, 55, 57, 41, 45, 214, 329, 447, 478, 474, 347, 302, 284, 231, 290, 279, 207, 168, 147, 134, 155, 158, 174, 175, 173, 169, 121, 159, 149, 126, 136, 59, 63, 127, 124, 106, 97, 96, 116, 161, 193, 254, 235, 395, 406, 385, 389, 396, 316, 337, 411, 432, 392, 419, 357, 405, 374, 236, 250, 301, 269, 334, 225, 132, 133, 129, 128, 7, 8, 9, 6, 5, 20, 322, 303, 312, 292, 353, 327, 346, 409, 366, 439, 458, 462, 283, 321, 311, 176, 164, 192, 204, 213, 274, 299, 291, 298, 351, 333, 271, 160, 65, 66, 82, 70, 80, 75, 154, 223, 464, 482, 475, 484, 486, 335, 187, 191, 182, 219, 216, 156, 142, 117, 108, 102, 103, 110, 177, 455, 473, 468, 445, 414, 435, 418, 317, 309, 255, 242, 233, 245, 240, 363, 410, 460, 465, 461, 457, 341, 369, 381, 456, 421, 172, 101, 104, 98, 78, 81, 77, 83, 85, 99, 100, 112, 114, 122, 139, 130, 152, 163, 296, 324, 340, 471, 469, 467, 470, 179, 200, 162, 64, 53, 138, 148, 391, 398, 24, 428, 463, 412, 373, 399, 420, 331, 371, 427, 400, 377, 275, 368, 397, 208, 234, 166, 146, 135, 196, 241, 257, 282, 378, 394, 488, 485, 429, 425, 451, 360, 362, 323, 263, 262, 248, 260, 483, 490, 491, 492, 487, 310, 273, 318, 295, 375, 401, 393, 403, 356, 408, 388, 349, 424, 423, 25, 26, 0, 4, 11, 69, 67, 68, 18, 12, 43, 422, 390, 431, 367, 459, 430, 352, 58, 61, 86, 217, 222, 218, 186, 202, 167, 211, 178, 145, 143, 137, 113, 90, 87, 88, 93, 91, 94, 92, 84, 15, 60, 52, 13, 14, 56, 62, 54, 189, 224, 221, 185, 188, 258, 336, 328, 407, 332, 277, 344, 370, 195, 157, 141, 144, 16, 19, 17, 72, 71, 73, 74, 95, 105, 107, 165, 280, 338, 287, 252, 251, 261, 203, 190, 199, 183, 150, 198, 194, 449, 339, 379, 364, 442, 443, 376, 342, 404, 382, 305, 345, 355, 437, 448, 433, 413, 343, 330, 372, 383, 489, 426, 477, 476, 438, 450, 454, 313, 272, 184, 170, 153, 131, 120, 125, 79, 10, 3, 1, 2, 35, 36, 50, 48, 47, 33, 22, 29, 31, 39, 38, 37, 34, 32, 23, 268, 326, 293, 294, 253, 238, 264, 286, 237, 247, 244, 226, 227, 243, 232, 210, 229, 267, 384, 300, 265, 215, 118, 109, 111, 201, 402, 416, 440, 452, 481, 361, 319, 315, 306, 314, 358, 281, 246, 348, 297, 209, 21, 30, 28, 40, 46, 42, 44, 51, 49, 180, 197, 230, 444, 446, 415, 417, 479, 365, 386, 480, 453, 441, 387, 308]

----------------------------------------------------------------------
Run method execution time:137976 ms
Path weight: 127209.29698173836
Path:
[385, 362, 354, 269, 323, 307, 283, 179, 175, 173, 169, 158, 193, 161, 48, 51, 4, 8, 9, 7, 13, 12, 54, 127, 144, 174, 224, 391, 25, 428, 381, 340, 349, 369, 275, 279, 321, 270, 58, 60, 79, 82, 78, 106, 130, 219, 220, 245, 217, 43, 52, 61, 62, 87, 91, 112, 114, 111, 117, 108, 94, 88, 99, 104, 107, 122, 119, 137, 163, 206, 190, 183, 132, 123, 150, 156, 195, 236, 262, 310, 302, 338, 263, 225, 371, 490, 361, 334, 353, 461, 28, 29, 31, 38, 36, 39, 35, 265, 234, 300, 317, 305, 320, 278, 258, 256, 276, 223, 40, 21, 239, 160, 153, 81, 85, 84, 86, 209, 297, 235, 210, 227, 166, 135, 136, 133, 126, 168, 181, 230, 298, 359, 318, 453, 427, 489, 383, 375, 314, 331, 487, 492, 478, 481, 484, 488, 486, 483, 480, 482, 413, 232, 194, 176, 182, 192, 252, 248, 345, 444, 458, 452, 378, 372, 274, 242, 214, 185, 145, 118, 115, 121, 138, 56, 72, 70, 77, 71, 73, 76, 97, 100, 113, 218, 250, 261, 403, 423, 24, 30, 0, 5, 11, 15, 14, 17, 18, 6, 1, 3, 50, 267, 324, 294, 202, 186, 110, 103, 90, 93, 207, 212, 233, 222, 244, 358, 433, 434, 419, 440, 451, 449, 450, 435, 447, 292, 285, 231, 286, 299, 393, 416, 445, 443, 407, 312, 196, 159, 178, 277, 303, 322, 344, 325, 336, 463, 466, 469, 395, 388, 342, 141, 129, 102, 92, 109, 140, 152, 216, 288, 282, 360, 365, 287, 290, 411, 377, 373, 351, 229, 221, 333, 296, 226, 259, 253, 213, 177, 238, 311, 264, 417, 415, 471, 467, 465, 390, 57, 67, 68, 65, 10, 2, 27, 26, 422, 389, 370, 436, 405, 355, 332, 37, 34, 23, 384, 398, 446, 438, 402, 485, 476, 401, 346, 347, 394, 418, 404, 399, 470, 462, 464, 459, 309, 472, 468, 442, 456, 397, 410, 421, 356, 409, 441, 420, 379, 301, 273, 251, 295, 237, 257, 243, 313, 364, 374, 406, 335, 315, 327, 266, 197, 131, 63, 59, 19, 66, 69, 80, 125, 149, 201, 157, 142, 143, 139, 205, 396, 368, 430, 408, 241, 255, 191, 167, 187, 198, 400, 477, 454, 439, 455, 425, 319, 204, 203, 199, 164, 155, 146, 147, 151, 200, 189, 172, 162, 154, 148, 64, 53, 55, 41, 32, 460, 457, 432, 380, 386, 437, 339, 387, 306, 281, 392, 376, 20, 44, 254, 341, 316, 271, 124, 95, 74, 75, 101, 171, 208, 304, 268, 128, 120, 105, 98, 89, 96, 116, 134, 228, 246, 249, 247, 308, 291, 211, 165, 170, 180, 45, 42, 47, 46, 215, 293, 426, 429, 431, 424, 357, 22, 33, 49, 16, 83, 188, 184, 240, 272, 260, 284, 330, 414, 328, 280, 343, 366, 350, 352, 363, 329, 382, 412, 289, 326, 337, 348, 367, 448, 479, 474, 475, 491, 473, 385]
d495
STANDART
----------------------------------------------------------------------
Run method execution time:190483 ms
Path weight: 116897.02306802534
Path:
[397, 460, 462, 431, 424, 430, 367, 401, 403, 439, 423, 296, 333, 414, 363, 340, 293, 305, 318, 419, 379, 338, 314, 273, 246, 255, 233, 221, 200, 208, 239, 368, 357, 321, 248, 228, 183, 178, 173, 161, 197, 196, 226, 292, 477, 492, 490, 361, 347, 365, 409, 451, 417, 342, 322, 147, 153, 158, 179, 185, 300, 268, 304, 313, 286, 393, 366, 441, 437, 442, 456, 428, 37, 39, 2, 0, 4, 5, 3, 8, 6, 51, 120, 128, 139, 252, 284, 285, 280, 216, 256, 308, 312, 277, 40, 42, 47, 1, 10, 48, 162, 229, 242, 348, 435, 446, 443, 432, 369, 149, 141, 123, 168, 279, 413, 434, 433, 406, 411, 448, 362, 402, 400, 358, 355, 271, 297, 36, 34, 38, 35, 62, 65, 77, 70, 72, 67, 68, 66, 69, 80, 82, 154, 214, 235, 275, 266, 309, 329, 311, 295, 257, 204, 231, 236, 249, 261, 220, 219, 194, 199, 192, 142, 122, 124, 105, 100, 96, 89, 88, 126, 171, 327, 416, 453, 449, 472, 444, 389, 391, 398, 30, 22, 384, 396, 395, 377, 470, 467, 447, 364, 289, 291, 250, 335, 302, 353, 375, 452, 412, 373, 359, 388, 380, 392, 436, 330, 323, 274, 301, 372, 378, 360, 343, 354, 351, 298, 212, 163, 137, 146, 114, 109, 136, 151, 175, 316, 408, 427, 484, 481, 474, 473, 480, 259, 299, 241, 125, 121, 86, 73, 79, 11, 9, 7, 18, 85, 115, 116, 106, 98, 76, 95, 84, 58, 14, 20, 276, 376, 325, 324, 265, 223, 215, 159, 155, 152, 186, 202, 198, 288, 303, 278, 272, 240, 243, 232, 281, 290, 260, 283, 294, 282, 328, 352, 385, 407, 405, 482, 450, 350, 346, 334, 491, 476, 445, 399, 267, 254, 209, 234, 174, 172, 97, 87, 90, 91, 92, 93, 103, 182, 176, 177, 156, 150, 167, 157, 164, 203, 187, 190, 195, 251, 218, 237, 244, 247, 262, 263, 258, 245, 211, 145, 119, 112, 75, 74, 78, 81, 71, 19, 60, 13, 31, 27, 23, 21, 41, 52, 12, 63, 135, 117, 191, 201, 205, 193, 46, 43, 44, 169, 170, 189, 180, 224, 134, 130, 101, 104, 99, 94, 111, 144, 53, 54, 55, 57, 64, 29, 26, 28, 16, 15, 17, 83, 61, 113, 110, 102, 108, 129, 165, 222, 210, 230, 217, 381, 24, 466, 465, 461, 390, 344, 341, 317, 332, 345, 404, 386, 140, 107, 118, 133, 132, 143, 166, 181, 207, 206, 227, 270, 320, 326, 336, 459, 468, 469, 471, 458, 487, 238, 287, 269, 307, 319, 213, 225, 315, 331, 418, 454, 440, 483, 394, 415, 382, 349, 32, 33, 50, 49, 45, 148, 131, 138, 127, 59, 56, 160, 188, 184, 264, 253, 306, 371, 420, 486, 475, 479, 429, 455, 485, 488, 425, 383, 387, 374, 356, 438, 426, 489, 478, 310, 339, 337, 370, 457, 464, 463, 422, 25, 421, 410, 397]

QUADRATIC
----------------------------------------------------------------------
Run method execution time:196978 ms
Path weight: 124744.84694047073
Path:
[433, 320, 207, 161, 158, 131, 115, 73, 82, 68, 65, 62, 138, 148, 128, 144, 166, 316, 376, 438, 451, 416, 236, 204, 198, 202, 210, 205, 463, 464, 462, 465, 388, 358, 372, 331, 374, 290, 243, 233, 217, 107, 111, 89, 88, 87, 142, 334, 361, 371, 394, 328, 37, 35, 23, 30, 25, 300, 209, 47, 49, 42, 45, 172, 151, 159, 256, 257, 311, 355, 362, 350, 338, 213, 150, 164, 177, 225, 238, 269, 385, 445, 458, 447, 439, 393, 489, 485, 452, 454, 425, 440, 446, 431, 395, 392, 317, 272, 221, 64, 85, 84, 78, 95, 81, 19, 14, 55, 235, 351, 340, 368, 410, 369, 342, 380, 411, 277, 270, 140, 108, 92, 76, 79, 69, 18, 8, 7, 83, 112, 99, 100, 117, 167, 247, 255, 241, 298, 322, 349, 208, 229, 170, 175, 188, 193, 276, 304, 384, 460, 442, 444, 412, 414, 314, 273, 360, 335, 379, 469, 457, 422, 26, 31, 22, 21, 239, 118, 121, 67, 66, 17, 54, 127, 162, 271, 357, 389, 367, 324, 348, 333, 325, 261, 262, 220, 206, 249, 302, 246, 197, 223, 224, 215, 216, 232, 274, 306, 347, 365, 487, 484, 453, 403, 366, 354, 386, 455, 477, 483, 400, 299, 318, 330, 323, 339, 429, 488, 402, 288, 244, 147, 133, 110, 101, 119, 46, 41, 44, 48, 6, 5, 43, 296, 329, 332, 313, 321, 278, 326, 370, 275, 173, 155, 124, 77, 70, 72, 71, 80, 180, 230, 222, 283, 294, 250, 194, 186, 183, 149, 132, 137, 143, 139, 237, 280, 279, 282, 245, 337, 399, 405, 415, 378, 383, 404, 427, 301, 295, 312, 252, 251, 346, 353, 409, 319, 482, 472, 480, 476, 420, 441, 281, 308, 356, 291, 292, 437, 450, 435, 466, 467, 468, 470, 471, 364, 303, 181, 53, 15, 16, 12, 57, 59, 63, 146, 201, 242, 408, 424, 418, 419, 387, 310, 141, 126, 114, 113, 264, 253, 284, 248, 401, 406, 413, 359, 363, 344, 297, 268, 29, 34, 50, 4, 9, 10, 11, 20, 234, 267, 254, 390, 423, 443, 434, 449, 436, 473, 474, 478, 479, 481, 459, 461, 391, 38, 39, 36, 381, 397, 336, 377, 407, 448, 382, 259, 134, 130, 136, 169, 40, 33, 32, 265, 200, 145, 120, 106, 74, 75, 93, 90, 103, 123, 129, 163, 171, 168, 211, 212, 226, 227, 307, 258, 305, 345, 309, 289, 266, 228, 196, 178, 179, 165, 185, 214, 240, 293, 190, 157, 102, 91, 97, 86, 60, 58, 135, 94, 104, 109, 51, 2, 1, 3, 0, 27, 28, 421, 430, 341, 456, 398, 24, 428, 396, 432, 417, 315, 286, 192, 199, 263, 231, 219, 375, 492, 491, 490, 475, 426, 486, 327, 287, 343, 285, 184, 153, 154, 160, 189, 174, 13, 52, 56, 61, 125, 105, 98, 96, 116, 122, 152, 156, 182, 195, 176, 187, 191, 203, 218, 260, 373, 352, 433]

LOGARITHMIC
----------------------------------------------------------------------
Run method execution time:197553 ms
Path weight: 124266.45166784435
Path:
[435, 208, 61, 17, 18, 16, 96, 100, 111, 101, 126, 141, 257, 247, 251, 292, 387, 404, 307, 236, 274, 238, 261, 357, 332, 359, 317, 337, 288, 326, 258, 256, 243, 161, 122, 119, 118, 112, 104, 94, 91, 92, 90, 99, 97, 77, 58, 46, 43, 160, 158, 153, 146, 149, 216, 226, 245, 250, 213, 225, 291, 342, 356, 414, 451, 439, 440, 339, 419, 452, 457, 456, 26, 27, 31, 23, 32, 28, 423, 470, 468, 443, 254, 185, 151, 121, 125, 105, 87, 75, 95, 74, 78, 123, 182, 195, 11, 5, 51, 42, 44, 300, 348, 341, 369, 461, 463, 464, 462, 465, 438, 480, 474, 473, 455, 402, 418, 400, 401, 417, 469, 466, 433, 447, 436, 330, 252, 262, 199, 142, 167, 130, 134, 136, 169, 175, 214, 210, 204, 202, 207, 211, 351, 442, 391, 30, 22, 4, 6, 10, 34, 36, 21, 265, 268, 297, 275, 344, 333, 240, 233, 157, 164, 137, 116, 81, 71, 72, 85, 64, 229, 296, 349, 405, 403, 416, 411, 408, 380, 376, 290, 328, 388, 458, 471, 415, 449, 450, 482, 444, 446, 487, 361, 490, 491, 383, 282, 324, 277, 178, 184, 165, 86, 84, 115, 154, 148, 138, 73, 70, 79, 80, 76, 98, 133, 314, 454, 488, 429, 393, 346, 366, 413, 310, 299, 253, 263, 249, 294, 295, 198, 187, 150, 139, 132, 114, 109, 103, 102, 110, 129, 230, 217, 381, 390, 397, 53, 14, 66, 69, 82, 83, 62, 48, 35, 410, 430, 431, 382, 373, 227, 222, 145, 60, 15, 13, 12, 50, 38, 33, 20, 224, 239, 325, 364, 406, 312, 293, 174, 173, 170, 180, 172, 147, 144, 155, 201, 228, 305, 395, 399, 407, 389, 336, 241, 281, 343, 385, 432, 460, 448, 409, 479, 484, 486, 481, 492, 478, 483, 427, 489, 316, 276, 304, 422, 398, 49, 52, 56, 55, 59, 127, 186, 191, 220, 212, 345, 289, 260, 269, 219, 206, 255, 242, 183, 171, 205, 271, 421, 25, 384, 234, 189, 159, 131, 106, 107, 113, 117, 108, 140, 143, 181, 163, 156, 177, 194, 192, 176, 168, 166, 120, 135, 128, 162, 267, 322, 266, 152, 93, 89, 88, 124, 270, 372, 365, 420, 378, 319, 354, 232, 190, 203, 218, 320, 352, 392, 424, 363, 370, 428, 24, 29, 39, 0, 2, 47, 41, 45, 197, 259, 335, 350, 287, 360, 426, 386, 321, 308, 264, 306, 315, 347, 301, 327, 331, 371, 379, 375, 318, 273, 286, 285, 311, 355, 377, 334, 358, 476, 477, 485, 394, 475, 467, 459, 329, 298, 309, 303, 279, 237, 196, 193, 179, 215, 200, 54, 19, 67, 68, 65, 63, 57, 209, 188, 221, 235, 272, 244, 246, 280, 283, 313, 278, 472, 434, 338, 353, 302, 231, 223, 40, 7, 9, 8, 3, 1, 37, 396, 368, 340, 367, 445, 412, 437, 425, 323, 441, 453, 362, 248, 284, 374, 435]

ali535
STANDART
----------------------------------------------------------------------
Run method execution time:302389 ms
Path weight: 888486.0
Path:
[165, 373, 243, 104, 200, 507, 282, 315, 301, 380, 516, 451, 472, 92, 53, 465, 248, 214, 464, 27, 508, 462, 330, 227, 498, 220, 369, 346, 439, 377, 94, 87, 117, 88, 342, 371, 272, 90, 233, 268, 255, 308, 6, 309, 475, 311, 164, 385, 518, 522, 109, 502, 72, 406, 76, 293, 488, 416, 435, 163, 512, 91, 33, 335, 417, 203, 45, 235, 7, 185, 247, 393, 445, 446, 42, 527, 520, 138, 177, 140, 340, 36, 65, 364, 119, 224, 96, 194, 471, 474, 281, 367, 263, 402, 181, 510, 430, 89, 159, 201, 526, 48, 239, 283, 110, 265, 153, 412, 204, 209, 54, 383, 365, 452, 461, 61, 492, 208, 411, 358, 97, 114, 408, 230, 186, 477, 250, 442, 251, 321, 359, 244, 180, 25, 66, 355, 351, 322, 158, 440, 38, 2, 39, 213, 115, 139, 368, 294, 295, 482, 253, 55, 324, 237, 131, 95, 179, 429, 273, 312, 222, 58, 22, 155, 441, 348, 350, 290, 427, 266, 129, 280, 8, 404, 184, 277, 30, 260, 278, 126, 118, 410, 409, 228, 487, 425, 44, 455, 349, 484, 275, 331, 276, 361, 274, 270, 343, 257, 170, 84, 217, 102, 176, 470, 262, 215, 296, 271, 413, 399, 19, 374, 494, 195, 5, 269, 98, 64, 264, 226, 495, 229, 456, 360, 403, 70, 414, 189, 60, 503, 28, 530, 458, 384, 353, 400, 444, 50, 528, 454, 93, 1, 370, 198, 74, 521, 47, 397, 43, 501, 212, 81, 423, 210, 382, 4, 68, 407, 169, 125, 514, 62, 329, 362, 172, 338, 122, 327, 485, 156, 187, 99, 193, 18, 79, 378, 317, 175, 231, 434, 240, 259, 379, 422, 167, 534, 141, 149, 241, 420, 41, 21, 449, 478, 532, 336, 20, 225, 69, 80, 174, 258, 376, 111, 13, 205, 171, 219, 0, 486, 339, 75, 344, 188, 292, 112, 493, 504, 421, 297, 254, 432, 256, 424, 524, 183, 130, 166, 328, 490, 178, 106, 457, 318, 326, 480, 491, 202, 128, 323, 15, 100, 388, 316, 489, 469, 261, 473, 453, 86, 289, 150, 450, 221, 246, 391, 162, 236, 123, 437, 238, 105, 447, 426, 143, 124, 395, 511, 448, 32, 9, 51, 35, 529, 197, 354, 304, 17, 463, 509, 103, 73, 3, 284, 483, 77, 286, 147, 333, 59, 313, 460, 49, 29, 211, 476, 497, 337, 285, 82, 46, 206, 14, 298, 133, 398, 120, 37, 136, 108, 392, 375, 242, 405, 24, 300, 418, 320, 223, 499, 116, 517, 267, 234, 57, 533, 436, 279, 173, 515, 525, 433, 523, 438, 443, 352, 218, 245, 303, 431, 56, 23, 144, 26, 394, 357, 31, 288, 107, 305, 307, 466, 505, 127, 132, 191, 459, 334, 146, 372, 347, 291, 306, 10, 419, 40, 152, 252, 101, 216, 513, 319, 161, 192, 506, 67, 396, 468, 500, 415, 190, 207, 363, 519, 137, 151, 332, 366, 302, 381, 148, 356, 85, 428, 12, 401, 16, 387, 496, 481, 63, 467, 78, 11, 134, 325, 160, 389, 83, 142, 310, 287, 196, 182, 299, 145, 531, 386, 341, 168, 71, 345, 135, 390, 479, 154, 314, 52, 34, 157, 232, 249, 199, 121, 113, 165]

QUADRATIC
----------------------------------------------------------------------
Run method execution time:306716 ms
Path weight: 843030.0
Path:
[199, 477, 467, 38, 431, 458, 84, 517, 239, 518, 428, 178, 261, 316, 345, 99, 284, 379, 156, 259, 73, 471, 526, 521, 207, 304, 87, 146, 478, 49, 230, 41, 123, 389, 251, 406, 152, 419, 26, 39, 21, 101, 23, 144, 347, 35, 444, 529, 94, 204, 465, 93, 394, 513, 489, 153, 504, 90, 171, 213, 357, 215, 330, 262, 528, 15, 396, 404, 509, 473, 225, 20, 486, 219, 154, 157, 249, 437, 442, 236, 250, 420, 186, 63, 175, 291, 114, 190, 506, 334, 336, 126, 166, 532, 412, 493, 64, 313, 344, 494, 69, 374, 279, 173, 328, 490, 191, 497, 53, 161, 264, 252, 158, 290, 196, 104, 203, 303, 377, 435, 359, 439, 488, 244, 218, 102, 321, 534, 109, 141, 505, 372, 453, 358, 449, 231, 454, 511, 468, 400, 492, 508, 459, 318, 159, 337, 139, 233, 368, 106, 211, 174, 491, 448, 227, 322, 462, 498, 352, 246, 391, 416, 369, 346, 502, 72, 293, 2, 361, 274, 188, 67, 29, 208, 415, 500, 184, 30, 440, 78, 56, 50, 300, 13, 499, 332, 151, 222, 426, 210, 445, 501, 212, 273, 120, 133, 298, 254, 392, 12, 323, 418, 115, 331, 24, 165, 209, 89, 181, 484, 103, 474, 281, 349, 441, 60, 185, 375, 37, 432, 194, 8, 514, 19, 85, 42, 311, 340, 247, 475, 309, 423, 43, 398, 81, 312, 255, 221, 466, 107, 79, 217, 183, 1, 283, 365, 289, 276, 100, 326, 121, 294, 275, 402, 455, 429, 95, 131, 147, 386, 422, 235, 142, 481, 390, 110, 66, 195, 407, 399, 111, 376, 169, 353, 434, 51, 485, 378, 288, 245, 167, 205, 74, 354, 98, 436, 271, 272, 113, 371, 452, 258, 92, 168, 71, 59, 16, 522, 527, 456, 315, 301, 362, 226, 180, 220, 176, 241, 149, 83, 40, 127, 408, 97, 214, 464, 88, 202, 384, 342, 86, 130, 476, 265, 278, 248, 82, 170, 201, 356, 48, 510, 530, 367, 3, 253, 427, 237, 333, 187, 129, 295, 451, 472, 516, 96, 267, 234, 520, 364, 143, 308, 6, 172, 382, 523, 338, 134, 325, 160, 216, 469, 31, 319, 461, 61, 62, 380, 138, 140, 65, 224, 155, 7, 483, 531, 145, 299, 310, 306, 34, 411, 395, 80, 46, 463, 401, 503, 28, 447, 47, 512, 385, 381, 177, 223, 148, 366, 421, 105, 44, 487, 228, 507, 403, 189, 118, 263, 296, 285, 128, 430, 339, 162, 122, 18, 446, 393, 397, 414, 373, 388, 135, 260, 32, 9, 10, 45, 232, 52, 117, 496, 479, 132, 460, 480, 355, 343, 320, 257, 68, 438, 443, 256, 268, 424, 4, 58, 137, 229, 36, 302, 179, 335, 417, 410, 350, 182, 238, 243, 341, 287, 193, 55, 70, 150, 329, 524, 413, 192, 75, 292, 5, 383, 57, 163, 495, 450, 360, 22, 124, 519, 370, 198, 197, 351, 242, 515, 433, 525, 25, 54, 363, 482, 348, 266, 280, 240, 314, 277, 0, 387, 17, 269, 533, 457, 270, 27, 112, 206, 14, 125, 297, 282, 33, 409, 200, 425, 91, 136, 108, 164, 119, 116, 405, 470, 76, 317, 327, 286, 324, 307, 305, 11, 77, 199]

LOGARITHMIC
----------------------------------------------------------------------
Run method execution time:308407 ms
Path weight: 835771.0
Path:
[197, 461, 357, 470, 241, 167, 9, 156, 379, 7, 154, 190, 87, 216, 144, 481, 21, 252, 40, 327, 485, 251, 72, 406, 215, 458, 31, 351, 248, 330, 462, 322, 262, 29, 184, 188, 75, 208, 300, 292, 472, 105, 185, 480, 2, 83, 236, 288, 416, 424, 255, 143, 116, 163, 42, 512, 279, 191, 492, 94, 412, 46, 206, 473, 80, 271, 233, 452, 209, 173, 270, 24, 323, 504, 202, 69, 19, 295, 103, 401, 402, 16, 275, 494, 68, 450, 438, 433, 520, 36, 223, 119, 456, 164, 124, 137, 226, 25, 439, 435, 359, 321, 160, 442, 502, 41, 493, 337, 272, 82, 110, 457, 204, 464, 278, 508, 505, 230, 50, 130, 61, 205, 227, 260, 431, 162, 391, 246, 22, 315, 256, 268, 382, 150, 364, 96, 519, 516, 436, 89, 54, 331, 88, 128, 153, 344, 342, 313, 112, 115, 90, 98, 408, 51, 203, 341, 299, 145, 531, 250, 534, 220, 498, 352, 524, 312, 247, 432, 392, 421, 73, 3, 348, 219, 486, 430, 363, 169, 316, 427, 287, 196, 193, 11, 307, 107, 305, 466, 151, 229, 518, 85, 48, 267, 356, 451, 12, 20, 225, 14, 263, 207, 345, 99, 55, 129, 474, 471, 8, 510, 376, 269, 165, 111, 368, 211, 491, 121, 314, 125, 441, 91, 507, 425, 409, 487, 228, 393, 298, 37, 148, 426, 4, 172, 332, 65, 499, 138, 381, 170, 201, 465, 26, 175, 453, 114, 189, 118, 414, 410, 335, 179, 95, 18, 338, 134, 378, 109, 78, 35, 213, 285, 526, 239, 177, 385, 517, 139, 533, 27, 343, 195, 405, 222, 6, 210, 475, 340, 311, 366, 302, 234, 380, 224, 354, 192, 400, 476, 93, 132, 0, 489, 500, 529, 92, 265, 353, 178, 242, 329, 58, 362, 301, 360, 495, 133, 108, 483, 253, 350, 290, 237, 286, 147, 324, 333, 131, 77, 440, 38, 142, 59, 187, 71, 168, 32, 232, 34, 23, 186, 303, 293, 141, 123, 477, 84, 320, 383, 257, 296, 106, 171, 161, 394, 97, 389, 325, 122, 79, 221, 443, 525, 355, 126, 390, 434, 182, 104, 243, 157, 52, 469, 478, 454, 146, 135, 39, 231, 56, 30, 101, 513, 74, 289, 511, 318, 532, 407, 174, 399, 117, 479, 259, 266, 373, 367, 415, 496, 274, 336, 113, 384, 261, 530, 361, 100, 15, 449, 444, 64, 258, 459, 264, 1, 53, 319, 86, 497, 411, 166, 67, 468, 374, 181, 514, 484, 509, 66, 328, 396, 528, 304, 334, 214, 365, 413, 159, 395, 17, 326, 306, 235, 310, 238, 317, 76, 149, 347, 372, 277, 199, 482, 240, 284, 280, 419, 158, 152, 155, 70, 297, 33, 429, 417, 282, 273, 212, 120, 309, 140, 527, 522, 62, 521, 428, 463, 291, 63, 176, 377, 244, 488, 437, 386, 200, 44, 349, 281, 194, 404, 388, 339, 460, 49, 448, 506, 183, 198, 370, 13, 276, 358, 127, 217, 218, 102, 346, 369, 180, 523, 515, 490, 249, 10, 422, 45, 245, 420, 467, 387, 294, 28, 81, 501, 445, 308, 423, 446, 398, 455, 403, 397, 60, 503, 136, 43, 254, 375, 447, 47, 57, 283, 371, 418, 5, 197]

d657
STANDART
----------------------------------------------------------------------
Run method execution time:439461 ms
Path weight: 233711.70657584487
Path:
[515, 501, 615, 620, 618, 381, 360, 392, 379, 352, 328, 315, 314, 243, 225, 236, 218, 180, 198, 209, 206, 292, 254, 215, 294, 263, 391, 409, 399, 197, 115, 185, 195, 321, 359, 610, 655, 572, 636, 637, 538, 540, 510, 100, 139, 157, 190, 235, 220, 298, 269, 253, 262, 345, 361, 340, 322, 372, 439, 398, 232, 179, 166, 143, 505, 109, 146, 228, 242, 184, 451, 459, 133, 183, 229, 601, 596, 580, 255, 224, 260, 389, 436, 364, 327, 256, 282, 265, 258, 600, 279, 569, 560, 548, 529, 516, 493, 504, 448, 453, 460, 51, 62, 158, 350, 407, 434, 405, 423, 414, 415, 370, 369, 233, 568, 565, 173, 189, 388, 420, 438, 416, 323, 421, 422, 437, 196, 186, 240, 241, 153, 136, 570, 566, 556, 67, 107, 149, 154, 335, 400, 390, 371, 317, 307, 199, 110, 351, 363, 339, 424, 403, 410, 378, 401, 325, 165, 171, 169, 170, 191, 234, 287, 293, 119, 85, 72, 59, 120, 318, 305, 355, 619, 606, 257, 632, 638, 649, 647, 646, 648, 552, 546, 207, 341, 347, 271, 217, 29, 37, 112, 106, 81, 26, 57, 69, 130, 129, 52, 25, 440, 16, 20, 12, 2, 10, 60, 33, 68, 63, 102, 44, 91, 118, 175, 222, 216, 296, 330, 354, 336, 338, 249, 167, 456, 473, 465, 446, 18, 98, 36, 77, 156, 237, 348, 334, 309, 299, 221, 208, 151, 188, 145, 549, 564, 558, 547, 554, 542, 539, 479, 464, 71, 148, 147, 111, 522, 642, 631, 633, 640, 541, 524, 475, 467, 178, 163, 50, 28, 48, 508, 567, 563, 550, 553, 544, 635, 629, 630, 537, 53, 74, 84, 97, 86, 65, 83, 76, 486, 192, 126, 502, 135, 498, 507, 152, 160, 205, 511, 174, 144, 105, 121, 277, 283, 201, 200, 592, 273, 297, 278, 343, 313, 267, 316, 383, 329, 374, 358, 300, 261, 204, 134, 506, 503, 485, 490, 480, 442, 19, 24, 444, 13, 462, 468, 483, 561, 562, 555, 543, 127, 99, 35, 7, 3, 54, 181, 164, 142, 238, 210, 172, 113, 66, 75, 482, 476, 521, 526, 525, 484, 123, 108, 61, 454, 458, 31, 441, 55, 21, 447, 23, 45, 187, 137, 230, 346, 248, 251, 219, 161, 80, 38, 469, 122, 239, 289, 303, 324, 226, 177, 46, 450, 533, 535, 534, 652, 654, 626, 582, 586, 274, 286, 332, 353, 344, 380, 291, 223, 276, 270, 382, 417, 393, 616, 356, 605, 577, 202, 285, 227, 252, 268, 311, 304, 333, 376, 412, 396, 275, 168, 138, 162, 117, 141, 231, 264, 290, 288, 284, 250, 259, 357, 395, 365, 387, 349, 247, 150, 96, 527, 523, 530, 500, 495, 519, 518, 517, 551, 627, 588, 609, 614, 621, 593, 599, 612, 625, 623, 624, 608, 607, 193, 496, 125, 499, 472, 487, 474, 463, 1, 8, 32, 78, 155, 140, 132, 128, 93, 101, 40, 466, 449, 56, 470, 58, 43, 42, 452, 211, 584, 583, 575, 656, 571, 272, 402, 413, 375, 367, 594, 597, 579, 587, 602, 603, 590, 591, 295, 319, 306, 598, 266, 581, 578, 182, 194, 203, 244, 368, 384, 406, 366, 443, 17, 445, 30, 27, 34, 92, 104, 82, 124, 481, 478, 513, 528, 559, 89, 176, 373, 411, 428, 418, 425, 432, 397, 386, 312, 326, 342, 404, 377, 431, 433, 394, 429, 419, 435, 430, 308, 214, 94, 88, 509, 159, 557, 650, 651, 628, 653, 585, 576, 574, 589, 613, 426, 337, 427, 617, 408, 622, 245, 212, 281, 301, 362, 385, 320, 310, 22, 14, 11, 5, 131, 116, 73, 114, 90, 70, 461, 455, 520, 497, 457, 471, 213, 246, 280, 331, 302, 595, 611, 604, 573, 641, 634, 644, 645, 643, 639, 545, 494, 488, 489, 95, 87, 492, 512, 532, 531, 536, 477, 103, 79, 64, 49, 41, 4, 9, 0, 15, 6, 39, 47, 491, 514, 515]

QUADRATIC
----------------------------------------------------------------------
Run method execution time:457225 ms
Path weight: 231965.53212045683
Path:
[580, 511, 509, 500, 507, 508, 556, 551, 634, 641, 638, 642, 640, 639, 523, 516, 480, 278, 314, 267, 613, 622, 619, 612, 285, 228, 93, 101, 74, 68, 73, 59, 52, 24, 21, 8, 10, 9, 63, 129, 132, 128, 49, 66, 61, 81, 71, 80, 154, 149, 232, 325, 372, 420, 398, 370, 369, 309, 291, 211, 201, 570, 536, 534, 635, 563, 337, 428, 375, 360, 379, 429, 355, 257, 246, 585, 620, 353, 367, 392, 416, 409, 424, 419, 328, 126, 492, 650, 629, 564, 562, 573, 593, 597, 601, 617, 608, 600, 382, 417, 387, 346, 307, 238, 163, 138, 140, 185, 178, 97, 169, 177, 255, 302, 281, 266, 194, 528, 494, 95, 83, 144, 300, 405, 365, 376, 624, 616, 426, 175, 90, 34, 38, 47, 82, 483, 67, 70, 86, 112, 51, 143, 207, 147, 148, 171, 217, 206, 230, 299, 288, 320, 414, 401, 410, 327, 378, 403, 402, 385, 425, 406, 396, 363, 362, 222, 125, 513, 533, 544, 548, 467, 27, 60, 5, 130, 210, 231, 131, 2, 0, 1, 498, 133, 173, 202, 200, 136, 515, 541, 568, 579, 575, 582, 581, 589, 336, 272, 167, 446, 445, 35, 7, 12, 48, 464, 30, 448, 453, 525, 636, 644, 646, 648, 586, 578, 574, 530, 482, 88, 472, 471, 465, 451, 62, 75, 263, 262, 261, 215, 395, 377, 423, 431, 413, 304, 208, 226, 242, 224, 268, 127, 518, 537, 540, 632, 633, 558, 549, 555, 506, 452, 449, 20, 15, 14, 19, 37, 455, 473, 459, 182, 576, 587, 588, 602, 592, 332, 338, 158, 105, 463, 58, 72, 65, 55, 77, 250, 295, 330, 319, 216, 249, 243, 192, 223, 313, 352, 329, 344, 380, 418, 356, 331, 203, 189, 233, 219, 275, 347, 371, 437, 430, 435, 412, 433, 339, 134, 490, 56, 122, 108, 87, 89, 470, 468, 487, 517, 460, 475, 457, 488, 584, 577, 569, 561, 552, 628, 630, 631, 637, 647, 649, 519, 476, 478, 145, 176, 252, 294, 422, 436, 317, 113, 69, 42, 46, 50, 40, 18, 29, 53, 39, 36, 84, 115, 85, 103, 497, 505, 567, 212, 205, 245, 301, 343, 265, 545, 546, 547, 565, 651, 652, 653, 656, 655, 654, 560, 183, 286, 256, 364, 361, 399, 289, 334, 287, 209, 271, 322, 269, 237, 197, 165, 187, 172, 98, 102, 139, 496, 501, 491, 43, 466, 100, 477, 520, 553, 557, 566, 554, 512, 504, 244, 277, 280, 408, 618, 615, 381, 411, 384, 394, 318, 312, 357, 310, 241, 442, 458, 454, 495, 643, 645, 627, 571, 550, 485, 94, 444, 16, 13, 440, 469, 462, 456, 521, 484, 486, 479, 499, 213, 610, 595, 626, 572, 559, 510, 193, 188, 110, 166, 204, 290, 341, 345, 390, 438, 335, 358, 368, 373, 386, 311, 225, 198, 220, 196, 195, 91, 4, 119, 104, 106, 76, 493, 481, 531, 529, 524, 522, 514, 489, 474, 57, 190, 303, 391, 321, 348, 308, 326, 305, 227, 254, 218, 181, 142, 79, 117, 33, 3, 11, 22, 23, 526, 527, 461, 450, 443, 32, 141, 164, 234, 156, 180, 179, 153, 121, 114, 28, 17, 54, 64, 116, 162, 239, 240, 264, 199, 186, 99, 120, 221, 253, 298, 235, 78, 6, 155, 137, 168, 161, 25, 447, 31, 441, 26, 41, 45, 44, 118, 260, 276, 270, 247, 259, 333, 374, 625, 611, 623, 621, 614, 583, 591, 283, 284, 359, 366, 434, 407, 351, 432, 439, 421, 389, 349, 251, 191, 157, 92, 111, 96, 107, 123, 152, 174, 160, 159, 350, 397, 400, 388, 214, 151, 146, 109, 135, 170, 323, 415, 293, 248, 282, 258, 598, 606, 297, 279, 229, 542, 539, 538, 535, 532, 543, 503, 502, 124, 150, 184, 236, 292, 342, 324, 340, 404, 393, 383, 296, 603, 609, 604, 599, 596, 274, 315, 316, 354, 273, 306, 605, 590, 594, 427, 607, 580]

LOGARITHMIC
----------------------------------------------------------------------
Run method execution time:456710 ms
Path weight: 237216.71067982807
Path:
[321, 161, 72, 65, 50, 66, 122, 80, 247, 308, 232, 225, 100, 51, 470, 456, 467, 465, 442, 462, 464, 468, 522, 521, 524, 494, 81, 166, 254, 248, 214, 270, 353, 382, 351, 433, 426, 427, 418, 362, 329, 367, 381, 297, 273, 301, 338, 368, 350, 317, 345, 289, 240, 207, 152, 109, 557, 555, 559, 303, 264, 261, 163, 156, 172, 234, 340, 404, 420, 438, 416, 390, 341, 347, 263, 288, 327, 223, 249, 277, 392, 434, 620, 618, 625, 354, 343, 408, 651, 650, 641, 533, 484, 481, 67, 95, 479, 629, 544, 558, 560, 545, 548, 547, 567, 274, 283, 358, 378, 388, 397, 325, 171, 139, 169, 130, 129, 137, 142, 371, 389, 400, 405, 386, 373, 220, 181, 78, 3, 2, 12, 6, 114, 118, 275, 370, 403, 393, 605, 344, 318, 293, 298, 178, 102, 93, 22, 445, 532, 541, 566, 615, 616, 622, 612, 572, 647, 643, 644, 635, 534, 525, 488, 485, 174, 159, 189, 580, 595, 602, 587, 585, 574, 654, 646, 645, 637, 639, 638, 337, 428, 429, 413, 305, 291, 352, 359, 330, 295, 356, 360, 355, 374, 419, 396, 410, 424, 218, 195, 164, 168, 259, 313, 314, 375, 610, 601, 331, 379, 333, 387, 430, 437, 372, 322, 307, 162, 132, 180, 199, 197, 312, 336, 306, 279, 201, 133, 136, 107, 42, 21, 17, 20, 5, 141, 252, 316, 319, 315, 328, 268, 294, 310, 326, 320, 311, 192, 76, 88, 475, 520, 551, 584, 583, 577, 582, 578, 589, 510, 504, 71, 64, 33, 77, 98, 97, 204, 215, 236, 364, 361, 237, 198, 85, 29, 30, 466, 43, 304, 339, 332, 282, 285, 281, 302, 597, 575, 599, 609, 593, 603, 604, 614, 588, 627, 649, 511, 233, 143, 184, 219, 600, 606, 266, 257, 246, 573, 570, 265, 406, 425, 395, 376, 380, 278, 258, 296, 229, 213, 200, 173, 202, 591, 579, 562, 563, 550, 543, 554, 553, 528, 507, 183, 212, 222, 245, 267, 256, 224, 226, 188, 62, 472, 121, 104, 83, 175, 498, 503, 493, 499, 500, 108, 127, 501, 205, 145, 120, 119, 116, 84, 52, 59, 86, 92, 287, 299, 290, 262, 155, 101, 60, 476, 556, 653, 571, 590, 569, 552, 634, 648, 652, 626, 568, 508, 89, 243, 284, 357, 369, 148, 147, 31, 37, 469, 23, 440, 447, 444, 19, 228, 242, 276, 300, 348, 415, 421, 346, 323, 217, 191, 185, 0, 1, 49, 32, 44, 28, 54, 123, 126, 144, 515, 526, 531, 529, 535, 523, 487, 492, 506, 496, 96, 94, 82, 90, 57, 13, 10, 9, 16, 448, 454, 461, 458, 474, 527, 486, 206, 253, 239, 210, 128, 105, 478, 519, 539, 540, 536, 502, 87, 110, 56, 455, 451, 516, 596, 594, 586, 244, 260, 292, 250, 179, 58, 75, 477, 517, 513, 518, 135, 411, 417, 385, 255, 146, 158, 103, 48, 497, 489, 640, 642, 633, 514, 176, 208, 221, 309, 365, 402, 401, 414, 431, 349, 342, 439, 409, 334, 436, 286, 632, 630, 631, 636, 538, 537, 530, 512, 509, 203, 216, 194, 564, 565, 628, 549, 542, 546, 182, 160, 495, 490, 480, 491, 124, 151, 106, 47, 25, 11, 35, 4, 8, 39, 41, 53, 74, 196, 187, 165, 150, 167, 211, 576, 611, 581, 592, 280, 383, 412, 422, 398, 391, 435, 432, 423, 394, 407, 363, 272, 227, 251, 209, 186, 117, 15, 463, 34, 561, 655, 656, 621, 623, 613, 617, 619, 598, 608, 624, 607, 193, 125, 505, 134, 482, 483, 471, 459, 460, 26, 115, 140, 113, 70, 111, 153, 27, 443, 441, 40, 14, 24, 79, 45, 91, 138, 131, 190, 366, 384, 377, 241, 177, 68, 73, 63, 36, 55, 449, 473, 452, 46, 112, 99, 69, 157, 230, 235, 231, 238, 271, 269, 7, 18, 453, 450, 446, 38, 457, 61, 154, 170, 149, 324, 335, 399, 321]

