0,34227.73030105483
160001,31689.44635649111
320002,32472.919192661768
480003,30613.152640628723
640004,30920.19936599416
800005,32211.95112401504
960006,31360.018163157667
1120007,31081.104691181343
1280008,31604.504228441165
1440009,29809.506113475567
1600010,29669.4328014119
1760011,29821.888349940353
1920012,30473.00666732081
2080013,29184.2182778742
2240014,31902.667153764185
2400015,30812.42015400336
2560016,30598.325109289894
2720017,29744.84614367393
2880018,30817.20744438722
3040019,29760.82052991089
3200020,30472.30837540239
3360021,29769.32772715814
3520022,29911.35675185126
3680023,31099.445582673627
3840024,28804.79022214169
4000025,29696.306648228583
4160026,32191.92985917036
4320027,31318.777635566214
4480028,31347.993234199712
4640029,32202.283526637133
4800030,31823.80329142486
4960031,28829.039543782383
5120032,31024.043007773336
5280033,29151.509604747338
5440034,31112.889854408673
5600035,31163.64995329485
5760036,30719.5390906372
5920037,30148.28108603812
6080038,32306.41663440441
6240039,30584.93169186152
6400040,31693.484313987145
6560041,29270.99073601072
6720042,29261.5410558769
6880043,29287.5812761616
7040044,30239.018766854475
7200045,30061.729745989687
7360046,30406.704947940336
7520047,29533.353374121223
7680048,30765.19875538424
7840049,30593.403488979515
8000050,30158.1145722137
8160051,30902.21926162167
8320052,31227.622180537746
8480053,31156.67283166455
8640054,28882.09431909318
8800055,30711.993922715184
8960056,29172.04473086553
9120057,30274.077497976778
9280058,30686.18913648306
9440059,30376.558877474155
9600060,30237.48065565195
9760061,31055.88547478656
9920062,29952.11381267808
10080063,28992.962532517144
10240064,28658.13649094262
10400065,29349.446943916926
10560066,29257.389557902578
10720067,30371.076288712917
10880068,30156.016803164803
11040069,31177.107595780686
11200070,32765.035553877853
11360071,31180.421407755377
11520072,29884.901439123692
11680073,29975.922497212854
11840074,30125.90785858023
12000075,29698.438134729604
12160076,32323.402049618948
12320077,30779.151744554074
12480078,30948.29543423381
12640079,29000.522197437927
12800080,31115.429539550812
12960081,30279.72602252672
13120082,28910.947718498905
13280083,29451.38899675554
13440084,31400.593025833165
13600085,29062.133476935218
13760086,29711.813352763864
13920087,31689.124979969336
14080088,31202.208271269024
14240089,31524.338361585236
14400090,30032.167971488096
14560091,30382.287228053774
14720092,29032.275770811735
14880093,29985.558158773867
15040094,30352.95433285671
15200095,30388.273810192353
15360096,29657.085721786832
15520097,30069.747931125945
15680098,30367.992967285878
15840099,30776.288829997633
16000100,31172.198621816864
16160101,29778.188111298332
16320102,30417.868243224868
16480103,29320.41186806082
16640104,29596.899532291973
16800105,30516.389839876287
16960106,28506.845597268533
17120107,30398.372795014697
17280108,29763.947037130838
17440109,29894.681341403215
17600110,31016.493721903833
17760111,29783.075188913495
17920112,29927.84521441484
18080113,29793.520105514453
18240114,30405.453569908983
18400115,31092.165102005056
18560116,30758.462915805827
18720117,29615.62679034232
18880118,30725.056498392154
19040119,29576.094195241436
19200120,31390.401011173133
19360121,30835.980019449416
19520122,30238.687389258972
19680123,29653.012237402876
19840124,30522.156643689377
20000125,29156.981683505288
20160126,29238.771324303805
20320127,30834.148355058936
20480128,29423.865074474506
20640129,29601.376998316166
20800130,31208.092479421546
20960131,31422.100636249914
21120132,28708.258535966022
21280133,31458.9864083945
21440134,29799.109535068168
21600135,30334.17832611839
21760136,30721.492760240068
21920137,28678.154793196765
22080138,31962.15424155548
22240139,31754.406503770104
22400140,30435.399964842487
22560141,30482.248004655612
22720142,30378.575432604077
22880143,29716.775703405874
23040144,29984.809132736864
23200145,30086.96368675113
23360146,30326.865284673302
23520147,29808.53009056615
23680148,29340.382191265988
23840149,30291.221797688275
24000150,30341.146469005103
24160151,31585.221843315867
24320152,30559.598538271843
24480153,30230.098272719464
24640154,30317.629651418043
24800155,30820.43032575335
24960156,30394.420359542084
25120157,30525.80705597742
25280158,31381.378836029588
25440159,29031.42490949965
25600160,29884.90429997655
25760161,29979.545372479664
25920162,28758.81432603035
26080163,28486.560604049293
26240164,29204.79321412257
26400165,28469.355268188512
26560166,29493.08669665277
26720167,29628.078167354022
26880168,28935.064793419257
27040169,30471.14921788214
27200170,30117.036873137717
27360171,30082.92245225758
27520172,29867.01961666972
27680173,29496.760282513478
27840174,29425.955328982523
28000175,31510.02649953309
28160176,29285.70015030568
28320177,31177.265118945088
28480178,29293.284307398655
28640179,30795.163434170634
28800180,30015.220730397916
28960181,30202.668425094314
29120182,31796.400180238586
29280183,30629.895680881098
29440184,30255.496945222916
29600185,32302.56184848206
29760186,29197.309968788926
29920187,28978.529595844004
30080188,30471.931899723655
30240189,31462.333422701384
30400190,30420.69046991814
30560191,30070.372668457792
30720192,28200.885733588875
30880193,29884.51010031772
31040194,29673.278127597023
31200195,30729.827854274718
31360196,29951.284409071937
31520197,29972.473676539386
31680198,28872.885347559863
31840199,29811.10650065967
32000200,30650.53811091864
32160201,29879.206761043104
32320202,30085.758247492737
32480203,28910.455213029632
32640204,30258.466552389273
32800205,28607.93093328743
32960206,29953.967123734234
33120207,28737.25476402692
33280208,29325.801661994647
33440209,27291.80247492117
33600210,30960.3436414915
33760211,29972.861406445852
33920212,29172.760973284032
34080213,30017.572742144843
34240214,30335.60841306263
34400215,27752.15325848263
34560216,28469.885450393656
34720217,30150.48343065153
34880218,28769.098291094648
35040219,29722.91149840185
35200220,30167.51883870419
35360221,30045.54614501547
35520222,28918.748263528192
35680223,29997.28084220382
35840224,29104.448639305923
36000225,30287.326488597264
36160226,29646.834429028488
36320227,28902.31456793281
36480228,27792.815624558738
36640229,29733.8738194157
36800230,28204.047250807293
36960231,29821.163026787923
37120232,29234.181656026234
37280233,27983.246825599443
37440234,28897.5032746573
37600235,28890.831041385278
37760236,29609.585610316513
37920237,31016.666613551766
38080238,31181.629407921024
38240239,28581.521481582855
38400240,30902.60624189812
38560241,28735.576442945814
38720242,29374.8010385539
38880243,29373.226528551517
39040244,31249.802560091655
39200245,29275.857824711453
39360246,30333.198521312675
39520247,28000.703051407305
39680248,31387.982959507965
39840249,28815.39521103807
40000250,29204.878177395873
40160251,30670.298249704592
40320252,31349.796812827666
40480253,30837.567086120478
40640254,30148.632831036935
40800255,27763.20879283778
40960256,29116.367911219135
41120257,29769.4681753195
41280258,29239.449181449083
41440259,28797.026900718345
41600260,30556.562905092393
41760261,31168.55753077005
41920262,29964.41837350748
42080263,27743.0215885048
42240264,29666.015209666642
42400265,29229.69300475575
42560266,29688.224202352616
42720267,29452.370192692575
42880268,28828.937531286312
43040269,30848.258713369305
43200270,29756.828031550154
43360271,28308.283902776984
43520272,29300.47362880551
43680273,30458.948349250015
43840274,28756.66826902037
44000275,28954.91342851594
44160276,30265.49976754065
44320277,30018.528029546054
44480278,29093.884556061723
44640279,29057.730278310213
44800280,29288.026554228243
44960281,28076.357076203218
45120282,29175.01582104672
45280283,31192.964501876042
45440284,29654.571297355727
45600285,30339.955180211422
45760286,30765.549602204756
45920287,31646.742473828188
46080288,29653.361193113233
46240289,29605.774469027256
46400290,27789.437362441346
46560291,28583.882753744947
46720292,28120.137705031004
46880293,29097.251539866757
47040294,29854.18005049306
47200295,29240.696967660835
47360296,31609.04706327776
47520297,28699.034879500712
47680298,29266.96925518159
47840299,28896.08100979573
48000300,30085.915551847345
48160301,29346.157781074395
48320302,29766.62949081057
48480303,29832.122572078446
48640304,28616.55565100475
48800305,29046.615451258604
48960306,31087.488884552437
49120307,29890.651299385027
49280308,29989.210256977778
49440309,29229.950914983187
49600310,27969.19046915726
49760311,27360.469202227985
49920312,29570.432334119298
50080313,27742.396912024447
50240314,29872.694107515956
50400315,28798.7718999243
50560316,30920.01551344503
50720317,28510.857432365083
50880318,28633.21113410873
51040319,30215.02642546165
51200320,27994.606356882778
51360321,28745.449667537985
51520322,27394.36213648805
51680323,27450.919531804127
51840324,28094.137295477798
52000325,28301.60191924859
52160326,29757.967717591968
52320327,29024.810288438966
52480328,28247.414545495703
52640329,30265.28216732715
52800330,29405.248995915805
52960331,28580.29954755697
53120332,27170.358832191177
53280333,29353.35660726585
53440334,27980.008328820153
53600335,29172.211707845676
53760336,28715.755193877172
53920337,29359.282480590628
54080338,27919.130146577052
54240339,29254.878663587315
54400340,30555.150515650446
54560341,30253.16445315927
54720342,29316.679520244987
54880343,29944.177090381585
55040344,30845.88160977991
55200345,27477.988656482776
55360346,27641.889845639056
55520347,29708.016151990207
55680348,30414.10542106242
55840349,29613.176907895868
56000350,28983.045142037623
56160351,30636.27574306835
56320352,27064.514925104544
56480353,27232.12149687396
56640354,29268.41282201456
56800355,30286.13100605001
56960356,27559.402906775053
57120357,29815.465521807735
57280358,28848.301730358733
57440359,29325.232633151572
57600360,28721.40431642206
57760361,29924.664244839987
57920362,28488.257615903214
58080363,29950.106533569622
58240364,28910.230689613967
58400365,30143.412513575226
58560366,27547.48314861578
58720367,30055.175414840855
58880368,26892.715027731796
59040369,28950.551369313893
59200370,29163.09817929211
59360371,28798.962359220328
59520372,29102.367331248388
59680373,32400.175237965617
59840374,28560.746669392807
60000375,29952.480539735356
60160376,29388.798624819723
60320377,28776.062862646213
60480378,29848.856934848267
60640379,27287.762125130568
60800380,29233.428629970953
60960381,28545.02562679916
61120382,29682.46398961056
61280383,27574.181083949345
61440384,28599.045673830376
61600385,27866.62581342362
61760386,28681.32034030716
61920387,30738.601031195823
62080388,27444.76372305179
62240389,29916.43987075745
62400390,29253.20676295396
62560391,29529.552642485665
62720392,28496.034910776347
62880393,29263.907823404457
63040394,28095.77939876626
63200395,29316.96764069267
63360396,29364.23280258174
63520397,28407.9618322871
63680398,27706.065044500152
63840399,26887.704479948996
64000400,29334.550722341322
64160401,29031.337023745935
64320402,28816.505787681122
64480403,28568.86245363298
64640404,28835.092588842577
64800405,28582.788215996654
64960406,29300.73191405168
65120407,28965.370758810725
65280408,28877.354053581086
65440409,27187.586718956445
65600410,28713.235227093395
65760411,29985.2369729918
65920412,28822.719686367687
66080413,29344.32786971745
66240414,27866.36777578531
66400415,29452.80651017718
66560416,28491.049078192227
66720417,27531.33275003311
66880418,28470.719811735395
67040419,27130.631805566176
67200420,28004.909428153074
67360421,27858.896891668846
67520422,28273.90575319593
67680423,27949.7719163781
67840424,27138.10156574746
68000425,27918.177590955405
68160426,28430.67817321099
68320427,28227.877261182595
68480428,26540.119033074367
68640429,27832.188118882375
68800430,28539.6381003257
68960431,27792.505803104235
69120432,27372.08593599961
69280433,28900.240091259275
69440434,27994.815133512162
69600435,28193.471265482116
69760436,27206.86624180173
69920437,26328.789693010756
70080438,28723.04879785131
70240439,27821.722622503297
70400440,29908.89982595917
70560441,27894.16182746527
70720442,27589.716499818318
70880443,29375.959648941534
71040444,28021.98363895528
71200445,27250.546507076746
71360446,27726.579842231244
71520447,27551.452616388913
71680448,29002.04240135689
71840449,28832.660268792322
72000450,27352.049622352566
72160451,26453.646766952763
72320452,27142.587433406035
72480453,29004.74861276431
72640454,27067.253336544654
72800455,27918.85296246563
72960456,27909.90246039326
73120457,27871.039520751987
73280458,26900.55570622435
73440459,26348.60377827227
73600460,28121.712465497705
73760461,29209.80170949963
73920462,27915.977850068142
74080463,26647.241554067157
74240464,27004.45537046069
74400465,27024.717323913144
74560466,26760.356081162023
74720467,28208.29493469241
74880468,27136.368706869653
75040469,26527.76060151225
75200470,27142.091542905302
75360471,28515.50904025803
75520472,26816.351204351147
75680473,28541.434937456812
75840474,27831.284217596476
76000475,26056.8745706821
76160476,29261.87927889712
76320477,27741.520145867253
76480478,27308.84560858399
76640479,25487.50364535871
76800480,28084.123561423945
76960481,26271.49818275758
77120482,27910.788546415337
77280483,27625.68672678127
77440484,27763.012863847533
77600485,29561.324507440917
77760486,27751.04828265831
77920487,27065.634465515264
78080488,26539.937778197334
78240489,26643.513610227365
78400490,27671.90258415221
78560491,26140.524376561174
78720492,25961.62246118347
78880493,27553.58464358131
79040494,28584.538345046127
79200495,28751.439268966293
79360496,28613.478018395894
79520497,26672.981317398408
79680498,27611.25836019856
79840499,28814.28883575608
80000500,28128.685748607626
80160501,27170.023735956747
80320502,27192.91191759803
80480503,27979.440212511858
80640504,26922.068524892828
80800505,26425.519672535007
80960506,27992.58403441575
81120507,26983.968810510567
81280508,25883.458102573324
81440509,27198.973489177293
81600510,27369.056211685056
81760511,27886.868404583885
81920512,27959.097120653125
82080513,26341.63216550947
82240514,29374.15857795243
82400515,27117.745662152156
82560516,26969.987018633856
82720517,25914.86974390778
82880518,27027.090526199823
83040519,27913.03585189572
83200520,27636.859796102734
83360521,25571.193588757807
83520522,28100.95074077233
83680523,28154.3265393197
83840524,27741.107349725797
84000525,26988.874705409948
84160526,25933.879142788865
84320527,27348.719701492733
84480528,27802.049776538617
84640529,28628.102676894767
84800530,28036.94925011211
84960531,29659.01539670273
85120532,27304.4038068511
85280533,28860.937609308206
85440534,28287.5970697904
85600535,28689.053641149792
85760536,26038.812137012097
85920537,26842.56683420287
86080538,29033.20347455
86240539,27836.210224626804
86400540,27302.693788423294
86560541,27124.03794074871
86720542,26175.11050937588
86880543,26735.010294736334
87040544,25266.510341108657
87200545,27583.162694045463
87360546,27659.425283754827
87520547,27228.688842793188
87680548,26737.345086002588
87840549,28122.117392127915
88000550,26620.44824547828
88160551,26100.1215591168
88320552,27345.024488724124
88480553,24899.545382572975
88640554,26253.635615630545
88800555,26870.088259772103
88960556,26784.074950356957
89120557,28206.270851852845
89280558,27270.90007274581
89440559,24437.67939310877
89600560,28159.83073381228
89760561,26050.180505951932
89920562,25539.9022792806
90080563,27388.655295068966
90240564,26364.164183280984
90400565,25687.496194320636
90560566,26833.460501976653
90720567,25746.838701080924
90880568,26929.899696282115
91040569,25386.246877443482
91200570,25368.634941345066
91360571,27165.15078840679
91520572,25772.186347190152
91680573,26683.396398386623
91840574,24564.046936621882
92000575,26222.1713375106
92160576,26654.971986926277
92320577,26100.23046793979
92480578,25485.70924629636
92640579,26076.53704487149
92800580,25545.5518079391
92960581,24711.439012752
93120582,26770.5755098405
93280583,26477.264329027472
93440584,26809.26795635797
93600585,26648.07313126399
93760586,27168.261454023086
93920587,26293.49953145009
94080588,26767.957733279272
94240589,25554.498477858186
94400590,26231.026853371757
94560591,26270.638464231957
94720592,25875.612172987123
94880593,26822.727409542767
95040594,27246.526811424166
95200595,27101.597211332642
95360596,26010.606366906046
95520597,24415.067750447408
95680598,24972.801830468958
95840599,24228.45396080169
96000600,24024.14994285058
96160601,24239.169250439347
96320602,26515.15286905056
96480603,24508.469328293464
96640604,24851.671272361215
96800605,25207.86350360467
96960606,24752.527173309292
97120607,25848.621454617234
97280608,27370.45661520558
97440609,25809.550985414746
97600610,23984.95166918026
97760611,25481.10539710342
97920612,26094.23656624694
98080613,26233.688482242753
98240614,25855.884127606
98400615,26349.884244184857
98560616,24428.721163619117
98720617,25919.65622258213
98880618,22777.281536838826
99040619,24257.329735921525
99200620,24297.49382736084
99360621,24876.62207833895
99520622,25667.593320905697
99680623,25542.62380116584
99840624,26128.713743263954
100000625,25319.370530263936
100160626,24854.210461680672
100320627,26325.597513800934
100480628,27547.064686834372
100640629,24749.25962384799
100800630,25183.45932757834
100960631,25180.293286853994
101120632,25901.928692985854
101280633,25765.731225774027
101440634,25837.15416840156
101600635,25135.357209143986
101760636,25733.90173222544
101920637,24278.102955887585
102080638,26673.39542837458
102240639,26504.851998915194
102400640,24113.811380032126
102560641,24224.225778080436
102720642,25115.808266818432
102880643,25464.212995442173
103040644,24431.726546368693
103200645,26298.356967697724
103360646,24576.766898130867
103520647,25399.81046034003
103680648,26633.643155142476
103840649,23827.894169545245
104000650,25036.68358974156
104160651,25446.240483652957
104320652,23215.365277175522
104480653,23968.231756804274
104640654,24392.080840631384
104800655,24709.470597353742
104960656,23380.09222826017
105120657,23399.63473408394
105280658,24633.796769642693
105440659,23895.219956653076
105600660,23746.54874401075
105760661,25085.754155547
105920662,23086.9386729136
106080663,23608.89642765092
106240664,24159.469124569387
106400665,24515.49571197652
106560666,23519.622927486907
106720667,25498.233937552002
106880668,24340.894402032103
107040669,24280.952828890353
107200670,24983.147333729936
107360671,24504.205607995118
107520672,23220.06995357932
107680673,23940.749859554042
107840674,25485.250414642207
108000675,24873.91544769812
108160676,24853.694604492073
108320677,24049.737223068143
108480678,26988.02043994842
108640679,23516.59654957031
108800680,24849.5639611861
108960681,22794.30904141831
109120682,24229.620109413932
109280683,22711.5621946792
109440684,24552.454554294636
109600685,23142.74649650638
109760686,23944.360546643937
109920687,23587.49124457675
110080688,24031.197936278753
110240689,22713.317753271327
110400690,23711.714069590635
110560691,23135.76948797193
110720692,23402.43552589803
110880693,24186.43529583938
111040694,23194.950056045054
111200695,24121.280738964557
111360696,24204.816965085167
111520697,23334.531799488657
111680698,21998.40216790421
111840699,24021.67239578456
112000700,23766.077959600196
112160701,23209.818934866795
112320702,24052.216125953746
112480703,22981.458002310887
112640704,23791.984692149414
112800705,23915.058050881278
112960706,23584.980942089063
113120707,24293.75295334968
113280708,22886.32376384918
113440709,22612.299082269987
113600710,23774.990708001456
113760711,22450.437401710642
113920712,22707.0322641058
114080713,23895.580278151876
114240714,23029.378444398302
114400715,22602.578010028003
114560716,22014.67959654645
114720717,22937.866001248894
114880718,23290.56869034507
115040719,23637.727780763908
115200720,22092.189276151017
115360721,23458.747055540374
115520722,22303.45393747342
115680723,23332.110741826404
115840724,21639.79602904174
116000725,21624.612642250704
116160726,21900.917013800452
116320727,22626.836579544484
116480728,22942.3950180266
116640729,21560.479966015024
116800730,22040.130078089
116960731,21461.44448782452
117120732,22072.77890705905
117280733,23144.572173227167
117440734,22892.329361294498
117600735,23313.035772978015
117760736,23373.17991637208
117920737,21538.89860573559
118080738,21829.35736991729
118240739,21691.244279394356
118400740,22159.66703384604
118560741,21332.40964547976
118720742,21599.06119253887
118880743,20452.182166688763
119040744,22401.463568579118
119200745,22950.530329799352
119360746,21116.200356089306
119520747,20942.692121376473
119680748,21584.172187289518
119840749,21168.47556320452
120000750,21545.465645363427
120160751,22403.730231397065
120320752,20360.176715596437
120480753,21104.279209409935
120640754,22069.978387516818
120800755,21772.10851835801
120960756,21011.87691408912
121120757,23375.7619663681
121280758,21949.111910843912
121440759,21052.49627823512
121600760,20908.01617583178
121760761,21522.988613456295
121920762,22439.489051131408
122080763,21603.696110900837
122240764,20953.305748816976
122400765,21634.033785739273
122560766,20720.189971506654
122720767,21056.076646032645
122880768,20537.497487339067
123040769,21252.824055412875
123200770,20748.459264208686
123360771,18975.204970776846
123520772,21226.00133494319
123680773,20696.17622048294
123840774,20481.60199348493
124000775,20931.817221261364
124160776,20085.550686386156
124320777,21531.848656587266
124480778,19789.317755778215
124640779,21977.440832673798
124800780,20523.564707666086
124960781,19422.22393373857
125120782,20840.680713649515
125280783,21889.392590381984
125440784,19514.229871285323
125600785,20927.90169160948
125760786,20900.74497604177
125920787,20477.61040748463
126080788,19929.056635869943
126240789,20796.578511732
126400790,19474.393210228056
126560791,19150.912036621583
126720792,19754.033247589727
126880793,19382.95611971891
127040794,20376.72557556877
127200795,18772.791302330294
127360796,19322.29660573732
127520797,19886.501763411437
127680798,21631.09048705778
127840799,18749.622435275607
128000800,18908.8847514733
128160801,19349.515402420122
128320802,18495.546563978136
128480803,20294.351359530097
128640804,19184.424547264098
128800805,20661.90382743065
128960806,19899.370638100438
129120807,19430.900750494042
129280808,18465.541647535865
129440809,19991.149177631483
129600810,19737.810540790793
129760811,18485.515068371984
129920812,18114.306632643253
130080813,17722.43547574353
130240814,19423.216366705834
130400815,18709.606373977695
130560816,17663.749806083095
130720817,19509.36436368046
130880818,19353.170329585082
131040819,18478.69544644817
131200820,17839.385429597747
131360821,18660.50076777628
131520822,18668.531882570922
131680823,17985.121390145177
131840824,18833.588684264614
132000825,18924.618460935217
132160826,17474.582776992414
132320827,17422.11548635009
132480828,17955.034805406885
132640829,18529.048346339416
132800830,17626.761282508916
132960831,18590.946851071145
133120832,18705.91547392162
133280833,18786.56131324328
133440834,16764.00209257756
133600835,17295.307103023606
133760836,17085.37384737566
133920837,16800.834173192205
134080838,17430.228678213873
134240839,17019.060903387315
134400840,17072.374505513468
134560841,16969.9999421365
134720842,17836.887295249388
134880843,15704.386037135857
135040844,16547.531861483956
135200845,17052.85899170847
135360846,16613.0154546914
135520847,17601.440068511416
135680848,16924.772858981527
135840849,15421.621394252583
136000850,16144.540989440204
136160851,16556.677256923886
136320852,16518.244114193418
136480853,17246.822246493037
136640854,15976.193792976845
136800855,16112.359635893516
136960856,16410.93226482592
137120857,15760.357129238928
137280858,15634.070355572581
137440859,16665.390083852817
137600860,15716.031935704475
137760861,16012.650495923615
137920862,15118.394421902014
138080863,16129.613382628031
138240864,15430.482872193359
138400865,15269.286017976778
138560866,15208.820365574122
138720867,16383.789218047283
138880868,15208.304145237753
139040869,15070.008043598491
139200870,15119.757166247258
139360871,15518.465389761644
139520872,14212.452479894282
139680873,14700.923437218727
139840874,14466.257027669657
140000875,14872.939033124881
140160876,14850.544862358103
140320877,15302.872035656674
140480878,14852.60995842171
140640879,14596.91366334035
140800880,15479.35369428857
140960881,13005.041985381538
141120882,13928.156790035368
141280883,13437.124014785686
141440884,13375.68239962217
141600885,13452.232528716471
141760886,14036.509773961901
141920887,14663.978049455412
142080888,14167.512147065712
142240889,13989.156094523181
142400890,14630.229031962912
142560891,13857.267372847675
142720892,12328.950978237912
142880893,14212.188500243887
143040894,13177.821469663902
143200895,12941.379336215663
143360896,12526.148412730041
143520897,13054.547077427598
143680898,12607.97696286324
143840899,12333.345246849092
144000900,12542.166391006369
144160901,11981.644348611773
144320902,12201.19960282678
144480903,12463.658490601098
144640904,12216.619672091505
144800905,11736.747755272438
144960906,12511.012263824301
145120907,11628.823523464927
145280908,12231.295086651495
145440909,12142.524517852
145600910,11623.951570036019
145760911,11217.570211279906
145920912,11329.399364747333
146080913,11269.3509492167
146240914,11256.157723056589
146400915,11684.01068507021
146560916,11599.34389324986
146720917,11233.355198293375
146880918,10807.216488446124
147040919,10361.723203089567
147200920,10452.51844460699
147360921,10906.029898940327
147520922,10734.322506991446
147680923,10541.132462435593
147840924,10434.758025663621
148000925,11016.212637787232
148160926,10889.130100741044
148320927,10548.040101794622
148480928,10375.32158817381
148640929,10636.163923613536
148800930,10575.693742253028
148960931,10358.785899150747
149120932,10422.099499318267
149280933,10238.204350041762
149440934,10290.488036638888
149600935,9940.432726064171
149760936,9945.168230271609
149920937,9691.901186235771
150080938,9339.554187348525
150240939,9363.991372635075
150400940,9105.378655339351
150560941,9241.309137828292
150720942,9175.27936973847
150880943,9263.262800195082
151040944,9362.987463359676
151200945,8976.676195191334
151360946,9011.869676443814
151520947,8550.461709567906
151680948,8539.831698529219
151840949,8568.15202959103
152000950,8502.393635101083
152160951,8465.854750033734
152320952,8203.665453261554
152480953,8113.931764051203
152640954,8111.2818506311605
152800955,8154.769476792362
152960956,7988.809774623529
153120957,7998.923593515114
153280958,7858.80942119069
153440959,7767.654593993509
153600960,7735.947454107097
153760961,7521.541582545037
153920962,7514.489369972835
154080963,7461.830976251019
154240964,7470.912683723618
154400965,7474.316852054795
154560966,7400.470113778753
154720967,7379.8077823318035
154880968,7420.134762183744
155040969,7392.193558869443
155200970,7360.65695988631
155360971,7320.978766111461
155520972,7308.491956608421
155680973,7284.3162142107785
155840974,7206.21883827492
156000975,7223.710091073052
156160976,7159.257945071165
156320977,7120.059410862137
156480978,7025.831384002147
156640979,6954.690342782379
156800980,6876.0085840855045
156960981,6876.115744320681
157120982,6878.097318113711
157280983,6859.098658232245
157440984,6851.086929715114
157600985,6796.777457529599
157760986,6766.550033035448
157920987,6737.619354437706
158080988,6740.996964740812
158240989,6707.604219890679
158400990,6690.190623503107
158560991,6673.02301748831
158720992,6650.552703713343
158880993,6650.552703713343
159040994,6650.552703713343
159200995,6650.552703713343
159360996,6632.485226425024
159520997,6602.433203088035
159680998,6602.433203088035
159840999,6507.535305240527
159999999,6507.535305240527
