0,3116.0
1,2910.0
2,2910.0
3,2824.0
4,2824.0
5,2824.0
6,2824.0
7,2824.0
8,2824.0
9,2673.0
10,2673.0
11,2673.0
12,2673.0
13,2673.0
14,2673.0
15,2616.0
16,2616.0
17,2530.0
18,2433.0
19,2433.0
20,2433.0
21,2433.0
22,2109.0
23,2109.0
24,2109.0
25,2109.0
26,2109.0
27,2109.0
28,2109.0
29,2060.0
30,1952.0
31,1939.0
32,1918.0
33,1918.0
34,1893.0
35,1893.0
36,1893.0
37,1893.0
38,1893.0
39,1893.0
40,1893.0
41,1891.0
42,1891.0
43,1891.0
44,1891.0
45,1891.0
46,1891.0
47,1891.0
48,1891.0
49,1869.0
50,1869.0
51,1869.0
52,1869.0
53,1869.0
54,1869.0
55,1869.0
56,1869.0
57,1869.0
58,1869.0
59,1869.0
60,1752.0
61,1752.0
62,1752.0
63,1752.0
64,1752.0
65,1752.0
66,1752.0
67,1752.0
68,1752.0
69,1752.0
70,1752.0
71,1752.0
72,1752.0
73,1752.0
74,1752.0
75,1752.0
76,1752.0
77,1752.0
78,1752.0
79,1748.0
80,1748.0
81,1748.0
82,1748.0
83,1748.0
84,1748.0
85,1748.0
86,1748.0
87,1748.0
88,1748.0
89,1748.0
90,1748.0
91,1748.0
92,1748.0
93,1748.0
94,1748.0
95,1748.0
96,1709.0
97,1709.0
98,1709.0
99,1709.0
100,1709.0
101,1709.0
102,1709.0
103,1709.0
104,1709.0
105,1709.0
106,1709.0
107,1709.0
108,1709.0
109,1709.0
110,1709.0
111,1709.0
112,1694.0
113,1694.0
114,1694.0
115,1694.0
116,1694.0
117,1694.0
118,1694.0
119,1694.0
120,1694.0
121,1694.0
122,1694.0
123,1694.0
124,1694.0
125,1694.0
126,1694.0
127,1694.0
128,1694.0
129,1694.0
130,1694.0
131,1694.0
132,1694.0
133,1694.0
134,1694.0
135,1694.0
136,1694.0
137,1694.0
138,1694.0
139,1694.0
140,1694.0
141,1694.0
142,1694.0
143,1694.0
144,1694.0
145,1694.0
146,1694.0
147,1694.0
148,1694.0
149,1694.0
150,1694.0
151,1694.0
152,1694.0
153,1694.0
154,1694.0
155,1694.0
156,1694.0
157,1694.0
158,1694.0
159,1694.0
160,1694.0
161,1694.0
162,1694.0
163,1694.0
164,1694.0
165,1694.0
166,1694.0
167,1694.0
168,1694.0
169,1694.0
170,1694.0
171,1694.0
172,1694.0
173,1694.0
174,1694.0
175,1694.0
176,1694.0
177,1694.0
178,1694.0
179,1694.0
180,1694.0
181,1694.0
182,1694.0
183,1694.0
184,1694.0
185,1694.0
186,1694.0
187,1694.0
188,1694.0
189,1694.0
190,1694.0
191,1694.0
192,1694.0
193,1694.0
194,1694.0
195,1694.0
196,1694.0
197,1694.0
198,1694.0
199,1694.0
200,1694.0
201,1694.0
202,1694.0
203,1694.0
204,1694.0
205,1694.0
206,1694.0
207,1694.0
208,1694.0
209,1694.0
210,1694.0
211,1694.0
212,1694.0
213,1694.0
214,1694.0
215,1694.0
216,1694.0
217,1694.0
218,1694.0
219,1694.0
220,1694.0
221,1694.0
222,1694.0
223,1694.0
224,1694.0
225,1694.0
226,1694.0
227,1694.0
228,1694.0
229,1694.0
230,1694.0
231,1694.0
232,1694.0
233,1694.0
234,1694.0
235,1694.0
236,1694.0
237,1694.0
238,1694.0
239,1694.0
240,1694.0
241,1694.0
242,1694.0
243,1694.0
244,1694.0
245,1694.0
246,1694.0
247,1694.0
248,1694.0
249,1694.0
250,1694.0
251,1694.0
252,1694.0
253,1694.0
254,1694.0
255,1694.0
256,1694.0
257,1694.0
258,1694.0
259,1694.0
260,1694.0
261,1694.0
262,1694.0
263,1694.0
264,1694.0
265,1694.0
266,1694.0
267,1694.0
268,1694.0
269,1694.0
270,1694.0
271,1676.0
272,1676.0
273,1676.0
274,1676.0
275,1676.0
276,1676.0
277,1676.0
278,1676.0
279,1676.0
280,1676.0
281,1676.0
282,1676.0
283,1676.0
284,1676.0
285,1676.0
286,1676.0
287,1676.0
288,1676.0
289,1676.0
290,1676.0
291,1676.0
292,1676.0
293,1676.0
294,1676.0
295,1676.0
296,1676.0
297,1676.0
298,1676.0
299,1676.0
300,1676.0
301,1676.0
302,1676.0
303,1676.0
304,1676.0
305,1676.0
306,1676.0
307,1676.0
308,1676.0
309,1676.0
310,1676.0
311,1676.0
312,1676.0
313,1676.0
314,1676.0
315,1676.0
316,1676.0
317,1676.0
318,1676.0
319,1676.0
320,1676.0
321,1676.0
322,1676.0
323,1676.0
324,1676.0
325,1676.0
326,1676.0
327,1676.0
328,1676.0
329,1676.0
