0,3752.0
1,3752.0
2,3415.0
3,3415.0
4,3415.0
5,3415.0
6,3415.0
7,3338.0
8,3338.0
9,3338.0
10,3338.0
11,3338.0
12,3338.0
13,3338.0
14,3338.0
15,3338.0
16,3338.0
17,3144.0
18,3144.0
19,3077.0
20,3077.0
21,3077.0
22,3077.0
23,2898.0
24,2898.0
25,2898.0
26,2898.0
27,2639.0
28,2639.0
29,2639.0
30,2631.0
31,2631.0
32,2626.0
33,2626.0
34,2389.0
35,2389.0
36,2389.0
37,2389.0
38,2375.0
39,2375.0
40,2375.0
41,2246.0
42,2246.0
43,2246.0
44,2246.0
45,2246.0
46,2246.0
47,2246.0
48,2246.0
49,2246.0
50,2246.0
51,2246.0
52,2246.0
53,2246.0
54,2246.0
55,2246.0
56,2246.0
57,2246.0
58,2246.0
59,2246.0
60,2246.0
61,2246.0
62,2246.0
63,2246.0
64,2246.0
65,2246.0
66,2246.0
67,2205.0
68,2205.0
69,2205.0
70,2205.0
71,2205.0
72,2205.0
73,2205.0
74,2205.0
75,2205.0
76,2205.0
77,2205.0
78,2205.0
79,2205.0
80,2205.0
81,2162.0
82,2162.0
83,2162.0
84,2083.0
85,2083.0
86,2083.0
87,2083.0
88,2083.0
89,2083.0
90,2083.0
91,2083.0
92,2083.0
93,2083.0
94,2083.0
95,2083.0
96,2083.0
97,2083.0
98,2083.0
99,2083.0
100,2083.0
101,2083.0
102,2083.0
103,2083.0
104,2083.0
105,2083.0
106,2083.0
107,2083.0
108,2083.0
109,2083.0
110,2083.0
111,2083.0
112,2083.0
113,2083.0
114,2083.0
115,2083.0
116,2083.0
117,2083.0
118,2083.0
119,2083.0
120,2083.0
121,2083.0
122,2083.0
123,2083.0
124,2083.0
125,2083.0
126,2083.0
127,2083.0
128,2083.0
129,2083.0
130,2083.0
131,2083.0
132,2083.0
133,2083.0
134,2083.0
135,2083.0
136,2083.0
137,2083.0
138,2083.0
139,2083.0
140,2083.0
141,2083.0
142,2083.0
143,2083.0
144,2083.0
145,2083.0
146,2083.0
147,2083.0
148,2083.0
149,2083.0
150,2083.0
151,2083.0
152,2083.0
153,2083.0
154,2083.0
155,2083.0
156,2083.0
157,2083.0
158,2083.0
159,2083.0
160,2083.0
161,2083.0
162,2083.0
163,2083.0
164,2083.0
165,2083.0
166,2083.0
167,2083.0
168,2083.0
169,2083.0
170,2083.0
171,2083.0
172,2083.0
173,2083.0
174,2083.0
175,2083.0
176,2083.0
177,2083.0
178,2083.0
179,2083.0
180,2083.0
181,2083.0
182,2083.0
183,2083.0
184,2083.0
185,2083.0
186,2083.0
187,2083.0
188,2083.0
189,2083.0
190,2083.0
191,2083.0
192,2083.0
193,2083.0
194,2083.0
195,2083.0
196,2083.0
197,2083.0
198,2083.0
199,2083.0
200,2083.0
201,2083.0
202,2083.0
203,2083.0
204,2083.0
205,2083.0
206,2083.0
207,2083.0
208,2083.0
209,2083.0
210,2083.0
211,2083.0
212,2083.0
213,2083.0
214,2083.0
215,2083.0
216,2083.0
217,2083.0
218,2083.0
219,2083.0
220,2083.0
221,2083.0
222,2083.0
223,2083.0
224,2083.0
225,2083.0
226,2083.0
227,2083.0
228,2083.0
229,2083.0
230,2083.0
231,2083.0
232,2083.0
233,2083.0
234,2077.0
235,2077.0
236,2077.0
237,2077.0
238,2077.0
239,2077.0
240,2077.0
241,2077.0
242,2077.0
243,2077.0
244,2077.0
245,2077.0
246,2077.0
247,2077.0
248,2077.0
249,2077.0
250,2077.0
251,2077.0
252,2077.0
253,2077.0
254,2077.0
255,2077.0
256,2077.0
257,2077.0
258,2077.0
259,2077.0
260,2077.0
261,2077.0
262,2077.0
263,2077.0
264,2077.0
265,2077.0
266,2077.0
267,2077.0
268,2077.0
269,2077.0
270,2077.0
271,2077.0
272,2077.0
273,2077.0
274,2077.0
275,2077.0
276,2077.0
277,2077.0
278,2077.0
279,2077.0
280,2077.0
281,2077.0
282,2077.0
283,2077.0
284,2077.0
285,2077.0
286,2077.0
287,2077.0
288,2077.0
289,2077.0
290,2077.0
291,2077.0
292,2077.0
293,2077.0
294,2077.0
295,2077.0
296,2077.0
297,2077.0
298,2077.0
299,2077.0
300,2077.0
301,2077.0
302,2077.0
303,2077.0
304,2077.0
305,2077.0
306,2077.0
307,2077.0
308,2077.0
309,2077.0
310,2077.0
311,2077.0
312,2077.0
313,2077.0
314,2077.0
315,2077.0
316,2077.0
317,2077.0
318,2077.0
319,2077.0
320,2077.0
321,2077.0
322,2077.0
323,2077.0
324,2077.0
325,2077.0
326,2077.0
327,2077.0
328,2077.0
329,2077.0
