0,126769.0
160001,33913.0
320002,33393.0
480003,31774.0
640004,31376.0
800005,31451.0
960006,31589.0
1120007,31340.0
1280008,31225.0
1440009,31274.0
1600010,31243.0
1760011,30689.0
1920012,30474.0
2080013,30044.0
2240014,30192.0
2400015,29873.0
2560016,29845.0
2720017,29726.0
2880018,29456.0
3040019,29447.0
3200020,29468.0
3360021,29409.0
3520022,29811.0
3680023,29754.0
3840024,29711.0
4000025,29695.0
4160026,29605.0
4320027,29610.0
4480028,29644.0
4640029,30012.0
4800030,29889.0
4960031,30246.0
5120032,30056.0
5280033,30217.0
5440034,30315.0
5600035,30123.0
5760036,29849.0
5920037,29910.0
6080038,29797.0
6240039,29785.0
6400040,29783.0
6560041,29693.0
6720042,29654.0
6880043,29654.0
7040044,29654.0
7200045,29654.0
7360046,29495.0
7520047,29518.0
7680048,29626.0
7840049,29630.0
8000050,29662.0
8160051,29787.0
8320052,29692.0
8480053,29659.0
8640054,29146.0
8800055,29194.0
8960056,29395.0
9120057,29362.0
9280058,29608.0
9440059,29650.0
9600060,29592.0
9760061,29452.0
9920062,29505.0
10080063,29659.0
10240064,29392.0
10400065,29099.0
10560066,29052.0
10720067,29030.0
10880068,29072.0
11040069,29377.0
11200070,29061.0
11360071,29341.0
11520072,29017.0
11680073,28871.0
11840074,28812.0
12000075,28838.0
12160076,28819.0
12320077,28732.0
12480078,28732.0
12640079,29019.0
12800080,28879.0
12960081,28880.0
13120082,28817.0
13280083,28969.0
13440084,29007.0
13600085,29005.0
13760086,29086.0
13920087,29086.0
14080088,28859.0
14240089,29186.0
14400090,29134.0
14560091,29166.0
14720092,29143.0
14880093,29150.0
15040094,29081.0
15200095,28781.0
15360096,28783.0
15520097,28873.0
15680098,28809.0
15840099,28792.0
16000100,28899.0
16160101,28899.0
16320102,28889.0
16480103,28651.0
16640104,28644.0
16800105,28763.0
16960106,28847.0
17120107,28853.0
17280108,29026.0
17440109,28970.0
17600110,28997.0
17760111,28933.0
17920112,28978.0
18080113,28977.0
18240114,28951.0
18400115,28859.0
18560116,28859.0
18720117,28848.0
18880118,28731.0
19040119,28800.0
19200120,28753.0
19360121,28747.0
19520122,28730.0
19680123,28851.0
19840124,28865.0
20000125,28893.0
20160126,28854.0
20320127,28840.0
20480128,28869.0
20640129,28967.0
20800130,29015.0
20960131,29116.0
21120132,28775.0
21280133,28790.0
21440134,28719.0
21600135,28719.0
21760136,28671.0
21920137,28671.0
22080138,28692.0
22240139,28685.0
22400140,28770.0
22560141,28764.0
22720142,28706.0
22880143,28815.0
23040144,28835.0
23200145,28635.0
23360146,28846.0
23520147,28658.0
23680148,28700.0
23840149,28852.0
24000150,28929.0
24160151,28844.0
24320152,28844.0
24480153,28830.0
24640154,28839.0
24800155,28744.0
24960156,28800.0
25120157,28705.0
25280158,28656.0
25440159,28641.0
25600160,28705.0
25760161,28674.0
25920162,28658.0
26080163,28659.0
26240164,28846.0
26400165,28668.0
26560166,28657.0
26720167,28623.0
26880168,28625.0
27040169,28656.0
27200170,28662.0
27360171,28646.0
27520172,28627.0
27680173,28791.0
27840174,28648.0
28000175,28827.0
28160176,29042.0
28320177,28932.0
28480178,28881.0
28640179,28860.0
28800180,28839.0
28960181,28834.0
29120182,28888.0
29280183,28969.0
29440184,28972.0
29600185,29115.0
29760186,29080.0
29920187,28943.0
30080188,28775.0
30240189,28731.0
30400190,28715.0
30560191,28617.0
30720192,28648.0
30880193,28677.0
31040194,28637.0
31200195,28648.0
31360196,28761.0
31520197,28640.0
31680198,28841.0
31840199,28893.0
32000200,28947.0
32160201,28715.0
32320202,28828.0
32480203,28796.0
32640204,28638.0
32800205,28670.0
32960206,28653.0
33120207,28757.0
33280208,28783.0
33440209,28876.0
33600210,28812.0
33760211,28731.0
33920212,28722.0
34080213,28738.0
34240214,28747.0
34400215,28706.0
34560216,28696.0
34720217,28717.0
34880218,28754.0
35040219,28846.0
35200220,29069.0
35360221,29080.0
35520222,29320.0
35680223,29353.0
35840224,29234.0
36000225,28926.0
36160226,28965.0
36320227,28663.0
36480228,28642.0
36640229,28799.0
36800230,28865.0
36960231,28783.0
37120232,28760.0
37280233,28872.0
37440234,28641.0
37600235,28638.0
37760236,28735.0
37920237,28680.0
38080238,28744.0
38240239,28735.0
38400240,28759.0
38560241,28667.0
38720242,28667.0
38880243,28688.0
39040244,28688.0
39200245,28864.0
39360246,28963.0
39520247,28919.0
39680248,29013.0
39840249,29069.0
40000250,29171.0
40160251,29055.0
40320252,28940.0
40480253,29000.0
40640254,29030.0
40800255,29106.0
40960256,28781.0
41120257,28695.0
41280258,28770.0
41440259,28663.0
41600260,28674.0
41760261,28674.0
41920262,28654.0
42080263,28665.0
42240264,28759.0
42400265,28703.0
42560266,28674.0
42720267,28679.0
42880268,28700.0
43040269,28818.0
43200270,28788.0
43360271,28752.0
43520272,28752.0
43680273,28773.0
43840274,28709.0
44000275,28591.0
44160276,28591.0
44320277,28591.0
44480278,28654.0
44640279,28680.0
44800280,28686.0
44960281,28686.0
45120282,28759.0
45280283,28767.0
45440284,28704.0
45600285,28801.0
45760286,28733.0
45920287,28867.0
46080288,28753.0
46240289,28753.0
46400290,28753.0
46560291,28730.0
46720292,28718.0
46880293,28881.0
47040294,28761.0
47200295,28771.0
47360296,28618.0
47520297,28575.0
47680298,28612.0
47840299,28853.0
48000300,28629.0
48160301,28658.0
48320302,28366.0
48480303,28580.0
48640304,28357.0
48800305,28308.0
48960306,28308.0
49120307,28194.0
49280308,28326.0
49440309,28169.0
49600310,28150.0
49760311,28293.0
49920312,28236.0
50080313,28225.0
50240314,28231.0
50400315,28197.0
50560316,28078.0
50720317,28107.0
50880318,28107.0
51040319,28158.0
51200320,28158.0
51360321,28158.0
51520322,28153.0
51680323,28149.0
51840324,28185.0
52000325,28185.0
52160326,28244.0
52320327,28239.0
52480328,28178.0
52640329,28078.0
52800330,28069.0
52960331,28082.0
53120332,28081.0
53280333,28090.0
53440334,28105.0
53600335,28096.0
53760336,28101.0
53920337,28101.0
54080338,28135.0
54240339,28098.0
54400340,28067.0
54560341,28074.0
54720342,28162.0
54880343,28347.0
55040344,28276.0
55200345,28221.0
55360346,28220.0
55520347,28229.0
55680348,28230.0
55840349,28174.0
56000350,28162.0
56160351,28013.0
56320352,28020.0
56480353,28236.0
56640354,28207.0
56800355,28181.0
56960356,28230.0
57120357,28176.0
57280358,28235.0
57440359,28142.0
57600360,28142.0
57760361,28116.0
57920362,28314.0
58080363,28171.0
58240364,28171.0
58400365,28204.0
58560366,28198.0
58720367,28211.0
58880368,28091.0
59040369,28095.0
59200370,28074.0
59360371,28134.0
59520372,28031.0
59680373,28063.0
59840374,27986.0
60000375,27867.0
60160376,27867.0
60320377,27941.0
60480378,27968.0
60640379,27957.0
60800380,27878.0
60960381,27889.0
61120382,28041.0
61280383,28041.0
61440384,27918.0
61600385,27918.0
61760386,27918.0
61920387,27908.0
62080388,27919.0
62240389,27924.0
62400390,27954.0
62560391,27954.0
62720392,27896.0
62880393,27949.0
63040394,27960.0
63200395,27873.0
63360396,27873.0
63520397,27879.0
63680398,27879.0
63840399,27873.0
64000400,27882.0
64160401,27871.0
64320402,27881.0
64480403,27888.0
64640404,27888.0
64800405,27883.0
64960406,27888.0
65120407,27883.0
65280408,27894.0
65440409,27894.0
65600410,27899.0
65760411,27894.0
65920412,27903.0
66080413,27908.0
66240414,27961.0
66400415,27929.0
66560416,27945.0
66720417,27945.0
66880418,27947.0
67040419,27925.0
67200420,27931.0
67360421,27931.0
67520422,27941.0
67680423,28020.0
67840424,28034.0
68000425,28034.0
68160426,28033.0
68320427,27949.0
68480428,28033.0
68640429,28033.0
68800430,28043.0
68960431,28139.0
69120432,28054.0
69280433,27934.0
69440434,27940.0
69600435,27951.0
69760436,28047.0
69920437,28045.0
70080438,28045.0
70240439,27936.0
70400440,27929.0
70560441,27868.0
70720442,27868.0
70880443,27888.0
71040444,27890.0
71200445,27879.0
71360446,27889.0
71520447,27887.0
71680448,27857.0
71840449,27907.0
72000450,27907.0
72160451,27907.0
72320452,27928.0
72480453,27897.0
72640454,27888.0
72800455,27899.0
72960456,27908.0
73120457,27908.0
73280458,27908.0
73440459,27908.0
73600460,27899.0
73760461,27898.0
73920462,27866.0
74080463,27866.0
74240464,27866.0
74400465,27889.0
74560466,27879.0
74720467,27900.0
74880468,27900.0
75040469,28084.0
75200470,27898.0
75360471,27904.0
75520472,27904.0
75680473,27962.0
75840474,27945.0
76000475,27938.0
76160476,27938.0
76320477,27927.0
76480478,27918.0
76640479,27918.0
76800480,27927.0
76960481,27917.0
77120482,27908.0
77280483,27908.0
77440484,27908.0
77600485,27919.0
77760486,27935.0
77920487,27924.0
78080488,27921.0
78240489,27921.0
78400490,27914.0
78560491,27908.0
78720492,27959.0
78880493,27862.0
79040494,27881.0
79200495,27872.0
79360496,27867.0
79520497,27868.0
79680498,27868.0
79840499,27868.0
80000500,27877.0
80160501,27871.0
80320502,27862.0
80480503,27862.0
80640504,27862.0
80800505,27862.0
80960506,27862.0
81120507,27862.0
81280508,27862.0
81440509,27873.0
81600510,27862.0
81760511,27862.0
81920512,27883.0
82080513,28085.0
82240514,28114.0
82400515,27893.0
82560516,27893.0
82720517,27983.0
82880518,27983.0
83040519,27983.0
83200520,27983.0
83360521,27986.0
83520522,27996.0
83680523,27977.0
83840524,27977.0
84000525,27987.0
84160526,27893.0
84320527,27951.0
84480528,27949.0
84640529,27944.0
84800530,27960.0
84960531,27967.0
85120532,27967.0
85280533,27956.0
85440534,27956.0
85600535,27961.0
85760536,27961.0
85920537,27972.0
86080538,28079.0
86240539,28068.0
86400540,28064.0
86560541,28069.0
86720542,28064.0
86880543,28074.0
87040544,28079.0
87200545,28068.0
87360546,28061.0
87520547,28111.0
87680548,28061.0
87840549,28051.0
88000550,28051.0
88160551,27960.0
88320552,27954.0
88480553,27954.0
88640554,27965.0
88800555,27960.0
88960556,27951.0
89120557,27944.0
89280558,27944.0
89440559,28037.0
89600560,27932.0
89760561,27932.0
89920562,27912.0
90080563,27912.0
90240564,28031.0
90400565,28031.0
90560566,27986.0
90720567,28158.0
90880568,28076.0
91040569,27893.0
91200570,28150.0
91360571,28150.0
91520572,27933.0
91680573,27956.0
91840574,27947.0
92000575,28026.0
92160576,27839.0
92320577,27834.0
92480578,27564.0
92640579,27590.0
92800580,27590.0
92960581,27577.0
93120582,27509.0
93280583,27509.0
93440584,27509.0
93600585,27509.0
93760586,27513.0
93920587,27513.0
94080588,27513.0
94240589,27513.0
94400590,27513.0
94560591,27513.0
94720592,27513.0
94880593,27513.0
95040594,27334.0
95200595,27341.0
95360596,27331.0
95520597,27318.0
95680598,27322.0
95840599,27362.0
96000600,27353.0
96160601,27353.0
96320602,27353.0
96480603,27482.0
96640604,27451.0
96800605,27451.0
96960606,27462.0
97120607,27362.0
97280608,27362.0
97440609,27362.0
97600610,27355.0
97760611,27345.0
97920612,27355.0
98080613,27352.0
98240614,27352.0
98400615,27352.0
98560616,27352.0
98720617,27345.0
98880618,27349.0
99040619,27354.0
99200620,27359.0
99360621,27333.0
99520622,27338.0
99680623,27338.0
99840624,27319.0
100000625,27340.0
100160626,27340.0
100320627,27329.0
100480628,27324.0
100640629,27329.0
100800630,27355.0
100960631,27345.0
101120632,27345.0
101280633,27354.0
101440634,27348.0
101600635,27359.0
101760636,27359.0
101920637,27368.0
102080638,27348.0
102240639,27205.0
102400640,27216.0
102560641,27194.0
102720642,27215.0
102880643,27194.0
103040644,27194.0
103200645,27194.0
103360646,27189.0
103520647,27189.0
103680648,27185.0
103840649,27185.0
104000650,27194.0
104160651,27184.0
104320652,27194.0
104480653,27184.0
104640654,27263.0
104800655,27184.0
104960656,27175.0
105120657,27175.0
105280658,27179.0
105440659,27179.0
105600660,27175.0
105760661,27175.0
105920662,27180.0
106080663,27191.0
106240664,27186.0
106400665,27226.0
106560666,27226.0
106720667,27215.0
106880668,27215.0
107040669,27215.0
107200670,27224.0
107360671,27215.0
107520672,27236.0
107680673,27236.0
107840674,27226.0
108000675,27230.0
108160676,27219.0
108320677,27229.0
108480678,27229.0
108640679,27224.0
108800680,27220.0
108960681,27220.0
109120682,27220.0
109280683,27215.0
109440684,27224.0
109600685,27184.0
109760686,27184.0
109920687,27184.0
110080688,27184.0
110240689,27184.0
110400690,27184.0
110560691,27194.0
110720692,27184.0
110880693,27184.0
111040694,27184.0
111200695,27184.0
111360696,27184.0
111520697,27184.0
111680698,27194.0
111840699,27194.0
112000700,27205.0
112160701,27194.0
112320702,27194.0
112480703,27175.0
112640704,27175.0
112800705,27175.0
112960706,27175.0
113120707,27179.0
113280708,27179.0
113440709,27189.0
113600710,27189.0
113760711,27189.0
113920712,27205.0
114080713,27254.0
114240714,27245.0
114400715,27282.0
114560716,27282.0
114720717,27214.0
114880718,27224.0
115040719,27219.0
115200720,27215.0
115360721,27215.0
115520722,27205.0
115680723,27209.0
115840724,27189.0
116000725,27184.0
116160726,27194.0
116320727,27184.0
116480728,27184.0
116640729,27184.0
116800730,27184.0
116960731,27179.0
117120732,27179.0
117280733,27179.0
117440734,27240.0
117600735,27245.0
117760736,27234.0
117920737,27224.0
118080738,27224.0
118240739,27200.0
118400740,27200.0
118560741,27212.0
118720742,27212.0
118880743,27212.0
119040744,27222.0
119200745,27212.0
119360746,27218.0
119520747,27223.0
119680748,27223.0
119840749,27208.0
120000750,27205.0
120160751,27201.0
120320752,27201.0
120480753,27175.0
120640754,27175.0
120800755,27178.0
120960756,27178.0
121120757,27178.0
121280758,27178.0
121440759,27189.0
121600760,27203.0
121760761,27198.0
121920762,27193.0
122080763,27193.0
122240764,27203.0
122400765,27208.0
122560766,27197.0
122720767,27197.0
122880768,27187.0
123040769,27219.0
123200770,27228.0
123360771,27228.0
123520772,27233.0
123680773,27229.0
123840774,27220.0
124000775,27210.0
124160776,27219.0
124320777,27210.0
124480778,27199.0
124640779,27182.0
124800780,27182.0
124960781,27187.0
125120782,27189.0
125280783,27189.0
125440784,27189.0
125600785,27189.0
125760786,27189.0
125920787,27189.0
126080788,27193.0
126240789,27193.0
126400790,27189.0
126560791,27189.0
126720792,27184.0
126880793,27184.0
127040794,27184.0
127200795,27189.0
127360796,27199.0
127520797,27199.0
127680798,27199.0
127840799,27189.0
128000800,27189.0
128160801,27178.0
128320802,27178.0
128480803,27182.0
128640804,27182.0
128800805,27182.0
128960806,27187.0
129120807,27182.0
129280808,27182.0
129440809,27182.0
129600810,27182.0
129760811,27182.0
129920812,27182.0
130080813,27182.0
130240814,27182.0
130400815,27178.0
130560816,27178.0
130720817,27188.0
130880818,27192.0
131040819,27192.0
131200820,27187.0
131360821,27187.0
131520822,27187.0
131680823,27192.0
131840824,27192.0
132000825,27192.0
132160826,27192.0
132320827,27192.0
132480828,27192.0
132640829,27187.0
132800830,27187.0
132960831,27187.0
133120832,27215.0
133280833,27193.0
133440834,27189.0
133600835,27178.0
133760836,27188.0
133920837,27183.0
134080838,27183.0
134240839,27183.0
134400840,27183.0
134560841,27183.0
134720842,27188.0
134880843,27188.0
135040844,27188.0
135200845,27178.0
135360846,27209.0
135520847,27209.0
135680848,27206.0
135840849,27206.0
136000850,27215.0
136160851,27208.0
136320852,27187.0
136480853,27187.0
136640854,27187.0
136800855,27187.0
136960856,27182.0
137120857,27178.0
137280858,27178.0
137440859,27178.0
137600860,27178.0
137760861,27178.0
137920862,27178.0
138080863,27199.0
138240864,27199.0
138400865,27199.0
138560866,27204.0
138720867,27213.0
138880868,27208.0
139040869,27214.0
139200870,27203.0
139360871,27203.0
139520872,27207.0
139680873,27203.0
139840874,27219.0
140000875,27219.0
140160876,27219.0
140320877,27210.0
140480878,27217.0
140640879,27217.0
140800880,27217.0
140960881,27210.0
141120882,27210.0
141280883,27199.0
141440884,27206.0
141600885,27206.0
141760886,27206.0
141920887,27206.0
142080888,27211.0
142240889,27211.0
142400890,27211.0
142560891,27211.0
142720892,27204.0
142880893,27199.0
143040894,27209.0
143200895,27199.0
143360896,27194.0
143520897,27194.0
143680898,27194.0
143840899,27173.0
144000900,27173.0
144160901,27173.0
144320902,27173.0
144480903,27173.0
144640904,27173.0
144800905,27178.0
144960906,27177.0
145120907,27177.0
145280908,27177.0
145440909,27187.0
145600910,27187.0
145760911,27187.0
145920912,27187.0
146080913,27183.0
146240914,27183.0
146400915,27183.0
146560916,27183.0
146720917,27183.0
146880918,27182.0
147040919,27182.0
147200920,27182.0
147360921,27182.0
147520922,27182.0
147680923,27182.0
147840924,27182.0
148000925,27182.0
148160926,27182.0
148320927,27182.0
148480928,27173.0
148640929,27173.0
148800930,27173.0
148960931,27173.0
149120932,27173.0
149280933,27173.0
149440934,27173.0
149600935,27173.0
149760936,27173.0
149920937,27173.0
150080938,27173.0
150240939,27173.0
150400940,27173.0
150560941,27173.0
150720942,27173.0
150880943,27173.0
151040944,27173.0
151200945,27173.0
151360946,27173.0
151520947,27173.0
151680948,27173.0
151840949,27173.0
152000950,27173.0
152160951,27173.0
152320952,27173.0
152480953,27173.0
152640954,27178.0
152800955,27178.0
152960956,27178.0
153120957,27182.0
153280958,27182.0
153440959,27182.0
153600960,27178.0
153760961,27178.0
153920962,27178.0
154080963,27178.0
154240964,27178.0
154400965,27173.0
154560966,27173.0
154720967,27173.0
154880968,27173.0
155040969,27173.0
155200970,27173.0
155360971,27173.0
155520972,27173.0
155680973,27173.0
155840974,27173.0
156000975,27173.0
156160976,27173.0
156320977,27173.0
156480978,27173.0
156640979,27173.0
156800980,27173.0
156960981,27173.0
157120982,27173.0
157280983,27173.0
157440984,27173.0
157600985,27173.0
157760986,27173.0
157920987,27173.0
158080988,27173.0
158240989,27173.0
158400990,27173.0
158560991,27173.0
158720992,27173.0
158880993,27173.0
159040994,27173.0
159200995,27173.0
159360996,27173.0
159520997,27173.0
159680998,27173.0
159840999,27173.0
159999999,27173.0
