0,9620.900000000018
1,6230.870000000004
2,6180.890000000004
3,6180.890000000004
4,6180.890000000004
5,6180.890000000004
6,6180.890000000004
7,6180.890000000004
8,6180.890000000004
9,6180.890000000004
10,6180.890000000004
11,2710.890000000004
12,2710.890000000004
13,2710.890000000004
14,2710.890000000004
15,2710.890000000004
16,2710.890000000004
17,2710.890000000004
18,2710.890000000004
19,2710.890000000004
20,2710.890000000004
21,2710.890000000004
22,2710.890000000004
23,2710.890000000004
24,2670.9000000000037
25,2670.9000000000037
26,2670.9000000000037
27,2670.9000000000037
28,2670.9000000000037
29,2670.9000000000037
30,2670.9000000000037
31,2670.9000000000037
32,2670.9000000000037
33,2670.9000000000037
34,2670.9000000000037
35,2670.9000000000037
36,2670.9000000000037
37,2670.9000000000037
38,2670.9000000000037
39,2620.9000000000033
40,2590.9000000000033
41,2590.9000000000033
42,2590.9000000000033
43,2590.9000000000033
44,2590.9000000000033
45,2570.9000000000033
46,2570.9000000000033
47,2570.9000000000033
48,2570.9000000000033
49,2530.900000000003
50,2530.900000000003
51,2530.900000000003
52,2530.900000000003
53,2480.9000000000024
54,2480.9000000000024
55,2480.9000000000024
56,2480.9000000000024
57,2480.9000000000024
58,2480.9000000000024
59,2480.9000000000024
60,2440.9000000000024
61,2440.9000000000024
62,2440.9000000000024
63,2440.9000000000024
64,2440.9000000000024
65,2440.9000000000024
66,2440.9000000000024
67,2440.9000000000024
68,2440.9000000000024
69,2440.9000000000024
70,2440.9000000000024
71,2390.9000000000015
72,2390.9000000000015
73,2390.9000000000015
74,2390.9000000000015
75,2390.9000000000015
76,2390.9000000000015
77,2390.9000000000015
78,2390.9000000000015
79,2390.9000000000015
80,2390.9000000000015
81,2390.9000000000015
82,2390.9000000000015
83,2390.9000000000015
84,2390.9000000000015
85,2390.9000000000015
86,2320.9000000000015
87,2320.9000000000015
88,2320.9000000000015
89,2310.9000000000015
90,2310.9000000000015
91,2310.9000000000015
92,2310.9000000000015
93,2310.9000000000015
94,2310.9000000000015
95,2310.9000000000015
96,2310.9000000000015
97,2310.9000000000015
98,2310.9000000000015
99,2310.9000000000015
100,2310.9000000000015
101,2310.9000000000015
102,2310.9000000000015
103,2310.9000000000015
104,2310.9000000000015
105,2310.9000000000015
106,2310.9000000000015
107,2310.9000000000015
108,2310.9000000000015
109,2290.900000000001
110,2290.900000000001
111,2290.900000000001
112,2290.900000000001
113,2290.900000000001
114,2290.900000000001
115,2240.9000000000005
116,2240.9000000000005
117,2240.9000000000005
118,2240.9000000000005
119,2240.9000000000005
120,2240.9000000000005
121,2240.9000000000005
122,2240.9000000000005
123,2170.9
124,2170.9
125,2170.9
126,2150.8999999999996
127,2150.8999999999996
128,2150.8999999999996
129,2150.8999999999996
130,2150.8999999999996
131,2150.8999999999996
132,2150.8999999999996
133,2150.8999999999996
134,2150.8999999999996
135,2150.8999999999996
136,2150.8999999999996
137,2150.8999999999996
138,2150.8999999999996
139,2150.8999999999996
140,2150.8999999999996
141,2150.8999999999996
142,2150.8999999999996
143,2150.8999999999996
144,2150.8999999999996
145,2150.8999999999996
146,2150.8999999999996
147,2150.8999999999996
148,2150.8999999999996
149,2150.8999999999996
150,2150.8999999999996
151,2150.8999999999996
152,2150.8999999999996
153,2150.8999999999996
154,2150.8999999999996
155,2150.8999999999996
156,2150.8999999999996
157,2150.8999999999996
158,2080.8999999999996
159,2080.8999999999996
160,2080.8999999999996
161,2080.8999999999996
162,2080.8999999999996
163,2080.8999999999996
164,2080.8999999999996
165,2080.8999999999996
166,2080.8999999999996
167,2080.8999999999996
168,2080.8999999999996
169,2080.8999999999996
170,2080.8999999999996
171,2080.8999999999996
172,2080.8999999999996
173,2080.8999999999996
174,2080.8999999999996
175,2080.8999999999996
176,2080.8999999999996
177,2080.8999999999996
178,2080.8999999999996
179,2080.8999999999996
180,2080.8999999999996
181,2080.8999999999996
182,2080.8999999999996
183,2080.8999999999996
184,2080.8999999999996
185,2080.8999999999996
186,2080.8999999999996
187,2080.8999999999996
188,2080.8999999999996
189,2080.8999999999996
190,2080.8999999999996
191,2080.8999999999996
192,2080.8999999999996
193,2080.8999999999996
194,2080.8999999999996
195,2080.8999999999996
196,2080.8999999999996
197,2080.8999999999996
198,2080.8999999999996
199,2080.8999999999996
200,2080.8999999999996
201,2080.8999999999996
202,2080.8999999999996
203,2080.8999999999996
204,2080.8999999999996
205,2080.8999999999996
206,2080.8999999999996
207,2050.899999999999
208,2050.899999999999
209,2050.899999999999
210,2050.899999999999
211,2050.899999999999
212,2050.899999999999
213,2050.899999999999
214,2050.899999999999
215,2050.899999999999
216,2050.899999999999
217,2050.899999999999
218,2050.899999999999
219,2050.899999999999
220,2050.899999999999
221,2050.899999999999
222,2050.899999999999
223,2050.899999999999
224,2050.899999999999
225,2050.899999999999
226,2050.899999999999
227,2050.899999999999
228,2050.899999999999
229,2050.899999999999
230,2050.899999999999
231,2050.899999999999
232,2050.899999999999
233,2050.899999999999
234,2050.899999999999
235,2050.899999999999
236,2050.899999999999
237,2050.899999999999
238,2050.899999999999
239,2050.899999999999
240,2050.899999999999
241,2050.899999999999
242,2050.899999999999
243,2050.899999999999
244,2050.899999999999
245,2050.899999999999
246,2050.899999999999
247,2050.899999999999
248,2050.899999999999
249,2050.899999999999
250,2050.899999999999
251,2050.899999999999
252,2050.899999999999
253,2050.899999999999
254,2050.899999999999
255,2050.899999999999
256,2050.899999999999
257,2050.899999999999
258,2050.899999999999
259,2050.899999999999
260,2050.899999999999
261,2050.899999999999
262,2050.899999999999
263,2050.899999999999
264,2050.899999999999
265,2050.899999999999
266,2050.899999999999
267,2050.899999999999
268,2050.899999999999
269,2050.899999999999
270,2050.899999999999
271,2050.899999999999
272,2050.899999999999
273,2050.899999999999
274,2050.899999999999
275,2050.899999999999
276,2050.899999999999
277,2050.899999999999
278,2050.899999999999
279,2050.899999999999
280,2050.899999999999
281,2050.899999999999
282,2050.899999999999
283,2050.899999999999
284,2050.899999999999
285,2050.899999999999
286,2050.899999999999
287,2050.899999999999
288,2040.8999999999992
289,2040.8999999999992
290,2040.8999999999992
291,2040.8999999999992
292,2040.8999999999992
293,2040.8999999999992
294,2040.8999999999992
295,2040.8999999999992
296,2040.8999999999992
297,2040.8999999999992
298,2040.8999999999992
299,2040.8999999999992
300,2040.8999999999992
301,2040.8999999999992
302,2040.8999999999992
303,2040.8999999999992
304,2040.8999999999992
305,2040.8999999999992
306,2040.8999999999992
307,2040.8999999999992
308,2040.8999999999992
309,2040.8999999999992
310,2040.8999999999992
311,2040.8999999999992
312,2040.8999999999992
313,2040.8999999999992
314,2040.8999999999992
315,2040.8999999999992
316,2040.8999999999992
317,2040.8999999999992
318,2040.8999999999992
319,2040.8999999999992
320,2040.8999999999992
321,2040.8999999999992
322,2040.8999999999992
323,2040.8999999999992
324,2040.8999999999992
325,2040.8999999999992
326,2040.8999999999992
327,2040.8999999999992
328,2040.8999999999992
329,2040.8999999999992
330,2040.8999999999992
331,2040.8999999999992
332,2040.8999999999992
333,2040.8999999999992
334,2040.8999999999992
335,2040.8999999999992
336,2040.8999999999992
337,2040.8999999999992
338,2040.8999999999992
339,2040.8999999999992
340,2040.8999999999992
341,2040.8999999999992
342,2040.8999999999992
343,2040.8999999999992
344,2040.8999999999992
345,2040.8999999999992
346,2040.8999999999992
347,2040.8999999999992
348,2040.8999999999992
349,2040.8999999999992
350,2040.8999999999992
351,2040.8999999999992
352,2040.8999999999992
353,2040.8999999999992
354,2040.8999999999992
355,2030.8999999999992
356,2030.8999999999992
357,2030.8999999999992
358,2030.8999999999992
359,2030.8999999999992
360,2030.8999999999992
361,2030.8999999999992
362,2030.8999999999992
363,2030.8999999999992
364,2030.8999999999992
365,2030.8999999999992
366,2030.8999999999992
367,2030.8999999999992
368,2030.8999999999992
369,2030.8999999999992
370,2030.8999999999992
371,2030.8999999999992
372,2030.8999999999992
373,2030.8999999999992
374,2030.8999999999992
375,2030.8999999999992
376,2030.8999999999992
377,2030.8999999999992
378,2030.8999999999992
379,2030.8999999999992
380,2030.8999999999992
381,2030.8999999999992
382,2030.8999999999992
383,2030.8999999999992
384,2030.8999999999992
385,2030.8999999999992
386,2030.8999999999992
387,2030.8999999999992
388,2030.8999999999992
389,2030.8999999999992
390,2030.8999999999992
391,2030.8999999999992
392,2030.8999999999992
393,2030.8999999999992
394,2030.8999999999992
395,2030.8999999999992
396,2030.8999999999992
397,2030.8999999999992
398,2030.8999999999992
399,2030.8999999999992
400,2030.8999999999992
401,2030.8999999999992
402,2030.8999999999992
403,2030.8999999999992
404,2030.8999999999992
405,2030.8999999999992
406,2030.8999999999992
407,2030.8999999999992
408,2030.8999999999992
409,2030.8999999999992
410,2030.8999999999992
411,2030.8999999999992
412,2030.8999999999992
413,2030.8999999999992
414,2030.8999999999992
415,2030.8999999999992
416,2030.8999999999992
417,2030.8999999999992
418,2030.8999999999992
419,2030.8999999999992
420,2030.8999999999992
421,2030.8999999999992
422,2030.8999999999992
423,2030.8999999999992
424,2030.8999999999992
425,2030.8999999999992
426,2030.8999999999992
427,2030.8999999999992
428,2030.8999999999992
429,2030.8999999999992
430,2030.8999999999992
431,2030.8999999999992
432,2030.8999999999992
433,2030.8999999999992
434,2030.8999999999992
435,2030.8999999999992
436,2030.8999999999992
437,2030.8999999999992
438,2030.8999999999992
439,2030.8999999999992
440,2030.8999999999992
441,2030.8999999999992
442,2030.8999999999992
443,2030.8999999999992
444,2030.8999999999992
445,2030.8999999999992
446,2030.8999999999992
447,2030.8999999999992
448,2030.8999999999992
449,2030.8999999999992
450,2030.8999999999992
451,2030.8999999999992
452,2030.8999999999992
453,2030.8999999999992
454,2030.8999999999992
455,2030.8999999999992
456,2030.8999999999992
457,2030.8999999999992
458,2030.8999999999992
459,2030.8999999999992
460,2030.8999999999992
461,2030.8999999999992
462,2030.8999999999992
463,2030.8999999999992
464,2030.8999999999992
465,2030.8999999999992
466,2030.8999999999992
467,2030.8999999999992
468,2030.8999999999992
469,2030.8999999999992
470,2030.8999999999992
471,2030.8999999999992
472,2030.8999999999992
473,2030.8999999999992
474,2030.8999999999992
475,2030.8999999999992
476,2030.8999999999992
477,2030.8999999999992
478,2030.8999999999992
479,2030.8999999999992
480,2030.8999999999992
481,2030.8999999999992
482,2030.8999999999992
483,2030.8999999999992
484,2030.8999999999992
485,2030.8999999999992
486,2030.8999999999992
487,2030.8999999999992
488,2030.8999999999992
489,2030.8999999999992
490,2030.8999999999992
491,2030.8999999999992
492,2030.8999999999992
493,2030.8999999999992
494,2030.8999999999992
495,2030.8999999999992
496,2030.8999999999992
497,2030.8999999999992
498,2030.8999999999992
499,2030.8999999999992
500,2030.8999999999992
501,2030.8999999999992
502,2030.8999999999992
503,2030.8999999999992
504,2030.8999999999992
505,2030.8999999999992
506,2030.8999999999992
507,2030.8999999999992
508,2030.8999999999992
509,2030.8999999999992
510,2030.8999999999992
511,2030.8999999999992
512,2030.8999999999992
513,2030.8999999999992
514,2030.8999999999992
515,2030.8999999999992
516,2030.8999999999992
517,2030.8999999999992
518,2030.8999999999992
519,2030.8999999999992
520,2030.8999999999992
521,2030.8999999999992
522,2030.8999999999992
523,2030.8999999999992
524,2030.8999999999992
525,2030.8999999999992
526,2030.8999999999992
527,2030.8999999999992
528,2030.8999999999992
529,2030.8999999999992
530,2030.8999999999992
531,2030.8999999999992
532,2030.8999999999992
533,2030.8999999999992
534,2030.8999999999992
535,2030.8999999999992
536,2030.8999999999992
537,2030.8999999999992
538,2030.8999999999992
539,2030.8999999999992
540,2030.8999999999992
541,2030.8999999999992
542,2030.8999999999992
543,2030.8999999999992
544,2030.8999999999992
545,2030.8999999999992
546,2030.8999999999992
547,2030.8999999999992
548,2030.8999999999992
549,2030.8999999999992
550,2030.8999999999992
551,2030.8999999999992
552,2030.8999999999992
553,2030.8999999999992
554,2030.8999999999992
555,2030.8999999999992
556,2030.8999999999992
557,2030.8999999999992
558,2030.8999999999992
559,2030.8999999999992
560,2030.8999999999992
561,2030.8999999999992
562,2030.8999999999992
563,2030.8999999999992
564,2030.8999999999992
565,2030.8999999999992
566,2030.8999999999992
567,2030.8999999999992
568,2030.8999999999992
569,2030.8999999999992
570,2030.8999999999992
571,2030.8999999999992
572,2030.8999999999992
573,2030.8999999999992
574,2030.8999999999992
575,2030.8999999999992
576,2030.8999999999992
577,2030.8999999999992
578,2030.8999999999992
579,2030.8999999999992
580,2030.8999999999992
581,2030.8999999999992
582,2030.8999999999992
583,2030.8999999999992
584,2030.8999999999992
585,2030.8999999999992
586,2030.8999999999992
587,2030.8999999999992
588,2030.8999999999992
589,2030.8999999999992
590,2030.8999999999992
591,2030.8999999999992
592,2030.8999999999992
593,2030.8999999999992
594,2030.8999999999992
595,2030.8999999999992
596,2030.8999999999992
597,2030.8999999999992
598,2030.8999999999992
599,2030.8999999999992
600,2030.8999999999992
601,2030.8999999999992
602,2030.8999999999992
603,2030.8999999999992
604,2030.8999999999992
605,2030.8999999999992
606,2030.8999999999992
607,2030.8999999999992
608,2030.8999999999992
609,2030.8999999999992
610,2030.8999999999992
611,2030.8999999999992
612,2030.8999999999992
613,2030.8999999999992
614,2030.8999999999992
615,2030.8999999999992
616,2030.8999999999992
617,2030.8999999999992
618,2030.8999999999992
619,2030.8999999999992
620,2030.8999999999992
621,2030.8999999999992
622,2030.8999999999992
623,2030.8999999999992
624,2030.8999999999992
625,2030.8999999999992
626,2030.8999999999992
627,2030.8999999999992
628,2030.8999999999992
629,2030.8999999999992
630,2030.8999999999992
631,2030.8999999999992
632,2030.8999999999992
633,2030.8999999999992
634,2030.8999999999992
635,2030.8999999999992
636,2020.8999999999992
637,2020.8999999999992
638,2020.8999999999992
639,2020.8999999999992
640,2020.8999999999992
641,2020.8999999999992
642,2020.8999999999992
643,2020.8999999999992
644,2020.8999999999992
645,2020.8999999999992
646,2020.8999999999992
647,2020.8999999999992
648,2020.8999999999992
649,2020.8999999999992
650,2020.8999999999992
651,2020.8999999999992
652,2020.8999999999992
653,2020.8999999999992
654,2020.8999999999992
655,2020.8999999999992
656,2020.8999999999992
657,2020.8999999999992
658,2020.8999999999992
659,2020.8999999999992
660,2020.8999999999992
661,2020.8999999999992
662,2020.8999999999992
663,2020.8999999999992
664,2020.8999999999992
665,2020.8999999999992
666,2020.8999999999992
667,2020.8999999999992
668,2020.8999999999992
669,2020.8999999999992
670,2020.8999999999992
671,2020.8999999999992
672,2020.8999999999992
673,2020.8999999999992
674,2020.8999999999992
675,2020.8999999999992
676,2020.8999999999992
677,2020.8999999999992
678,2020.8999999999992
679,2020.8999999999992
680,2020.8999999999992
681,2020.8999999999992
682,2020.8999999999992
683,2020.8999999999992
684,2020.8999999999992
685,2020.8999999999992
686,2020.8999999999992
687,2020.8999999999992
688,2020.8999999999992
689,2020.8999999999992
690,2020.8999999999992
691,2020.8999999999992
692,2020.8999999999992
693,2020.8999999999992
694,2020.8999999999992
695,2020.8999999999992
696,2020.8999999999992
697,2020.8999999999992
698,2020.8999999999992
699,2020.8999999999992
700,2020.8999999999992
701,2020.8999999999992
702,2020.8999999999992
703,2020.8999999999992
704,2020.8999999999992
705,2020.8999999999992
706,2020.8999999999992
707,2020.8999999999992
708,2020.8999999999992
709,2020.8999999999992
710,2020.8999999999992
711,2020.8999999999992
712,2020.8999999999992
713,2020.8999999999992
714,2020.8999999999992
715,2020.8999999999992
716,2020.8999999999992
717,2020.8999999999992
718,2020.8999999999992
719,2020.8999999999992
720,2020.8999999999992
721,2020.8999999999992
722,2020.8999999999992
723,2020.8999999999992
724,2020.8999999999992
725,2020.8999999999992
726,2020.8999999999992
727,2020.8999999999992
728,2020.8999999999992
729,2020.8999999999992
