0,1741049.3682963105
40001,1422533.28942769
80002,1375715.2003107362
120003,1415781.6101257133
160004,1394097.591173995
200005,1383529.3726839863
240006,1373491.231460394
280007,1411630.885515077
320008,1395037.762092992
360009,1379092.6011402702
400010,1402793.1379553312
440011,1401967.517618667
480012,1376485.6748157647
520013,1374705.0387648153
560014,1401991.4122936362
600015,1409743.9484141609
640016,1389562.1358640797
680017,1377286.469056246
720018,1362032.1397256027
760019,1390665.2314298493
800020,1428860.7689071032
840021,1354241.78016175
880022,1366587.0081661977
920023,1413724.1760198108
960024,1421124.1330239405
1000025,1405182.2830451448
1040026,1412148.9692365427
1080027,1373933.2849008269
1120028,1380732.2925550684
1160029,1358171.8760573207
1200030,1395944.6932003184
1240031,1365515.0272208122
1280032,1363295.5199465747
1320033,1396554.737321706
1360034,1396177.6022417445
1400035,1363403.7654748475
1440036,1382094.0618897208
1480037,1369264.3973232505
1520038,1388312.230286515
1560039,1396216.8411982786
1600040,1364762.5360489874
1640041,1395630.969066488
1680042,1416205.875269411
1720043,1384451.0485781198
1760044,1381164.2209232745
1800045,1394672.779805097
1840046,1352026.253829357
1880047,1401236.9460736394
1920048,1380275.6189729508
1960049,1387223.357475001
2000050,1336574.0735903187
2040051,1331427.8284043581
2080052,1375077.8398243533
2120053,1335779.1804249578
2160054,1373795.8307723282
2200055,1355617.6397917205
2240056,1354359.5244649092
2280057,1362998.2894081443
2320058,1412068.29710318
2360059,1365625.6365116963
2400060,1360935.2265224948
2440061,1376710.7650127253
2480062,1387388.9715281979
2520063,1347315.7687586828
2560064,1373367.5635106442
2600065,1377318.506497647
2640066,1329563.3778529814
2680067,1371423.2472721268
2720068,1344195.2077563405
2760069,1354436.2835293375
2800070,1327846.8557872039
2840071,1307127.0828165023
2880072,1378434.4362654455
2920073,1369984.4596954358
2960074,1353238.8284261376
3000075,1348846.8880274117
3040076,1337711.220555313
3080077,1338242.3581294117
3120078,1415358.360070899
3160079,1339294.9615825885
3200080,1329492.3425463657
3240081,1394464.7820871125
3280082,1388677.1555184252
3320083,1397184.564963009
3360084,1328812.4428875318
3400085,1383222.9405700339
3440086,1362503.380721862
3480087,1365521.7009146141
3520088,1368307.219915307
3560089,1345711.8515485127
3600090,1360373.4101927993
3640091,1395447.096223284
3680092,1368917.2080454628
3720093,1360539.370937864
3760094,1342615.253516447
3800095,1313872.759016298
3840096,1319182.5969549306
3880097,1408186.3411365475
3920098,1388662.377447385
3960099,1356350.1205368412
4000100,1352402.101730728
4040101,1330566.0112784836
4080102,1365425.7103560946
4120103,1384099.8574359338
4160104,1377250.2640235391
4200105,1350625.0654092578
4240106,1339231.2735411662
4280107,1363746.5436950226
4320108,1321133.455536155
4360109,1351110.3422345296
4400110,1378959.6108047175
4440111,1351895.2958235922
4480112,1318323.538255009
4520113,1353513.3372496834
4560114,1327555.969174449
4600115,1325460.714260732
4640116,1354607.3376904603
4680117,1334215.962218384
4720118,1375332.8672911462
4760119,1329109.3553809896
4800120,1333223.020738067
4840121,1326409.059223234
4880122,1356306.7519037046
4920123,1311026.0697997324
4960124,1336158.0539237987
5000125,1361393.4759740187
5040126,1354347.039416999
5080127,1332032.1277736828
5120128,1312312.1528113459
5160129,1335623.9057755263
5200130,1363424.3451241083
5240131,1374913.353251607
5280132,1301381.05086067
5320133,1320802.8817015581
5360134,1322046.6316140268
5400135,1352388.666429215
5440136,1308860.3606855813
5480137,1317792.8964115595
5520138,1331465.1756291445
5560139,1382624.0920510974
5600140,1338323.0426040897
5640141,1338181.0733443408
5680142,1357801.0685848193
5720143,1270573.152179737
5760144,1343693.4156007778
5800145,1311413.1549877673
5840146,1318493.0011460686
5880147,1377794.399985967
5920148,1344578.367821832
5960149,1338684.704068586
6000150,1326987.2669159265
6040151,1302057.814820575
6080152,1325887.7768307244
6120153,1363731.3752031128
6160154,1363755.827936724
6200155,1357167.312172269
6240156,1307851.2245969535
6280157,1334064.386539859
6320158,1356600.9236551048
6360159,1319350.2564689901
6400160,1298318.421880149
6440161,1320363.2770252798
6480162,1333846.2079161662
6520163,1309514.3077635618
6560164,1347172.9881262702
6600165,1323493.4822965157
6640166,1338521.7817919634
6680167,1343713.1842758202
6720168,1316728.279944473
6760169,1300047.0418632769
6800170,1311335.78576347
6840171,1270685.6258611493
6880172,1248717.060129378
6920173,1353040.9824235183
6960174,1314660.4459671685
7000175,1312656.3225048126
7040176,1316455.007051822
7080177,1342938.587071466
7120178,1339737.8005267596
7160179,1328172.4903465256
7200180,1311842.4146131948
7240181,1333153.5656860908
7280182,1294268.3185336743
7320183,1313629.8563891298
7360184,1336906.6149428526
7400185,1311925.5215901844
7440186,1343854.8193178403
7480187,1257060.37493654
7520188,1296161.0218128795
7560189,1354888.9761767422
7600190,1349787.0276001117
7640191,1277812.7783757572
7680192,1326233.0730993678
7720193,1275020.0812063178
7760194,1332679.710426246
7800195,1293470.7848533927
7840196,1352721.3331890267
7880197,1329349.530522764
7920198,1324034.5909340426
7960199,1308158.120914913
8000200,1309269.1877044453
8040201,1271324.3080901734
8080202,1303015.8925356895
8120203,1273658.2052614496
8160204,1332137.4573140445
8200205,1302735.64032149
8240206,1316026.0688151547
8280207,1321635.1423313043
8320208,1281434.8299541797
8360209,1305135.1302428322
8400210,1298785.0240632163
8440211,1281019.693637988
8480212,1296188.2365124037
8520213,1299059.4320535776
8560214,1297909.9777736485
8600215,1285578.4043216985
8640216,1304937.5736773612
8680217,1306803.7450517358
8720218,1312700.2764432011
8760219,1352900.8905396508
8800220,1319897.1726990417
8840221,1270585.4394969977
8880222,1300345.7960565302
8920223,1265729.246837086
8960224,1287500.827973168
9000225,1315423.617447727
9040226,1327607.7792547077
9080227,1311015.749160655
9120228,1296399.9248982081
9160229,1269585.5011701325
9200230,1263938.0512730218
9240231,1272657.59870183
9280232,1319246.336148281
9320233,1320145.8758463631
9360234,1272242.8508099047
9400235,1281880.836086681
9440236,1282053.1245314656
9480237,1303303.6899228
9520238,1245238.2954974142
9560239,1283060.3161459975
9600240,1314242.641846219
9640241,1293909.6410169122
9680242,1262058.9184932539
9720243,1315580.8912674221
9760244,1270548.5019399289
9800245,1260208.5786733406
9840246,1259341.2656908839
9880247,1280439.3320767602
9920248,1259199.0928885539
9960249,1252968.7020269493
10000250,1299353.4497810123
10040251,1259316.4349756758
10080252,1275054.8017972782
10120253,1251719.4445293637
10160254,1271162.7865432017
10200255,1282092.644123051
10240256,1270028.9141583596
10280257,1282167.5417424135
10320258,1255922.0129455072
10360259,1267013.4879042613
10400260,1247309.1315483858
10440261,1290155.7781462744
10480262,1300058.5064999808
10520263,1272371.6411725325
10560264,1267019.1748509144
10600265,1288346.8386704884
10640266,1257972.4680263284
10680267,1259604.9435624091
10720268,1232429.468219328
10760269,1309201.767840165
10800270,1239131.644275202
10840271,1236622.739148833
10880272,1260308.1157741584
10920273,1266503.9348714545
10960274,1257139.4857112966
11000275,1283174.3283275932
11040276,1292314.9822496
11080277,1238505.4449014468
11120278,1261515.2139573614
11160279,1262768.7184065678
11200280,1300659.8607022143
11240281,1290330.5697980411
11280282,1232067.0091518234
11320283,1256609.211453665
11360284,1244515.2074706645
11400285,1282733.2672515188
11440286,1222742.307896788
11480287,1295847.8784496794
11520288,1256789.2632249144
11560289,1240732.3029525366
11600290,1235807.435378194
11640291,1267581.7352844405
11680292,1320303.5660630777
11720293,1213631.1601848197
11760294,1269216.619625275
11800295,1271003.7770406345
11840296,1268124.677371326
11880297,1220198.094094985
11920298,1203401.0005437778
11960299,1254320.5290903042
12000300,1229385.0290235947
12040301,1229675.678159719
12080302,1229550.649080129
12120303,1273917.0982416903
12160304,1248150.218740946
12200305,1222058.6942745536
12240306,1218234.293849458
12280307,1213753.805675636
12320308,1221492.7299232234
12360309,1269773.6212741153
12400310,1239832.3808268106
12440311,1227770.9943985022
12480312,1255599.8884905626
12520313,1216356.855398631
12560314,1253071.3200859795
12600315,1243194.6369851483
12640316,1235662.1145115434
12680317,1246556.573495155
12720318,1255394.0310937474
12760319,1243161.4270537868
12800320,1198668.8365130904
12840321,1247906.4019812462
12880322,1257862.3714747273
12920323,1250897.504940865
12960324,1250462.8557151128
13000325,1205121.6965922574
13040326,1238855.0575633238
13080327,1244559.8732460677
13120328,1239567.913725671
13160329,1220407.050006794
13200330,1188248.8285498475
13240331,1251480.4284745255
13280332,1259235.0267526463
13320333,1202307.861677162
13360334,1235358.4671791382
13400335,1236265.389009279
13440336,1239596.7719336306
13480337,1203587.0242030455
13520338,1189149.4441857107
13560339,1198691.291005105
13600340,1199867.7854413257
13640341,1228627.9028717568
13680342,1216480.3714651554
13720343,1233278.582818297
13760344,1218503.0598782394
13800345,1207696.2912235411
13840346,1220484.284169309
13880347,1246888.5116164386
13920348,1179365.625970254
13960349,1210149.3235042312
14000350,1208052.0926894322
14040351,1235300.3653505796
14080352,1199011.5090678274
14120353,1225088.199115695
14160354,1200407.0514726683
14200355,1213619.3482908367
14240356,1231763.9272994997
14280357,1214859.6541794206
14320358,1193907.1285737148
14360359,1186035.8137584415
14400360,1180667.3184446548
14440361,1175854.0168950113
14480362,1211989.8490506043
14520363,1220605.0246684148
14560364,1180964.113482115
14600365,1211084.070769494
14640366,1191765.4298519937
14680367,1179472.964191126
14720368,1212705.2706312803
14760369,1170718.081860572
14800370,1167149.760642923
14840371,1191379.307663532
14880372,1161572.6771686678
14920373,1197297.4499258834
14960374,1218505.5783519216
15000375,1193903.1658551157
15040376,1212133.6018199336
15080377,1213978.0496940902
15120378,1216364.9671022554
15160379,1187025.6869990155
15200380,1177856.0273385528
15240381,1170252.8659021868
15280382,1203109.8616913953
15320383,1190145.391815769
15360384,1149788.3595777068
15400385,1170556.0802567822
15440386,1188500.388373511
15480387,1202675.130125865
15520388,1203097.3080655858
15560389,1198900.8432364506
15600390,1194106.9113898952
15640391,1142517.097962563
15680392,1200372.7733762832
15720393,1176220.3161533256
15760394,1156653.2261534783
15800395,1166011.494191109
15840396,1186048.8100584385
15880397,1211816.2554638283
15920398,1191099.9015149404
15960399,1199454.615358911
16000400,1173125.5827505265
16040401,1178507.21665725
16080402,1172034.1011993117
16120403,1137018.2772121062
16160404,1160051.9948586184
16200405,1173969.4728035002
16240406,1199877.8726553405
16280407,1148580.959451472
16320408,1165838.875520257
16360409,1162586.191093645
16400410,1160442.3512034735
16440411,1158673.4662359555
16480412,1152423.814774791
16520413,1158115.9774783754
16560414,1138697.4915185045
16600415,1129578.2394404884
16640416,1164538.3356872066
16680417,1156595.7497664832
16720418,1160184.2457884336
16760419,1146136.9684267398
16800420,1144061.8344694746
16840421,1128747.3784246617
16880422,1185513.9358591486
16920423,1142291.6404451076
16960424,1121677.1796225952
17000425,1133252.4766758506
17040426,1131272.3768730238
17080427,1099570.8007689882
17120428,1112187.0590114775
17160429,1125049.011183084
17200430,1126286.1367087064
17240431,1153887.1351970579
17280432,1149933.6974927604
17320433,1132338.2464251816
17360434,1151927.718545299
17400435,1127752.635225413
17440436,1152842.2539830634
17480437,1125483.2375802207
17520438,1119831.4685333127
17560439,1105058.560135496
17600440,1156963.3284378352
17640441,1131019.431154726
17680442,1154948.2852616014
17720443,1132116.5044424285
17760444,1087242.5604297633
17800445,1158221.208727023
17840446,1165062.740034686
17880447,1125887.8590913136
17920448,1114405.463028594
17960449,1118400.4640122533
18000450,1146045.5660933221
18040451,1072875.031844822
18080452,1102732.7181481794
18120453,1106702.4784346104
18160454,1105435.547562163
18200455,1126674.635331003
18240456,1119083.4334588258
18280457,1096079.5310097921
18320458,1129446.0589500216
18360459,1116655.0494121606
18400460,1104433.053662486
18440461,1144057.199377736
18480462,1109624.4732862664
18520463,1159996.2795860176
18560464,1106328.80720786
18600465,1084349.955062443
18640466,1104019.491990742
18680467,1138757.070450558
18720468,1095466.8966672947
18760469,1106679.313652218
18800470,1113215.4162314273
18840471,1116140.1531123947
18880472,1096383.0282363105
18920473,1080996.691862238
18960474,1114813.3930948754
19000475,1104095.9214901633
19040476,1097952.2959201324
19080477,1092677.4578354901
19120478,1088644.4904553618
19160479,1121908.4322334311
19200480,1063260.9160804497
19240481,1068564.2285031802
19280482,1070367.310050994
19320483,1040129.0118535486
19360484,1070808.7600214756
19400485,1083335.8067315354
19440486,1070047.9559204758
19480487,1077425.03781016
19520488,1093573.3686145127
19560489,1115311.202341978
19600490,1113194.7293343241
19640491,1075081.572231084
19680492,1094824.9873701409
19720493,1058672.230438428
19760494,1088560.4449458881
19800495,1067599.35109887
19840496,1093572.8196854303
19880497,1072854.425490265
19920498,1094351.1390828162
19960499,1077761.9173330625
20000500,1069733.1979695298
20040501,1034275.8487859652
20080502,1048269.6633669884
20120503,1067249.7585423046
20160504,1051243.5829772349
20200505,1038877.7606384397
20240506,1080983.0167645437
20280507,1048516.7098234867
20320508,1063734.5583457137
20360509,1069912.7084678344
20400510,1023121.5027818215
20440511,1107043.4288695885
20480512,1054202.5503074846
20520513,1034249.0860351656
20560514,1021677.7180330412
20600515,1021329.8427669877
20640516,1057730.8402688897
20680517,1043523.6592505255
20720518,1050215.1970853438
20760519,1066888.438605107
20800520,1046593.3909772018
20840521,1029334.9618118911
20880522,1058205.3550654687
20920523,1066239.7717261948
20960524,1054565.5716452438
21000525,1021615.3487500867
21040526,1047396.5520157925
21080527,1048957.4983753292
21120528,1043033.0555931317
21160529,1053634.5157866806
21200530,1058879.3204898231
21240531,1072064.4108608747
21280532,1065340.1654142544
21320533,1036805.8535759575
21360534,1043669.8479580556
21400535,1031078.3897605988
21440536,1020565.3547586899
21480537,1023819.9749550096
21520538,1043826.5716919699
21560539,1058304.1951442824
21600540,1014784.758676583
21640541,1004731.9971534911
21680542,1002017.4643119135
21720543,1014961.078708849
21760544,1016443.6019157938
21800545,1002622.200669495
21840546,1019373.3937747612
21880547,1005012.4385131167
21920548,1016655.9702549056
21960549,1045759.1467797114
22000550,1040861.9717401962
22040551,1032473.9336094892
22080552,1022053.6210122681
22120553,991121.0420979003
22160554,977494.9736530482
22200555,983706.719494715
22240556,975419.247765921
22280557,980141.5866180571
22320558,985385.5910372839
22360559,987371.5308300722
22400560,963578.8466581623
22440561,974304.412500181
22480562,998037.2508216585
22520563,982571.1913378902
22560564,954599.1993510196
22600565,968136.4104068389
22640566,961823.2062114682
22680567,971522.527038937
22720568,952166.4530056257
22760569,964675.2096088835
22800570,989122.4731844768
22840571,984700.5941633997
22880572,997198.1061043212
22920573,989593.3328301903
22960574,959624.8469666301
23000575,963614.6570370712
23040576,965137.0509553363
23080577,947145.5321380018
23120578,959317.9922604255
23160579,969010.3739582284
23200580,965310.2521431304
23240581,953817.5118309077
23280582,970005.883517323
23320583,988092.1400726778
23360584,965096.6145531049
23400585,976853.1689578197
23440586,966535.4215087635
23480587,961596.3493151778
23520588,968422.6109137215
23560589,957138.8214050621
23600590,968757.6428166667
23640591,957683.3339585457
23680592,955695.8321871138
23720593,937023.2840000921
23760594,920240.7460226247
23800595,909211.5402963236
23840596,912167.8864217157
23880597,927683.0272432077
23920598,928572.1943194722
23960599,940408.1906974575
24000600,909967.123177113
24040601,926992.5677829358
24080602,942568.8990521227
24120603,932805.7045736646
24160604,941714.0463074736
24200605,925936.8508008311
24240606,935295.2499770792
24280607,927805.723465921
24320608,937532.8993519626
24360609,925459.4370318127
24400610,922368.6478232292
24440611,924581.4796755739
24480612,914756.4201293639
24520613,908391.3057856881
24560614,916403.8635196474
24600615,895369.2035818006
24640616,883847.0260076746
24680617,876394.5257130297
24720618,899052.47088239
24760619,896413.6574706823
24800620,899187.3051257856
24840621,894652.4225751351
24880622,896662.8690116785
24920623,904407.2902955874
24960624,902482.6574318621
25000625,924180.1326927625
25040626,914829.4692025696
25080627,901059.1376166902
25120628,864711.6596906497
25160629,876011.6412785167
25200630,874880.1435488722
25240631,886081.2451891706
25280632,866161.8635700459
25320633,873267.8410427623
25360634,864192.832479769
25400635,859689.26459796
25440636,875191.1317580367
25480637,886288.3584247595
25520638,877599.1798109339
25560639,879741.7800426525
25600640,875009.9083641045
25640641,870906.2623559254
25680642,863008.7325434145
25720643,862413.2651015793
25760644,861615.3811194891
25800645,883790.1003086886
25840646,906756.120545083
25880647,893439.3357959394
25920648,885502.8811332238
25960649,867295.0917838443
26000650,872921.3625573547
26040651,878523.506779843
26080652,853248.0248638742
26120653,847892.2660184051
26160654,843093.5568314141
26200655,852183.0248218309
26240656,844461.3045194639
26280657,837095.9924173328
26320658,842338.885558137
26360659,849111.9204359116
26400660,837036.169404443
26440661,838277.7636097883
26480662,841802.3154885935
26520663,832128.5656240486
26560664,807213.8553959131
26600665,817160.5840907438
26640666,833177.6861163033
26680667,841453.8564230052
26720668,839120.0768119578
26760669,849308.9974491957
26800670,846915.1723070354
26840671,837723.2506370579
26880672,840857.305643105
26920673,830022.9040143524
26960674,823128.8353779372
27000675,819821.766886178
27040676,812455.6321586283
27080677,803571.0543830356
27120678,809358.1957566321
27160679,809665.4326014508
27200680,813603.4751804437
27240681,803207.7566572211
27280682,796197.3314124744
27320683,792411.7320857724
27360684,793605.7978052422
27400685,793156.4162687593
27440686,787295.9970165419
27480687,794273.4546916877
27520688,791228.671279789
27560689,787806.6693250977
27600690,782442.0877697708
27640691,782162.525676753
27680692,770603.1886795791
27720693,776587.8343593673
27760694,772537.6438245733
27800695,773369.9458617988
27840696,770692.8437597336
27880697,777534.9905821601
27920698,771110.9773830391
27960699,765241.4225284772
28000700,778164.6316286881
28040701,779432.464181974
28080702,769828.5758693714
28120703,761460.4292373417
28160704,750244.9265146605
28200705,757272.4459537584
28240706,749348.1599924929
28280707,743048.3352775706
28320708,747281.8539740116
28360709,747502.8245677096
28400710,753929.1098882834
28440711,742018.2160298541
28480712,751795.4369205592
28520713,748230.269604325
28560714,752517.3467632208
28600715,747680.9745453179
28640716,738407.1752113595
28680717,740599.4625301779
28720718,739192.7361212111
28760719,734378.9375611851
28800720,741286.6592044458
28840721,734038.480918498
28880722,730337.7272091074
28920723,729140.1814751673
28960724,728963.3935385527
29000725,724783.685622662
29040726,728023.6331491441
29080727,727997.4558346766
29120728,727556.7209150358
29160729,724346.8819580355
29200730,730129.3198884962
29240731,736883.9710803453
29280732,733299.7446553023
29320733,734562.8787389959
29360734,727821.5500058318
29400735,727446.8196877565
29440736,723626.2016968466
29480737,725926.2464540948
29520738,730148.1672982603
29560739,729769.2761557589
29600740,730231.4306142557
29640741,726828.16215202
29680742,723313.1297740794
29720743,722457.2842824658
29760744,720241.7513961557
29800745,720675.1215026622
29840746,723753.6907202263
29880747,722905.4479190222
29920748,723698.2631464418
29960749,720437.744664886
30000750,720463.4971441703
30040751,717626.7355955404
30080752,715563.1587023786
30120753,712965.0778588967
30160754,709885.6057573799
30200755,708366.6393232327
30240756,699386.6656334505
30280757,700177.8477651724
30320758,700246.6352699371
30360759,703461.0907657389
30400760,694886.0444878425
30440761,696193.134132452
30480762,691579.8943031133
30520763,693306.7563235587
30560764,692591.1602583519
30600765,693379.9161650353
30640766,687721.7525886864
30680767,687725.594015712
30720768,687179.3694701255
30760769,687686.5549810551
30800770,685377.071705006
30840771,688114.5179117264
30880772,683919.000970403
30920773,684072.0704396686
30960774,684080.0794209994
31000775,680842.4666718576
31040776,679113.1070468153
31080777,682842.1446480012
31120778,684239.5024115067
31160779,683324.6373468535
31200780,679992.7452507826
31240781,680318.6353127911
31280782,683392.4892368874
31320783,683852.7891627627
31360784,678934.5938809515
31400785,679628.0797795943
31440786,678622.3371788248
31480787,677915.0945538651
31520788,674623.1388547102
31560789,672460.72174339
31600790,675403.8407149351
31640791,676883.9464234215
31680792,677085.9822722336
31720793,675193.7634103411
31760794,671985.0847368963
31800795,674057.973023402
31840796,671660.578109333
31880797,671438.2881134878
31920798,670646.3993753403
31960799,667053.6126932
32000800,666707.1123363107
32040801,666162.3203027007
32080802,663090.9888388438
32120803,660906.7092687836
32160804,663156.8148450901
32200805,662123.2167566076
32240806,663493.7651255075
32280807,658697.6575441181
32320808,655130.6222152873
32360809,654979.6160406385
32400810,651989.6365985025
32440811,648916.3562883269
32480812,648422.1695115191
32520813,646261.4529053227
32560814,646526.1512748782
32600815,646465.3699773633
32640816,646135.6121881588
32680817,643460.0642608381
32720818,644577.6487000816
32760819,644323.8259920712
32800820,644324.2995637581
32840821,644154.0366148616
32880822,645583.230840633
32920823,645325.2640762395
32960824,644225.1848524362
33000825,644283.672698701
33040826,641339.8633765675
33080827,642139.2659190594
33120828,636782.0362670029
33160829,636292.8034169449
33200830,634660.0264821452
33240831,633489.6875632807
33280832,633005.485341471
33320833,630737.18278383
33360834,629527.2024322527
33400835,629550.2343554774
33440836,625742.5168932757
33480837,624699.8255509875
33520838,624139.2273214759
33560839,622851.7293480701
33600840,622214.6129937308
33640841,620232.9058101656
33680842,619682.7878801434
33720843,618285.1567190246
33760844,616082.3986782514
33800845,616051.9771154708
33840846,618226.5696154473
33880847,615497.2246484988
33920848,615230.1276489726
33960849,615741.0265286919
34000850,615783.3862979762
34040851,615252.8205736333
34080852,615524.6701644533
34120853,614438.9732652301
34160854,611215.7644755275
34200855,609815.3638397563
34240856,608434.3903836418
34280857,608908.8028253618
34320858,608635.2929193102
34360859,609314.3408321758
34400860,609189.0153031911
34440861,606853.109699191
34480862,605364.0721764234
34520863,605062.1551717179
34560864,604654.8331957911
34600865,604814.30348273
34640866,604674.5451676204
34680867,604211.9830127672
34720868,604117.7695271786
34760869,604046.738446178
34800870,604233.4754776328
34840871,605011.5370804645
34880872,605177.0464866455
34920873,602746.6371669332
34960874,602653.3320173564
35000875,602005.4756321342
35040876,600336.4716566737
35080877,600518.1215856144
35120878,597382.8170890268
35160879,597209.0197779853
35200880,596956.5106978914
35240881,594074.1568246216
35280882,593657.8998605337
35320883,592995.6271863449
35360884,592088.396698132
35400885,592039.3366922754
35440886,591626.8111170443
35480887,591608.7190155484
35520888,591078.465187166
35560889,591132.5149415432
35600890,589742.8470950047
35640891,589439.7171931247
35680892,587298.9580416939
35720893,587364.507295165
35760894,586740.194484655
35800895,586718.733666876
35840896,584533.5584539874
35880897,583824.0461498876
35920898,583137.8647404436
35960899,582192.790983734
36000900,582528.2090726396
36040901,581989.4627436299
36080902,582102.0244540519
36120903,582102.0244540519
36160904,582102.0244540519
36200905,581752.24319242
36240906,581636.3805540965
36280907,580920.2013449066
36320908,579998.746146204
36360909,577578.7591650198
36400910,577074.3089663791
36440911,576012.2073877378
36480912,573565.9240482392
36520913,573565.9240482392
36560914,573581.1201992163
36600915,573479.207578247
36640916,573479.207578247
36680917,573479.207578247
36720918,573362.3880255343
36760919,572559.8879652877
36800920,572459.3563989564
36840921,572244.1316687748
36880922,571987.2077586524
36920923,571961.7915746554
36960924,571095.3042653939
37000925,571095.3042653939
37040926,569819.5554101127
37080927,569214.2640695948
37120928,569094.6261349608
37160929,569043.5857694681
37200930,569111.5969791139
37240931,569169.2004432332
37280932,568679.5131745957
37320933,568679.5131745957
37360934,568660.8773268143
37400935,568164.8138559759
37440936,567545.364896874
37480937,567545.364896874
37520938,567470.9816829269
37560939,567470.9816829269
37600940,567470.9816829269
37640941,567269.6657310991
37680942,566986.3002082779
37720943,565302.288244352
37760944,563728.4931825865
37800945,563728.4931825865
37840946,563302.8438716759
37880947,561851.8898222072
37920948,561851.8898222072
37960949,561184.4919321617
38000950,561184.4919321617
38040951,561242.7195146253
38080952,560585.8830126375
38120953,559590.3301100652
38160954,559497.7817535843
38200955,559497.7817535843
38240956,559167.3294277798
38280957,559089.8778681688
38320958,559089.8778681688
38360959,558722.5763371756
38400960,558722.5763371756
38440961,558630.3069683624
38480962,558250.476828394
38520963,557413.8057247925
38560964,557489.2738304911
38600965,557059.0735351704
38640966,557085.9317209518
38680967,557085.9317209518
38720968,556889.8793263963
38760969,556589.5254827252
38800970,556192.9693355364
38840971,556143.4139038243
38880972,556103.4443736667
38920973,556037.0751346694
38960974,555917.9494000977
39000975,555656.9200903999
39040976,555198.3010535162
39080977,554721.6252308142
39120978,554330.3226619881
39160979,554242.6644321479
39200980,552315.3894878012
39240981,551995.7897614953
39280982,551918.5813413433
39320983,551901.2696658362
39360984,550681.593019255
39400985,550681.593019255
39440986,550596.0904927292
39480987,550431.9314755514
39520988,550426.7576631837
39560989,550139.9766599054
39600990,550139.9766599054
39640991,550139.9766599054
39680992,549896.6382350805
39720993,548190.2671138298
39760994,546307.0040215178
39800995,546267.792228497
39840996,545920.1106831323
39880997,545920.1106831323
39920998,544966.4620159729
