0,76831.7338145674
1,76240.88792832017
2,75907.31141968041
3,75907.31141968041
4,75907.31141968041
5,73652.03245948831
6,73652.03245948831
7,73652.03245948831
8,71924.41871149975
9,71924.41871149975
10,71924.41871149975
11,71924.41871149975
12,71924.41871149975
13,71157.974725263
14,71157.974725263
15,71157.974725263
16,71157.974725263
17,71157.974725263
18,71157.974725263
19,71157.974725263
20,71157.974725263
21,71157.974725263
22,71157.974725263
23,71157.974725263
24,69731.1725823185
25,69731.1725823185
26,66560.37395753246
27,66560.37395753246
28,66560.37395753246
29,66560.37395753246
30,62562.35951721176
31,62562.35951721176
32,56699.69884933594
33,56020.299497173284
34,51537.72785434686
35,47911.6286844363
36,42101.062103362245
37,35645.32487607389
38,35645.32487607389
39,35645.32487607389
40,31722.840378093548
41,31722.840378093548
42,28168.8820179915
43,27965.931118595683
44,27906.77518694214
45,26920.08777490657
46,26010.236161210552
47,23990.47935532442
48,23990.47935532442
49,23990.47935532442
50,23990.47935532442
51,23496.020297854633
52,23496.020297854633
53,23496.020297854633
54,23235.89697318924
55,23235.89697318924
56,22163.03544912234
57,22163.03544912234
58,22087.734457688668
59,22087.734457688668
60,22087.734457688668
61,21814.40139743934
62,21814.40139743934
63,21515.276549873437
64,21515.276549873437
65,21515.276549873437
66,21515.276549873437
67,21247.05485641979
68,21247.05485641979
69,21247.05485641979
70,21247.05485641979
71,21247.05485641979
72,21247.05485641979
73,21247.05485641979
74,21247.05485641979
75,21247.05485641979
76,21247.05485641979
77,21247.05485641979
78,21247.05485641979
79,21247.05485641979
80,21092.73313731736
81,21092.73313731736
82,21092.73313731736
83,21092.73313731736
84,21004.184470428536
85,21004.184470428536
86,21004.184470428536
87,21004.184470428536
88,21004.184470428536
89,21004.184470428536
90,21004.184470428536
91,21004.184470428536
92,21004.184470428536
93,21004.184470428536
94,21004.184470428536
95,21004.184470428536
96,21004.184470428536
97,20844.42775277462
98,20844.42775277462
99,20844.42775277462
100,20844.42775277462
101,20627.632650887146
102,20627.632650887146
103,20335.87512001118
104,20335.87512001118
105,20335.87512001118
106,20335.87512001118
107,20335.87512001118
108,20335.87512001118
109,20335.87512001118
110,20335.87512001118
111,20335.87512001118
112,20335.87512001118
113,20335.87512001118
114,20335.87512001118
115,20335.87512001118
116,20335.87512001118
117,20335.87512001118
118,20335.87512001118
119,20335.87512001118
120,20335.87512001118
121,20085.558358823157
122,20085.558358823157
123,20085.558358823157
124,20085.558358823157
125,20085.558358823157
126,20085.558358823157
127,20085.558358823157
128,20085.558358823157
129,20085.558358823157
130,20085.558358823157
131,20085.558358823157
132,20085.558358823157
133,20085.558358823157
134,20085.558358823157
135,20085.558358823157
136,20085.558358823157
137,20085.558358823157
138,20085.558358823157
139,20085.558358823157
140,20085.558358823157
141,20085.558358823157
142,20085.558358823157
143,20085.558358823157
144,20085.558358823157
145,20085.558358823157
146,20085.558358823157
147,20085.558358823157
148,20085.558358823157
149,20085.558358823157
150,20085.558358823157
151,20085.558358823157
152,20085.558358823157
153,20085.558358823157
154,20085.558358823157
155,20085.558358823157
156,20085.558358823157
157,20085.558358823157
158,20085.558358823157
159,20085.558358823157
160,20085.558358823157
161,20085.558358823157
162,20085.558358823157
163,20085.558358823157
164,20085.558358823157
165,20085.558358823157
166,20085.558358823157
167,19249.049535438277
168,19249.049535438277
169,19249.049535438277
170,19249.049535438277
171,19249.049535438277
172,19249.049535438277
173,19249.049535438277
174,19249.049535438277
175,19249.049535438277
176,19249.049535438277
177,19249.049535438277
178,19249.049535438277
179,19249.049535438277
180,19249.049535438277
181,19249.049535438277
182,19249.049535438277
183,19249.049535438277
184,19249.049535438277
185,19249.049535438277
186,19249.049535438277
187,19249.049535438277
188,19249.049535438277
189,19249.049535438277
190,19249.049535438277
191,19249.049535438277
192,19249.049535438277
193,19249.049535438277
194,19249.049535438277
195,19249.049535438277
196,19249.049535438277
197,19249.049535438277
198,19249.049535438277
199,19249.049535438277
200,19249.049535438277
201,19249.049535438277
202,19249.049535438277
203,19249.049535438277
204,19249.049535438277
205,19249.049535438277
206,19249.049535438277
207,19249.049535438277
208,18530.887110205753
209,18530.887110205753
210,18530.887110205753
211,18530.887110205753
212,18530.887110205753
213,18530.887110205753
214,18530.887110205753
215,18530.887110205753
216,18530.887110205753
217,18530.887110205753
218,18530.887110205753
219,18530.887110205753
220,18530.887110205753
221,18530.887110205753
222,18530.887110205753
223,18530.887110205753
224,18530.887110205753
225,18530.887110205753
226,18530.887110205753
227,18530.887110205753
228,18530.887110205753
229,18530.887110205753
230,18530.887110205753
231,18530.887110205753
232,18530.887110205753
233,18530.887110205753
234,18530.887110205753
235,18530.887110205753
236,18530.887110205753
237,18530.887110205753
238,18530.887110205753
239,18530.887110205753
240,18530.887110205753
241,18530.887110205753
242,18530.887110205753
243,18530.887110205753
244,18530.887110205753
245,18530.887110205753
246,18530.887110205753
247,18530.887110205753
248,18530.887110205753
249,18530.887110205753
250,18530.887110205753
251,18530.887110205753
252,18530.887110205753
253,18530.887110205753
254,18530.887110205753
255,18530.887110205753
256,18530.887110205753
257,18530.887110205753
258,18530.887110205753
259,18530.887110205753
260,18530.887110205753
261,18530.887110205753
262,18530.887110205753
263,18530.887110205753
264,18530.887110205753
265,18530.887110205753
266,18530.887110205753
267,18530.887110205753
268,18530.887110205753
269,18530.887110205753
270,18530.887110205753
271,18530.887110205753
272,18530.887110205753
273,18530.887110205753
274,18530.887110205753
275,18530.887110205753
276,18530.887110205753
277,18530.887110205753
278,18530.887110205753
279,18530.887110205753
280,18530.887110205753
281,18530.887110205753
282,18530.887110205753
283,18530.887110205753
284,18530.887110205753
285,18530.887110205753
286,18530.887110205753
287,18530.887110205753
288,18530.887110205753
289,18530.887110205753
290,18530.887110205753
291,18530.887110205753
292,18530.887110205753
293,18530.887110205753
294,18530.887110205753
295,18530.887110205753
296,18530.887110205753
297,18530.887110205753
298,18530.887110205753
299,18530.887110205753
300,18530.887110205753
301,18530.887110205753
302,18530.887110205753
303,18530.887110205753
304,18530.887110205753
305,18530.887110205753
306,18530.887110205753
307,18530.887110205753
308,18530.887110205753
309,18530.887110205753
310,18530.887110205753
311,18530.887110205753
312,18530.887110205753
313,18530.887110205753
314,18530.887110205753
315,18530.887110205753
316,18530.887110205753
317,18530.887110205753
318,18530.887110205753
319,18530.887110205753
320,18530.887110205753
321,18530.887110205753
322,18530.887110205753
323,18530.887110205753
324,18530.887110205753
325,18530.887110205753
326,18530.887110205753
327,18530.887110205753
328,18530.887110205753
329,18530.887110205753
330,18530.887110205753
331,18530.887110205753
332,18530.887110205753
333,18530.887110205753
334,18530.887110205753
335,18530.887110205753
336,18530.887110205753
337,18530.887110205753
338,18530.887110205753
339,18530.887110205753
340,18530.887110205753
341,18530.887110205753
342,18530.887110205753
343,18530.887110205753
344,18530.887110205753
345,18530.887110205753
346,18530.887110205753
347,18530.887110205753
348,18530.887110205753
349,18530.887110205753
350,18530.887110205753
351,18530.887110205753
352,18530.887110205753
353,18530.887110205753
354,18530.887110205753
355,18530.887110205753
356,18530.887110205753
357,18530.887110205753
358,18530.887110205753
359,18530.887110205753
360,18530.887110205753
361,18530.887110205753
362,18530.887110205753
363,18530.887110205753
364,18530.887110205753
365,18530.887110205753
366,18530.887110205753
367,18530.887110205753
368,18530.887110205753
369,18530.887110205753
370,18530.887110205753
371,18530.887110205753
372,18530.887110205753
373,18530.887110205753
374,18530.887110205753
375,18530.887110205753
376,18530.887110205753
377,18530.887110205753
378,18530.887110205753
379,18530.887110205753
380,18530.887110205753
381,18530.887110205753
382,18530.887110205753
383,18530.887110205753
384,18530.887110205753
385,18530.887110205753
386,18530.887110205753
387,18530.887110205753
388,18530.887110205753
389,18530.887110205753
390,18530.887110205753
391,18530.887110205753
392,18530.887110205753
393,18530.887110205753
394,18530.887110205753
395,18530.887110205753
396,18530.887110205753
397,18530.887110205753
398,18530.887110205753
399,18530.887110205753
400,18530.887110205753
401,18530.887110205753
402,18530.887110205753
403,18530.887110205753
404,18530.887110205753
405,18530.887110205753
406,18530.887110205753
407,18530.887110205753
408,18530.887110205753
409,18530.887110205753
410,18530.887110205753
411,18530.887110205753
412,18530.887110205753
413,18530.887110205753
414,18530.887110205753
415,18530.887110205753
416,18530.887110205753
417,18530.887110205753
418,18530.887110205753
419,18530.887110205753
420,18530.887110205753
421,18530.887110205753
422,18530.887110205753
423,18530.887110205753
424,18530.887110205753
425,18530.887110205753
426,18530.887110205753
427,18530.887110205753
428,18530.887110205753
429,18530.887110205753
430,18530.887110205753
431,18530.887110205753
432,18530.887110205753
433,18530.887110205753
434,18530.887110205753
435,18530.887110205753
436,18530.887110205753
437,18530.887110205753
438,18530.887110205753
439,18530.887110205753
440,18530.887110205753
441,18530.887110205753
442,18530.887110205753
443,18530.887110205753
444,18530.887110205753
445,18530.887110205753
446,18530.887110205753
447,18530.887110205753
448,18530.887110205753
449,18530.887110205753
450,18530.887110205753
451,18530.887110205753
452,18530.887110205753
453,18530.887110205753
454,18530.887110205753
455,18530.887110205753
456,18530.887110205753
457,18530.887110205753
458,18530.887110205753
459,18530.887110205753
460,18530.887110205753
461,18530.887110205753
462,18530.887110205753
463,18530.887110205753
464,18530.887110205753
465,18530.887110205753
466,18530.887110205753
467,18530.887110205753
468,18530.887110205753
469,18530.887110205753
470,18530.887110205753
471,18530.887110205753
472,18530.887110205753
473,18530.887110205753
474,18530.887110205753
475,18530.887110205753
476,18530.887110205753
477,18530.887110205753
478,18530.887110205753
479,18530.887110205753
480,18530.887110205753
481,18530.887110205753
482,18530.887110205753
483,18530.887110205753
484,18530.887110205753
485,18530.887110205753
486,18530.887110205753
487,18530.887110205753
488,18530.887110205753
489,18530.887110205753
490,18530.887110205753
491,18530.887110205753
492,18530.887110205753
493,18530.887110205753
494,18530.887110205753
495,18530.887110205753
496,18530.887110205753
497,18530.887110205753
498,18530.887110205753
499,18530.887110205753
500,18530.887110205753
501,18530.887110205753
502,18530.887110205753
503,18530.887110205753
504,18530.887110205753
505,18530.887110205753
506,18530.887110205753
507,18530.887110205753
508,18530.887110205753
509,18530.887110205753
510,18530.887110205753
511,18530.887110205753
512,18530.887110205753
513,18530.887110205753
514,18530.887110205753
515,18530.887110205753
516,18530.887110205753
517,18530.887110205753
518,18530.887110205753
519,18530.887110205753
520,18530.887110205753
521,18530.887110205753
522,18530.887110205753
523,18530.887110205753
524,18462.703239817918
525,18462.703239817918
526,18462.703239817918
527,18462.703239817918
528,18462.703239817918
529,18462.703239817918
530,18462.703239817918
531,18462.703239817918
532,18462.703239817918
533,18462.703239817918
534,18462.703239817918
535,18462.703239817918
536,18462.703239817918
537,18462.703239817918
538,18462.703239817918
539,18462.703239817918
540,18462.703239817918
541,18462.703239817918
542,18462.703239817918
543,18462.703239817918
544,18462.703239817918
545,18462.703239817918
546,18462.703239817918
547,18462.703239817918
548,18462.703239817918
549,18462.703239817918
550,18462.703239817918
551,18462.703239817918
552,18462.703239817918
553,18462.703239817918
554,18462.703239817918
555,18462.703239817918
556,18462.703239817918
557,18462.703239817918
558,18462.703239817918
559,18462.703239817918
560,18462.703239817918
561,18462.703239817918
562,18462.703239817918
563,18462.703239817918
564,18462.703239817918
565,18462.703239817918
566,18462.703239817918
567,18462.703239817918
568,18462.703239817918
569,18462.703239817918
570,18462.703239817918
571,18462.703239817918
572,18462.703239817918
573,18462.703239817918
574,18462.703239817918
575,18462.703239817918
576,18462.703239817918
577,18462.703239817918
578,18462.703239817918
579,18283.899560677844
580,18283.899560677844
581,18283.899560677844
582,18283.899560677844
583,18283.899560677844
584,18283.899560677844
585,18283.899560677844
586,18283.899560677844
587,18283.899560677844
588,18283.899560677844
589,18283.899560677844
590,18283.899560677844
591,18283.899560677844
592,18283.899560677844
593,18283.899560677844
594,18283.899560677844
595,18283.899560677844
596,18283.899560677844
597,18283.899560677844
598,18283.899560677844
599,18283.899560677844
600,18283.899560677844
601,18283.899560677844
602,18283.899560677844
603,18283.899560677844
604,18283.899560677844
605,18283.899560677844
606,18283.899560677844
607,18283.899560677844
608,18283.899560677844
609,18283.899560677844
610,18283.899560677844
611,18283.899560677844
612,18283.899560677844
613,18283.899560677844
614,18283.899560677844
615,18283.899560677844
616,18283.899560677844
617,18283.899560677844
618,18283.899560677844
619,18283.899560677844
620,18283.899560677844
621,18283.899560677844
622,18283.899560677844
623,18283.899560677844
624,18283.899560677844
625,18283.899560677844
626,18283.899560677844
627,18283.899560677844
628,18283.899560677844
629,18283.899560677844
630,18283.899560677844
631,18283.899560677844
632,18283.899560677844
633,18283.899560677844
634,18283.899560677844
635,18283.899560677844
636,18283.899560677844
637,18283.899560677844
638,18283.899560677844
639,18283.899560677844
640,18283.899560677844
641,18283.899560677844
642,18283.899560677844
643,18283.899560677844
644,18283.899560677844
645,18283.899560677844
646,18283.899560677844
647,18283.899560677844
648,18283.899560677844
649,18283.899560677844
650,18283.899560677844
651,18283.899560677844
652,18283.899560677844
653,18283.899560677844
654,18283.899560677844
655,18283.899560677844
656,18283.899560677844
657,18283.899560677844
658,18283.899560677844
659,18283.899560677844
660,18283.899560677844
661,18283.899560677844
662,18283.899560677844
663,18283.899560677844
664,18283.899560677844
665,18283.899560677844
666,18283.899560677844
667,18283.899560677844
668,18283.899560677844
669,18283.899560677844
670,18283.899560677844
671,18283.899560677844
672,18283.899560677844
673,18283.899560677844
674,18283.899560677844
675,18283.899560677844
676,18283.899560677844
677,18283.899560677844
678,18283.899560677844
679,18283.899560677844
680,18283.899560677844
681,18283.899560677844
682,18283.899560677844
683,18283.899560677844
684,18283.899560677844
685,18283.899560677844
686,18283.899560677844
687,18283.899560677844
688,18283.899560677844
689,18283.899560677844
690,18283.899560677844
691,18283.899560677844
692,18283.899560677844
693,18283.899560677844
694,18283.899560677844
695,18283.899560677844
696,18283.899560677844
697,18283.899560677844
698,18283.899560677844
699,18283.899560677844
700,18283.899560677844
701,18283.899560677844
702,18283.899560677844
703,18283.899560677844
704,18283.899560677844
705,18283.899560677844
706,18283.899560677844
707,18283.899560677844
708,18283.899560677844
709,18283.899560677844
710,18283.899560677844
711,18283.899560677844
712,18283.899560677844
713,18283.899560677844
714,18283.899560677844
715,18283.899560677844
716,18283.899560677844
717,18283.899560677844
718,18283.899560677844
719,18283.899560677844
720,18283.899560677844
721,18283.899560677844
722,18283.899560677844
723,18283.899560677844
724,18283.899560677844
725,18283.899560677844
726,18283.899560677844
727,18283.899560677844
728,18283.899560677844
729,18283.899560677844
