0,549376.0743899072
1,549376.0743899072
2,543714.9748838295
3,543714.9748838295
4,543714.9748838295
5,540160.3799580068
6,540160.3799580068
7,536503.0136511406
8,536503.0136511406
9,536503.0136511406
10,536503.0136511406
11,536503.0136511406
12,536503.0136511406
13,536503.0136511406
14,536503.0136511406
15,535611.2656378259
16,535611.2656378259
17,535611.2656378259
18,535611.2656378259
19,535611.2656378259
20,535611.2656378259
21,535611.2656378259
22,535611.2656378259
23,535611.2656378259
24,535611.2656378259
25,535611.2656378259
26,535611.2656378259
27,527128.3683996786
28,527128.3683996786
29,527128.3683996786
30,527128.3683996786
31,527128.3683996786
32,527128.3683996786
33,527128.3683996786
34,527128.3683996786
35,524577.8116264689
36,514916.4352760513
37,514916.4352760513
38,501024.64496524486
39,500898.3009604377
40,494705.9602531248
41,480377.21061015344
42,448098.5197758293
43,448098.5197758293
44,431290.6648099612
45,399298.41818755394
46,360033.36339675187
47,334543.69409680855
48,306406.0439455627
49,269413.3096471357
50,249108.14013378162
51,222777.67812596328
52,192701.89749919227
53,163032.6799524538
54,154184.36511437796
55,144392.29685010633
56,126745.98755528321
57,125148.69742839017
58,116595.8797131562
59,110416.88325088864
60,104250.70613208023
61,98950.38362736454
62,98950.38362736454
63,98227.09789676995
64,95987.17185219459
65,87634.36320547557
66,87634.36320547557
67,87634.36320547557
68,87634.36320547557
69,87634.36320547557
70,87634.36320547557
71,87634.36320547557
72,87634.36320547557
73,85740.05909258973
74,85740.05909258973
75,85740.05909258973
76,85740.05909258973
77,85740.05909258973
78,85740.05909258973
79,85733.11058207825
80,85686.53537838385
81,85686.53537838385
82,85686.53537838385
83,84859.3264386575
84,84859.3264386575
85,84859.3264386575
86,84859.3264386575
87,81317.54193193579
88,81317.54193193579
89,81317.54193193579
90,81317.54193193579
91,81317.54193193579
92,81317.54193193579
93,81317.54193193579
94,81317.54193193579
95,81317.54193193579
96,81317.54193193579
97,81317.54193193579
98,81317.54193193579
99,81317.54193193579
100,81317.54193193579
101,81317.54193193579
102,81317.54193193579
103,81317.54193193579
104,81317.54193193579
105,81317.54193193579
106,81317.54193193579
107,81317.54193193579
108,81317.54193193579
109,81317.54193193579
110,81317.54193193579
111,81317.54193193579
112,81317.54193193579
113,81317.54193193579
114,81317.54193193579
115,81317.54193193579
116,81317.54193193579
117,81317.54193193579
118,81317.54193193579
119,81317.54193193579
120,81317.54193193579
121,81317.54193193579
122,81317.54193193579
123,81317.54193193579
124,81317.54193193579
125,81317.54193193579
126,81317.54193193579
127,81317.54193193579
128,81317.54193193579
129,81317.54193193579
130,81317.54193193579
131,81317.54193193579
132,81317.54193193579
133,81317.54193193579
134,81317.54193193579
135,81317.54193193579
136,81317.54193193579
137,81317.54193193579
138,81317.54193193579
139,81317.54193193579
140,81317.54193193579
141,81317.54193193579
142,81317.54193193579
143,81317.54193193579
144,81317.54193193579
145,81317.54193193579
146,81317.54193193579
147,81317.54193193579
148,81317.54193193579
149,81317.54193193579
150,81317.54193193579
151,81317.54193193579
152,80580.79439221836
153,80580.79439221836
154,80580.79439221836
155,80580.79439221836
156,80580.79439221836
157,80580.79439221836
158,80580.79439221836
159,80580.79439221836
160,80580.79439221836
161,80580.79439221836
162,80580.79439221836
163,80580.79439221836
164,80580.79439221836
165,80580.79439221836
166,80580.79439221836
167,80580.79439221836
168,80580.79439221836
169,80580.79439221836
170,80580.79439221836
171,78695.7832007878
172,78695.7832007878
173,78695.7832007878
174,78695.7832007878
175,78695.7832007878
176,78695.7832007878
177,78695.7832007878
178,78695.7832007878
179,78695.7832007878
180,78695.7832007878
181,78695.7832007878
182,78695.7832007878
183,78695.7832007878
184,78695.7832007878
185,78695.7832007878
186,78695.7832007878
187,78695.7832007878
188,78695.7832007878
189,78695.7832007878
190,78695.7832007878
191,78695.7832007878
192,78695.7832007878
193,78695.7832007878
194,78695.7832007878
195,78695.7832007878
196,78695.7832007878
197,78695.7832007878
198,78695.7832007878
199,78695.7832007878
200,78695.7832007878
201,78695.7832007878
202,78695.7832007878
203,78695.7832007878
204,78695.7832007878
205,78695.7832007878
206,78695.7832007878
207,78695.7832007878
208,78695.7832007878
209,78695.7832007878
210,78695.7832007878
211,78695.7832007878
212,78695.7832007878
213,78695.7832007878
214,78695.7832007878
215,78695.7832007878
216,78695.7832007878
217,78695.7832007878
218,78695.7832007878
219,78695.7832007878
220,78695.7832007878
221,78695.7832007878
222,77523.16725931704
223,77523.16725931704
224,77523.16725931704
225,76667.39872489116
226,76667.39872489116
227,76667.39872489116
228,76667.39872489116
229,76667.39872489116
230,76667.39872489116
231,76667.39872489116
232,76667.39872489116
233,76667.39872489116
234,76667.39872489116
235,76667.39872489116
236,76667.39872489116
237,76667.39872489116
238,76667.39872489116
239,76667.39872489116
240,76667.39872489116
241,76667.39872489116
242,76667.39872489116
243,76667.39872489116
244,76667.39872489116
245,76667.39872489116
246,76667.39872489116
247,76667.39872489116
248,76667.39872489116
249,76667.39872489116
250,76667.39872489116
251,76667.39872489116
252,76667.39872489116
253,76667.39872489116
254,76667.39872489116
255,76667.39872489116
256,76667.39872489116
257,76667.39872489116
258,76667.39872489116
259,76667.39872489116
260,76667.39872489116
261,76667.39872489116
262,76667.39872489116
263,76667.39872489116
264,76667.39872489116
265,76667.39872489116
266,76667.39872489116
267,76667.39872489116
268,76667.39872489116
269,76667.39872489116
270,76667.39872489116
271,76401.69855245581
272,76401.69855245581
273,76401.69855245581
274,76401.69855245581
275,76401.69855245581
276,76401.69855245581
277,76401.69855245581
278,76401.69855245581
279,76401.69855245581
280,76401.69855245581
281,76401.69855245581
282,76401.69855245581
283,76401.69855245581
284,76401.69855245581
285,75233.7861530326
286,75233.7861530326
287,75233.7861530326
288,75233.7861530326
289,75233.7861530326
290,75233.7861530326
291,75233.7861530326
292,75233.7861530326
293,75233.7861530326
294,75233.7861530326
295,75233.7861530326
296,75233.7861530326
297,75233.7861530326
298,75233.7861530326
299,75233.7861530326
300,75233.7861530326
301,75233.7861530326
302,75233.7861530326
303,75233.7861530326
304,75233.7861530326
305,75233.7861530326
306,75233.7861530326
307,75233.7861530326
308,75233.7861530326
309,75233.7861530326
310,75233.7861530326
311,75233.7861530326
312,75233.7861530326
313,75233.7861530326
314,75233.7861530326
315,75233.7861530326
316,75233.7861530326
317,75233.7861530326
318,75233.7861530326
319,75233.7861530326
320,75233.7861530326
321,75233.7861530326
322,75233.7861530326
323,75233.7861530326
324,75233.7861530326
325,75233.7861530326
326,75233.7861530326
327,75233.7861530326
328,75233.7861530326
329,75233.7861530326
